pred_sci_mark.py
7.429023504257202
SOR10.py
21.970870971679688
SOR100.py
21.1443190574646
SOR101.py
22.021827697753906
SOR11.py
21.985983848571777
SOR12.py
21.37891674041748
SOR13.py
20.610045671463013
SOR14.py
24.322619676589966
SOR15.py
21.727513074874878
SOR16.py
22.18984079360962
SOR17.py
24.268645763397217
SOR18.py
16.52774691581726
SOR19.py
24.11793303489685
SOR2.py
15.4342679977417
SOR20.py
21.88966941833496
SOR21.py
60.28870439529419
SOR22.py
42.37681436538696
SOR23.py
44.83511447906494
SOR24.py
29.63047218322754
SOR25.py
45.989521503448486
SOR26.py
47.238550424575806
SOR27.py
44.95204043388367
SOR28.py
44.79433512687683
SOR29.py
44.20634484291077
SOR3.py
45.45511865615845
SOR30.py
29.12828493118286
SOR31.py
19.8563072681427
SOR32.py
27.33456587791443
SOR33.py
37.25317120552063
SOR34.py
38.41099548339844
SOR35.py
45.00121092796326
SOR36.py
35.08546710014343
SOR37.py
38.76898193359375
SOR38.py
50.59553575515747
SOR39.py
38.3861198425293
SOR4.py
41.459925174713135
SOR40.py
32.303295373916626
SOR41.py
36.50624394416809
SOR42.py
31.3257896900177
SOR43.py
42.09189295768738
SOR44.py
49.43108892440796
SOR45.py
43.97965359687805
SOR46.py
21.25197458267212
SOR47.py
17.641841650009155
SOR48.py
28.1650710105896
SOR49.py
17.155306577682495
SOR5.py
40.77543497085571
SOR50.py
55.56091499328613
SOR51.py
38.29090428352356
SOR52.py
17.479210376739502
SOR53.py
44.99967885017395
SOR54.py
50.41905856132507
SOR55.py
49.24043369293213
SOR56.py
42.11932063102722
SOR57.py
30.60810422897339
SOR58.py
45.768759965896606
SOR59.py
10.963804244995117
SOR6.py
27.536633729934692
SOR60.py
34.64354395866394
SOR61.py
27.140352725982666
SOR62.py
32.50925278663635
SOR63.py
29.753457069396973
SOR64.py
45.86119294166565
SOR65.py
30.7357816696167
SOR66.py
40.223450899124146
SOR67.py
8.68748950958252
SOR68.py
27.89180612564087
SOR69.py
35.03931784629822
SOR7.py
38.51878070831299
SOR70.py
27.460246562957764
SOR71.py
18.606637239456177
SOR72.py
45.223368406295776
SOR73.py
41.11583685874939
SOR74.py
40.98576617240906
SOR75.py
26.76733922958374
SOR76.py
35.30401349067688
SOR77.py
27.927615880966187
SOR78.py
36.560930490493774
SOR79.py
29.424109935760498
SOR8.py
28.109824657440186
SOR80.py
26.848798513412476
SOR81.py
44.58984160423279
SOR82.py
28.813590049743652
SOR83.py
27.64350724220276
SOR84.py
18.185147285461426
SOR85.py
16.394517183303833
SOR86.py
22.11094617843628
SOR87.py
26.707775592803955
SOR88.py
45.66462683677673
SOR89.py
32.818920612335205
SOR9.py
38.70634913444519
SOR90.py
38.683268308639526
SOR91.py
33.08752679824829
SOR92.py
25.854230403900146
SOR93.py
17.835082292556763
SOR94.py
14.881423234939575
SOR95.py
14.172346353530884
SOR96.py
8.41408896446228
SOR97.py
39.62751746177673
SOR98.py
38.73779249191284
SOR99.py
36.057246923446655
