21.998519897460938
21.773070096969604
33.070908069610596
32.733280658721924
21.82384967803955
21.891892910003662
9.251185655593872
9.089650630950928
9.08424711227417
21.646318674087524
21.88625693321228
22.10039496421814
21.752707481384277
9.209534406661987
9.272348642349243
32.76962733268738
35.762309074401855
11.929237842559814
20.773991584777832
22.188478231430054
33.04617524147034
20.765751600265503
21.13216495513916
20.779459238052368
9.182615518569946
32.92629313468933
9.226107835769653
9.109551668167114
9.220437049865723
33.23176312446594
20.666029691696167
22.00817847251892
21.194137811660767
22.162944078445435
33.488056898117065
32.8951735496521
22.016729593276978
22.10809898376465
22.36650252342224
33.20289397239685
21.891334295272827
9.252213954925537
20.747037649154663
20.678093910217285
22.06382918357849
21.119380712509155
33.369542837142944
21.853265523910522
20.76445484161377
20.762622117996216
20.819334745407104
22.505377292633057
33.34862494468689
9.269127368927002
20.614970922470093
20.878580808639526
21.92669129371643
20.810325860977173
22.112317323684692
20.952661752700806
33.26702427864075
22.202483892440796
21.841508150100708
21.03279423713684
22.22312092781067
32.702354431152344
20.749593019485474
20.88020634651184
20.93350863456726
9.232270240783691
9.173433542251587
20.64274573326111
22.501749277114868
33.55149722099304
32.881253480911255
33.19534754753113
22.188435554504395
9.189645767211914
9.263377666473389
32.78506588935852
32.94579887390137
20.957655668258667
20.76200556755066
22.281097888946533
20.800857543945312
21.805808782577515
21.797756671905518
22.248993396759033
20.780166625976562
21.385493278503418
20.925029516220093
9.274626016616821
20.889522314071655
32.969844341278076
20.887443780899048
33.05727767944336
22.138036966323853
21.885770320892334
21.963139295578003
20.66792869567871
9.629212141036987
