even1.py
1.2475004196166992
even10.py
27.769620656967163
even11.py
18.060439109802246
even12.py
18.48313045501709
even13.py
26.859249353408813
even14.py
26.60369873046875
even15.py
18.293857097625732
even16.py
17.81594681739807
even2.py
1.569702386856079
even3.py
27.658141613006592
even4.py
27.81341528892517
even5.py
1.56168532371521
even6.py
1.4113428592681885
even7.py
28.097412824630737
even8.py
27.11202096939087
even9.py
26.421125650405884
even1.py
0.41305041313171387
even10.py
0.024493932723999023
even11.py
0.02399611473083496
even12.py
0.024631261825561523
even13.py
0.02479839324951172
even14.py
0.025550365447998047
even15.py
0.024462461471557617
even16.py
0.02408146858215332
even2.py
0.398165225982666
even3.py
0.024304628372192383
even4.py
0.023554325103759766
even5.py
0.39951086044311523
even6.py
0.4033393859863281
even7.py
0.024125337600708008
even8.py
0.026190519332885742
even9.py
0.024465560913085938
even1.py
1.2513504028320312
even10.py
27.493818044662476
even11.py
18.515591859817505
even12.py
18.771268606185913
even13.py
28.704900979995728
even14.py
27.604085445404053
even15.py
18.85651707649231
even16.py
18.44396209716797
even2.py
1.565500020980835
even3.py
28.381792306900024
even4.py
28.186437845230103
even5.py
1.5701143741607666
even6.py
1.4261763095855713
even7.py
27.95244598388672
even8.py
27.953263521194458
even9.py
27.47183322906494
