sieve1.py
3.9076874256134033
sieve10.py
3.7941455841064453
sieve100.py
3.699983596801758
sieve1000.py
15.615581035614014
sieve1001.py
5.231522560119629
sieve1002.py
14.290836572647095
sieve1003.py
3.0039618015289307
sieve1004.py
16.628188848495483
sieve1005.py
14.44917893409729
sieve1006.py
5.156921148300171
sieve1007.py
2.836632490158081
sieve1008.py
3.7940330505371094
sieve1009.py
5.459481954574585
sieve101.py
3.903909921646118
sieve1010.py
15.429731369018555
sieve1011.py
3.7039811611175537
sieve1012.py
4.632078170776367
sieve1013.py
5.1537981033325195
sieve1014.py
3.6767947673797607
sieve1015.py
5.493120431900024
sieve1016.py
2.9794695377349854
sieve1017.py
3.7772371768951416
sieve1018.py
2.7567739486694336
sieve1019.py
3.8532333374023438
sieve102.py
3.6996865272521973
sieve1020.py
16.346415519714355
sieve1021.py
2.8384227752685547
sieve1022.py
4.338343620300293
sieve1023.py
14.866272211074829
sieve1024.py
14.089306354522705
sieve103.py
13.92674994468689
sieve104.py
14.642714977264404
sieve105.py
14.649038553237915
sieve106.py
13.785976886749268
sieve107.py
4.604172229766846
sieve108.py
3.1507625579833984
sieve109.py
3.04067325592041
sieve11.py
2.8409547805786133
sieve110.py
3.0555496215820312
sieve111.py
14.017980098724365
sieve112.py
2.93841290473938
sieve113.py
15.480942249298096
sieve114.py
14.979848623275757
sieve115.py
4.636236190795898
sieve116.py
3.9459989070892334
sieve117.py
16.399431943893433
sieve118.py
4.788246154785156
sieve119.py
3.0561683177948
sieve12.py
3.034205913543701
sieve120.py
15.506283521652222
sieve121.py
3.696272850036621
sieve122.py
3.7710013389587402
sieve123.py
14.032222509384155
sieve124.py
15.588919639587402
sieve125.py
14.247530698776245
sieve126.py
3.1317687034606934
sieve127.py
3.7428622245788574
sieve128.py
4.830838441848755
sieve129.py
2.9149484634399414
sieve13.py
4.218873500823975
sieve130.py
18.165311813354492
sieve131.py
14.239612817764282
sieve132.py
3.9277470111846924
sieve133.py
5.188149690628052
sieve134.py
5.418771505355835
sieve135.py
15.978171110153198
sieve136.py
14.096706867218018
sieve137.py
14.28752064704895
sieve138.py
5.079505681991577
sieve139.py
3.6972477436065674
sieve14.py
5.5949177742004395
sieve140.py
5.359227180480957
sieve141.py
15.998987674713135
sieve142.py
3.812614679336548
sieve143.py
4.4323036670684814
sieve144.py
5.31995415687561
sieve145.py
13.740995407104492
sieve146.py
3.7028095722198486
sieve147.py
4.284619569778442
sieve148.py
4.4022767543792725
sieve149.py
5.1264166831970215
sieve15.py
15.698117971420288
sieve150.py
2.845222234725952
sieve151.py
5.58080267906189
sieve152.py
3.150322914123535
sieve153.py
5.496065616607666
sieve154.py
3.9642539024353027
sieve155.py
17.026572942733765
sieve156.py
5.527575254440308
sieve157.py
14.668198108673096
sieve158.py
16.454849004745483
sieve159.py
5.22152853012085
sieve16.py
15.143704652786255
sieve160.py
2.9094595909118652
sieve161.py
3.0270063877105713
sieve162.py
2.9221558570861816
sieve163.py
4.052783966064453
sieve164.py
15.820074796676636
sieve165.py
14.771007537841797
sieve166.py
17.638819932937622
sieve167.py
3.8108034133911133
sieve168.py
14.29989504814148
sieve169.py
14.583597183227539
sieve17.py
3.8055830001831055
sieve170.py
5.122610092163086
sieve171.py
5.398886680603027
sieve172.py
14.960963249206543
sieve173.py
16.754783153533936
sieve174.py
3.845433235168457
sieve175.py
4.422352075576782
sieve176.py
14.784569501876831
sieve177.py
16.16274380683899
sieve178.py
4.007491827011108
sieve179.py
2.881774425506592
sieve18.py
13.922113180160522
sieve180.py
3.0934860706329346
sieve181.py
15.50609564781189
sieve182.py
3.650860548019409
sieve183.py
5.213966131210327
sieve184.py
14.01150369644165
sieve185.py
3.0119104385375977
sieve186.py
2.9678776264190674
sieve187.py
14.697119951248169
sieve188.py
5.4921863079071045
sieve189.py
4.275121688842773
sieve19.py
5.291860580444336
sieve190.py
5.258119344711304
sieve191.py
3.943195104598999
sieve192.py
3.8704512119293213
sieve193.py
13.993851900100708
sieve194.py
17.738298416137695
sieve195.py
16.742364168167114
sieve196.py
3.005398750305176
sieve197.py
4.19129204750061
sieve198.py
2.843231201171875
sieve199.py
3.9711313247680664
sieve2.py
13.952516317367554
sieve20.py
3.669125556945801
sieve200.py
14.029217004776001
sieve201.py
3.7933332920074463
sieve202.py
15.996769666671753
sieve203.py
4.660912752151489
sieve204.py
4.201992750167847
sieve205.py
15.087137222290039
sieve206.py
14.352182626724243
sieve207.py
16.381988525390625
sieve208.py
2.838268280029297
sieve209.py
16.10944962501526
sieve21.py
5.164727449417114
sieve210.py
14.304189205169678
sieve211.py
14.816821098327637
sieve212.py
3.0883989334106445
sieve213.py
16.68936038017273
sieve214.py
3.8424232006073
sieve215.py
15.62087869644165
sieve216.py
3.8833489418029785
sieve217.py
5.441229820251465
sieve218.py
16.708282947540283
sieve219.py
2.822503089904785
sieve22.py
14.305736541748047
sieve220.py
4.604360103607178
sieve221.py
2.8340868949890137
sieve222.py
16.092766284942627
sieve223.py
3.6824870109558105
sieve224.py
3.001246452331543
sieve225.py
3.7803966999053955
sieve226.py
16.060482025146484
sieve227.py
3.8563854694366455
sieve228.py
4.447381258010864
sieve229.py
3.6704230308532715
sieve23.py
13.966238260269165
sieve230.py
3.8484816551208496
sieve231.py
15.012061834335327
sieve232.py
3.6890480518341064
sieve233.py
5.254929065704346
sieve234.py
17.211494207382202
sieve235.py
5.462594032287598
sieve236.py
3.7635700702667236
sieve237.py
16.05862808227539
sieve238.py
15.450300455093384
sieve239.py
16.034508228302002
sieve24.py
3.0812227725982666
sieve240.py
5.274405241012573
sieve241.py
5.433458089828491
sieve242.py
13.848607540130615
sieve243.py
5.437546968460083
sieve244.py
14.766125440597534
sieve245.py
3.954954147338867
sieve246.py
13.856197595596313
sieve247.py
4.243757247924805
sieve248.py
5.501028537750244
sieve249.py
5.1445558071136475
sieve25.py
14.126856803894043
sieve250.py
5.490436792373657
sieve251.py
5.197725772857666
sieve252.py
3.1354711055755615
sieve253.py
4.383542776107788
sieve254.py
2.9666588306427
sieve255.py
3.8433547019958496
sieve256.py
3.8349204063415527
sieve257.py
4.946084260940552
sieve258.py
15.142090559005737
sieve259.py
4.270631790161133
sieve26.py
16.75508713722229
sieve260.py
13.889257192611694
sieve261.py
2.9663829803466797
sieve262.py
14.806090831756592
sieve263.py
5.515131950378418
sieve264.py
14.521012783050537
sieve265.py
15.59032154083252
sieve266.py
16.136353254318237
sieve267.py
4.180190801620483
sieve268.py
5.478060960769653
sieve269.py
16.70052695274353
sieve27.py
14.358996629714966
sieve270.py
3.8405568599700928
sieve271.py
4.639366865158081
sieve272.py
2.8415443897247314
sieve273.py
16.556358814239502
sieve274.py
16.46848201751709
sieve275.py
14.136349201202393
sieve276.py
15.445050477981567
sieve277.py
14.238272428512573
sieve278.py
4.8266401290893555
sieve279.py
16.924416303634644
sieve28.py
15.465122699737549
sieve280.py
18.03300905227661
sieve281.py
15.845555067062378
sieve282.py
5.570371627807617
sieve283.py
3.7770421504974365
sieve284.py
2.8950438499450684
sieve285.py
4.483331203460693
sieve286.py
4.706115007400513
sieve287.py
4.512878894805908
sieve288.py
15.902913570404053
sieve289.py
15.109452724456787
sieve29.py
15.075794696807861
sieve290.py
13.91967511177063
sieve291.py
4.269143581390381
sieve292.py
3.769624948501587
sieve293.py
3.7122561931610107
sieve294.py
16.89864754676819
sieve295.py
3.8992342948913574
sieve296.py
15.103187561035156
sieve297.py
14.226738691329956
sieve298.py
4.004113674163818
sieve299.py
15.205332040786743
sieve3.py
13.931573152542114
sieve30.py
16.318777322769165
sieve300.py
4.302195310592651
sieve301.py
15.956058502197266
sieve302.py
4.607734441757202
sieve303.py
4.32628321647644
sieve304.py
3.780298948287964
sieve305.py
3.701617956161499
sieve306.py
4.259414911270142
sieve307.py
15.82555079460144
sieve308.py
3.8448777198791504
sieve309.py
16.51764988899231
sieve31.py
3.0258610248565674
sieve310.py
5.517699956893921
sieve311.py
2.9262681007385254
sieve312.py
3.7829301357269287
sieve313.py
4.010824918746948
sieve314.py
4.836045503616333
sieve315.py
4.5754170417785645
sieve316.py
5.140772581100464
sieve317.py
16.014745473861694
sieve318.py
4.584826469421387
sieve319.py
4.427713632583618
sieve32.py
4.333155155181885
sieve320.py
5.082706689834595
sieve321.py
5.1365156173706055
sieve322.py
4.545347213745117
sieve323.py
13.85352110862732
sieve324.py
15.517457008361816
sieve325.py
5.140942811965942
sieve326.py
13.94328236579895
sieve327.py
3.718909978866577
sieve328.py
3.774918794631958
sieve329.py
4.25067400932312
sieve33.py
15.820400953292847
sieve330.py
3.181147336959839
sieve331.py
5.54047155380249
sieve332.py
15.49265742301941
sieve333.py
13.916978597640991
sieve334.py
16.2919442653656
sieve335.py
16.14048194885254
sieve336.py
3.2582664489746094
sieve337.py
17.124666690826416
sieve338.py
3.808713436126709
sieve339.py
3.69614315032959
sieve34.py
15.81991457939148
sieve340.py
2.881035804748535
sieve341.py
15.113609075546265
sieve342.py
5.775828123092651
sieve343.py
5.527141809463501
sieve344.py
14.611210107803345
sieve345.py
4.192282199859619
sieve346.py
16.213985204696655
sieve347.py
13.874744415283203
sieve348.py
3.8609936237335205
sieve349.py
14.633363246917725
sieve35.py
16.178829669952393
sieve350.py
13.82001543045044
sieve351.py
16.048149585723877
sieve352.py
14.46727466583252
sieve353.py
3.048583745956421
sieve354.py
3.0862417221069336
sieve355.py
5.197653293609619
sieve356.py
3.0735840797424316
sieve357.py
4.398766279220581
sieve358.py
4.332625389099121
sieve359.py
14.147030353546143
sieve36.py
4.390733003616333
sieve360.py
16.098761081695557
sieve361.py
5.513419151306152
sieve362.py
15.304519891738892
sieve363.py
14.684126377105713
sieve364.py
5.033408880233765
sieve365.py
3.083402395248413
sieve366.py
15.456050872802734
sieve367.py
13.90494966506958
sieve368.py
15.516180515289307
sieve369.py
15.489988565444946
sieve37.py
14.026159763336182
sieve370.py
5.6013054847717285
sieve371.py
14.828946590423584
sieve372.py
3.6986141204833984
sieve373.py
3.917287826538086
sieve374.py
16.617929697036743
sieve375.py
4.855095863342285
sieve376.py
14.595698356628418
sieve377.py
5.171078205108643
sieve378.py
15.024379253387451
sieve379.py
3.1627395153045654
sieve38.py
15.481675624847412
sieve380.py
15.454455137252808
sieve381.py
3.832923173904419
sieve382.py
3.745774269104004
sieve383.py
3.6867449283599854
sieve384.py
13.842716455459595
sieve385.py
4.370317697525024
sieve386.py
13.938058614730835
sieve387.py
2.8517730236053467
sieve388.py
5.111993789672852
sieve389.py
14.4122953414917
sieve39.py
16.218414068222046
sieve390.py
15.879626035690308
sieve391.py
16.346572399139404
sieve392.py
5.174813747406006
sieve393.py
3.9315848350524902
sieve394.py
3.058311700820923
sieve395.py
3.827242136001587
sieve396.py
14.26933240890503
sieve397.py
3.7847206592559814
sieve398.py
5.432878255844116
sieve399.py
17.872251987457275
sieve4.py
14.53784990310669
sieve40.py
2.9295103549957275
sieve400.py
4.8916015625
sieve401.py
4.316730260848999
sieve402.py
14.118905544281006
sieve403.py
15.265045404434204
sieve404.py
4.386034965515137
sieve405.py
4.855879068374634
sieve406.py
15.829432964324951
sieve407.py
3.843343496322632
sieve408.py
4.106891632080078
sieve409.py
3.728633403778076
sieve41.py
3.066220760345459
sieve410.py
15.255369186401367
sieve411.py
5.218928575515747
sieve412.py
14.082197904586792
sieve413.py
15.731962203979492
sieve414.py
17.722833395004272
sieve415.py
4.610781908035278
sieve416.py
2.973907709121704
sieve417.py
2.8686394691467285
sieve418.py
14.230768918991089
sieve419.py
15.885321378707886
sieve42.py
16.17055058479309
sieve420.py
14.511847734451294
sieve421.py
17.25943636894226
sieve422.py
2.9248039722442627
sieve423.py
14.875861644744873
sieve424.py
14.66071105003357
sieve425.py
4.498704671859741
sieve426.py
13.903122425079346
sieve427.py
5.501568794250488
sieve428.py
5.280587911605835
sieve429.py
4.103550434112549
sieve43.py
14.016474485397339
sieve430.py
3.104813575744629
sieve431.py
4.566507577896118
sieve432.py
14.179981708526611
sieve433.py
16.458130598068237
sieve434.py
3.07452392578125
sieve435.py
14.243628978729248
sieve436.py
3.111870050430298
sieve437.py
2.84694504737854
sieve438.py
4.289931058883667
sieve439.py
16.759508848190308
sieve44.py
16.558857440948486
sieve440.py
3.9228978157043457
sieve441.py
3.8258371353149414
sieve442.py
3.904564142227173
sieve443.py
3.7671213150024414
sieve444.py
5.442206859588623
sieve445.py
4.593822240829468
sieve446.py
2.8502674102783203
sieve447.py
4.033391714096069
sieve448.py
3.031660318374634
sieve449.py
3.7427027225494385
sieve45.py
5.464897155761719
sieve450.py
2.828739881515503
sieve451.py
16.581658124923706
sieve452.py
14.548418045043945
sieve453.py
3.784822940826416
sieve454.py
15.503623723983765
sieve455.py
4.033420085906982
sieve456.py
2.798537015914917
sieve457.py
4.034313678741455
sieve458.py
17.173156023025513
sieve459.py
3.1467411518096924
sieve46.py
2.963242292404175
sieve460.py
3.9182047843933105
sieve461.py
5.41945743560791
sieve462.py
14.363847017288208
sieve463.py
4.645082473754883
sieve464.py
5.490012884140015
sieve465.py
13.933217763900757
sieve466.py
4.681249141693115
sieve467.py
15.32801365852356
sieve468.py
14.90324330329895
sieve469.py
5.240255832672119
sieve47.py
3.0674359798431396
sieve470.py
14.1693856716156
sieve471.py
3.7350986003875732
sieve472.py
13.831106424331665
sieve473.py
16.141324996948242
sieve474.py
5.354623317718506
sieve475.py
3.8444013595581055
sieve476.py
5.367888689041138
sieve477.py
5.163529396057129
sieve478.py
15.220939636230469
sieve479.py
3.789928674697876
sieve48.py
4.779083013534546
sieve480.py
4.163402795791626
sieve481.py
3.774480104446411
sieve482.py
3.8025076389312744
sieve483.py
4.271633148193359
sieve484.py
16.048362731933594
sieve485.py
4.394619941711426
sieve486.py
16.84298300743103
sieve487.py
3.9681832790374756
sieve488.py
3.071136474609375
sieve489.py
4.556172847747803
sieve49.py
2.9550676345825195
sieve490.py
2.8404059410095215
sieve491.py
2.874354839324951
sieve492.py
13.95311450958252
sieve493.py
14.26683783531189
sieve494.py
4.119453430175781
sieve495.py
5.628888368606567
sieve496.py
15.075255393981934
sieve497.py
15.948078632354736
sieve498.py
2.8205132484436035
sieve499.py
5.186775207519531
sieve5.py
3.907651662826538
sieve50.py
14.103960275650024
sieve500.py
3.6920104026794434
sieve501.py
14.761946201324463
sieve502.py
17.029134511947632
sieve503.py
14.079550743103027
sieve504.py
15.476965188980103
sieve505.py
5.606927156448364
sieve506.py
4.269453287124634
sieve507.py
16.202521562576294
sieve508.py
3.741834878921509
sieve509.py
2.8225693702697754
sieve51.py
17.219246864318848
sieve510.py
15.791180849075317
sieve511.py
5.363621950149536
sieve512.py
3.692006826400757
sieve513.py
4.640807390213013
sieve514.py
15.7280912399292
sieve515.py
3.9613311290740967
sieve516.py
5.10603928565979
sieve517.py
15.846100807189941
sieve518.py
4.6447131633758545
sieve519.py
3.6409459114074707
sieve52.py
14.963887929916382
sieve520.py
5.474789142608643
sieve521.py
3.9849493503570557
sieve522.py
5.192244052886963
sieve523.py
5.5805792808532715
sieve524.py
15.837814092636108
sieve525.py
14.242774963378906
sieve526.py
15.847965478897095
sieve527.py
3.1454880237579346
sieve528.py
5.3811187744140625
sieve529.py
14.96496295928955
sieve53.py
3.1590235233306885
sieve530.py
2.841440200805664
sieve531.py
14.692115306854248
sieve532.py
2.8978271484375
sieve533.py
14.882222652435303
sieve534.py
4.251961708068848
sieve535.py
14.172568798065186
sieve536.py
14.514331340789795
sieve537.py
15.920598983764648
sieve538.py
14.932214498519897
sieve539.py
15.611403942108154
sieve54.py
5.587772607803345
sieve540.py
14.437381267547607
sieve541.py
16.298489093780518
sieve542.py
3.7492129802703857
sieve543.py
4.619837284088135
sieve544.py
5.177585124969482
sieve545.py
3.823453903198242
sieve546.py
13.992985725402832
sieve547.py
16.07814311981201
sieve548.py
3.804314136505127
sieve549.py
3.858518600463867
sieve55.py
4.37104868888855
sieve550.py
16.444034099578857
sieve551.py
2.8654778003692627
sieve552.py
15.225365400314331
sieve553.py
3.7548303604125977
sieve554.py
14.20950984954834
sieve555.py
4.236750364303589
sieve556.py
4.0313849449157715
sieve557.py
3.0004360675811768
sieve558.py
5.076271295547485
sieve559.py
2.9403374195098877
sieve56.py
3.1053404808044434
sieve560.py
16.61953830718994
sieve561.py
16.74764370918274
sieve562.py
4.222518444061279
sieve563.py
17.16237473487854
sieve564.py
15.730605840682983
sieve565.py
5.34368109703064
sieve566.py
5.560714244842529
sieve567.py
14.247010707855225
sieve568.py
14.866666793823242
sieve569.py
5.14107871055603
sieve57.py
17.09306311607361
sieve570.py
3.741004228591919
sieve571.py
3.783571481704712
sieve572.py
3.995821237564087
sieve573.py
5.5303122997283936
sieve574.py
14.889856576919556
sieve575.py
4.379652738571167
sieve576.py
4.50996994972229
sieve577.py
3.660520553588867
sieve578.py
5.115908622741699
sieve579.py
5.452057361602783
sieve58.py
5.038860559463501
sieve580.py
2.9816694259643555
sieve581.py
4.548778533935547
sieve582.py
4.610335350036621
sieve583.py
5.6841230392456055
sieve584.py
5.153632879257202
sieve585.py
3.911007881164551
sieve586.py
4.328094005584717
sieve587.py
16.23752236366272
sieve588.py
2.9088621139526367
sieve589.py
4.884419918060303
sieve59.py
3.913524627685547
sieve590.py
3.766503095626831
sieve591.py
5.623598098754883
sieve592.py
3.6722891330718994
sieve593.py
14.010526895523071
sieve594.py
15.955723285675049
sieve595.py
3.1292123794555664
sieve596.py
4.721625089645386
sieve597.py
14.060815811157227
sieve598.py
3.847369432449341
sieve599.py
15.684506893157959
sieve6.py
5.420409679412842
sieve60.py
15.899845600128174
sieve600.py
5.240110635757446
sieve601.py
13.990880250930786
sieve602.py
3.8599741458892822
sieve603.py
15.664313316345215
sieve604.py
15.151199102401733
sieve605.py
4.024225234985352
sieve606.py
3.7293949127197266
sieve607.py
4.67931056022644
sieve608.py
3.896592617034912
sieve609.py
4.159973621368408
sieve61.py
5.198595762252808
sieve610.py
5.570710897445679
sieve611.py
15.606283903121948
sieve612.py
5.504063606262207
sieve613.py
16.24734139442444
sieve614.py
5.531456232070923
sieve615.py
15.242034435272217
sieve616.py
3.7262468338012695
sieve617.py
14.13594913482666
sieve618.py
16.735771656036377
sieve619.py
16.623799562454224
sieve62.py
4.0658791065216064
sieve620.py
13.724593877792358
sieve621.py
2.8093698024749756
sieve622.py
4.0747880935668945
sieve623.py
4.563984155654907
sieve624.py
17.124821186065674
sieve625.py
4.536967992782593
sieve626.py
4.4480390548706055
sieve627.py
15.71676778793335
sieve628.py
2.7232418060302734
sieve629.py
3.7968156337738037
sieve63.py
3.8292675018310547
sieve630.py
5.102229595184326
sieve631.py
3.7743031978607178
sieve632.py
17.44617772102356
sieve633.py
16.22097134590149
sieve634.py
5.587888479232788
sieve635.py
4.838270902633667
sieve636.py
5.585120916366577
sieve637.py
4.961119890213013
sieve638.py
3.0099918842315674
sieve639.py
4.742380142211914
sieve64.py
4.590115785598755
sieve640.py
13.939444065093994
sieve641.py
3.902735710144043
sieve642.py
5.52854585647583
sieve643.py
5.3214709758758545
sieve644.py
3.829698085784912
sieve645.py
5.1596739292144775
sieve646.py
3.956526517868042
sieve647.py
3.938366651535034
sieve648.py
14.909349203109741
sieve649.py
14.017622470855713
sieve65.py
15.076676845550537
sieve650.py
14.792088985443115
sieve651.py
2.8561222553253174
sieve652.py
3.918975353240967
sieve653.py
14.310310125350952
sieve654.py
15.946877717971802
sieve655.py
4.144608736038208
sieve656.py
2.9529311656951904
sieve657.py
15.3421311378479
sieve658.py
4.829098701477051
sieve659.py
5.5219855308532715
sieve66.py
5.54217529296875
sieve660.py
3.7773518562316895
sieve661.py
13.995148420333862
sieve662.py
4.257114887237549
sieve663.py
17.613383769989014
sieve664.py
13.81952691078186
sieve665.py
3.886666774749756
sieve666.py
3.719377279281616
sieve667.py
15.41948652267456
sieve668.py
3.8953492641448975
sieve669.py
4.612432956695557
sieve67.py
14.144158840179443
sieve670.py
14.020910739898682
sieve671.py
4.353452444076538
sieve672.py
4.38631272315979
sieve673.py
4.296847105026245
sieve674.py
4.618999242782593
sieve675.py
4.2312493324279785
sieve676.py
5.495367527008057
sieve677.py
5.178255319595337
sieve678.py
3.1706392765045166
sieve679.py
15.171364545822144
sieve68.py
4.245371341705322
sieve680.py
3.7933290004730225
sieve681.py
2.8195724487304688
sieve682.py
4.423670291900635
sieve683.py
14.90325379371643
sieve684.py
3.7227399349212646
sieve685.py
3.6724109649658203
sieve686.py
13.893827438354492
sieve687.py
5.411596059799194
sieve688.py
14.577096939086914
sieve689.py
3.9112932682037354
sieve69.py
3.1185851097106934
sieve690.py
3.0715465545654297
sieve691.py
3.8047430515289307
sieve692.py
3.8218607902526855
sieve693.py
13.955020666122437
sieve694.py
5.366387128829956
sieve695.py
14.550626516342163
sieve696.py
4.7324378490448
sieve697.py
3.9100332260131836
sieve698.py
4.439101934432983
sieve699.py
3.899214267730713
sieve7.py
3.1046180725097656
sieve70.py
2.7643065452575684
sieve700.py
4.372191905975342
sieve701.py
16.02302598953247
sieve702.py
5.171186447143555
sieve703.py
3.8167386054992676
sieve704.py
2.9704792499542236
sieve705.py
15.119425773620605
sieve706.py
4.637153148651123
sieve707.py
16.054418087005615
sieve708.py
5.233977556228638
sieve709.py
15.288110733032227
sieve71.py
5.213173151016235
sieve710.py
4.1948277950286865
sieve711.py
3.7022950649261475
sieve712.py
4.654852867126465
sieve713.py
15.583049297332764
sieve714.py
5.221648454666138
sieve715.py
3.075758695602417
sieve716.py
5.222852468490601
sieve717.py
3.7424278259277344
sieve718.py
14.99972152709961
sieve719.py
3.7502658367156982
sieve72.py
4.1888391971588135
sieve720.py
5.424919128417969
sieve721.py
4.2319629192352295
sieve722.py
3.879732847213745
sieve723.py
15.693552017211914
sieve724.py
14.038559913635254
sieve725.py
16.694019556045532
sieve726.py
14.005763530731201
sieve727.py
3.7543952465057373
sieve728.py
5.13856840133667
sieve729.py
14.073935985565186
sieve73.py
15.866652727127075
sieve730.py
4.744352102279663
sieve731.py
16.93504548072815
sieve732.py
15.654121160507202
sieve733.py
4.232608079910278
sieve734.py
4.649054765701294
sieve735.py
5.143506765365601
sieve736.py
3.776979446411133
sieve737.py
3.02146053314209
sieve738.py
16.098092794418335
sieve739.py
14.69572925567627
sieve74.py
4.71834659576416
sieve740.py
3.925274133682251
sieve741.py
3.00030517578125
sieve742.py
3.0564627647399902
sieve743.py
15.643112897872925
sieve744.py
4.307718753814697
sieve745.py
4.003860950469971
sieve746.py
14.31929612159729
sieve747.py
15.155436992645264
sieve748.py
4.173428058624268
sieve749.py
3.8445138931274414
sieve75.py
3.7871646881103516
sieve750.py
4.5830442905426025
sieve751.py
3.048610210418701
sieve752.py
3.8466806411743164
sieve753.py
3.814631462097168
sieve754.py
3.848745107650757
sieve755.py
4.059209585189819
sieve756.py
4.724562168121338
sieve757.py
4.778923988342285
sieve758.py
4.855713367462158
sieve759.py
14.641657829284668
sieve76.py
14.556770086288452
sieve760.py
14.245776176452637
sieve761.py
5.18148946762085
sieve762.py
4.327072858810425
sieve763.py
3.9129562377929688
sieve764.py
3.8474338054656982
sieve765.py
3.0974369049072266
sieve766.py
13.902078628540039
sieve767.py
14.283495426177979
sieve768.py
15.486311912536621
sieve769.py
4.269035577774048
sieve77.py
16.57732605934143
sieve770.py
3.91217303276062
sieve771.py
3.778384208679199
sieve772.py
14.68833303451538
sieve773.py
5.1558918952941895
sieve774.py
4.572712421417236
sieve775.py
13.961255311965942
sieve776.py
13.97944688796997
sieve777.py
14.776830196380615
sieve778.py
14.885598421096802
sieve779.py
15.462376117706299
sieve78.py
5.2918219566345215
sieve780.py
3.1273915767669678
sieve781.py
16.103273630142212
sieve782.py
2.8473098278045654
sieve783.py
5.450348854064941
sieve784.py
15.58028531074524
sieve785.py
5.194350719451904
sieve786.py
5.115800142288208
sieve787.py
15.349843502044678
sieve788.py
5.27420711517334
sieve789.py
17.417481422424316
sieve79.py
3.7309353351593018
sieve790.py
15.507851600646973
sieve791.py
3.59814715385437
sieve792.py
3.853283643722534
sieve793.py
3.864330768585205
sieve794.py
14.010295867919922
sieve795.py
3.7958085536956787
sieve796.py
14.911798000335693
sieve797.py
3.7216289043426514
sieve798.py
14.077792644500732
sieve799.py
15.009576797485352
sieve8.py
5.66856575012207
sieve80.py
5.5693442821502686
sieve800.py
4.604475259780884
sieve801.py
3.86846923828125
sieve802.py
3.0638246536254883
sieve803.py
5.696145534515381
sieve804.py
3.945317268371582
sieve805.py
2.9153811931610107
sieve806.py
14.824611186981201
sieve807.py
16.29780411720276
sieve808.py
3.0489375591278076
sieve809.py
5.1797449588775635
sieve81.py
2.8367204666137695
sieve810.py
3.902956247329712
sieve811.py
4.323446750640869
sieve812.py
14.192577362060547
sieve813.py
4.169483184814453
sieve814.py
3.9173264503479004
sieve815.py
3.0303022861480713
sieve816.py
5.1385838985443115
sieve817.py
3.8954548835754395
sieve818.py
3.7160630226135254
sieve819.py
15.418405055999756
sieve82.py
5.3779942989349365
sieve820.py
15.739587306976318
sieve821.py
5.6508307456970215
sieve822.py
17.165222883224487
sieve823.py
3.3292760848999023
sieve824.py
15.648597717285156
sieve825.py
2.9087307453155518
sieve826.py
14.616507768630981
sieve827.py
3.569340467453003
sieve828.py
15.944908142089844
sieve829.py
15.167288541793823
sieve83.py
3.7605652809143066
sieve830.py
13.985856771469116
sieve831.py
14.235426902770996
sieve832.py
14.834826231002808
sieve833.py
14.811794519424438
sieve834.py
14.567164659500122
sieve835.py
4.850758075714111
sieve836.py
14.979231595993042
sieve837.py
3.9401533603668213
sieve838.py
2.8922407627105713
sieve839.py
3.7220876216888428
sieve84.py
14.18862247467041
sieve840.py
4.0289905071258545
sieve841.py
14.084670782089233
sieve842.py
14.96070408821106
sieve843.py
16.982786178588867
sieve844.py
5.180138826370239
sieve845.py
2.841487407684326
sieve846.py
14.50013780593872
sieve847.py
5.1357598304748535
sieve848.py
5.505462884902954
sieve849.py
14.08472204208374
sieve85.py
4.686345815658569
sieve850.py
3.8023195266723633
sieve851.py
5.930371522903442
sieve852.py
4.100771903991699
sieve853.py
15.252118110656738
sieve854.py
5.425417900085449
sieve855.py
4.242326736450195
sieve856.py
3.7254440784454346
sieve857.py
5.0751237869262695
sieve858.py
3.096827507019043
sieve859.py
15.239542722702026
sieve86.py
3.708571672439575
sieve860.py
4.951835870742798
sieve861.py
3.8606131076812744
sieve862.py
3.759239673614502
sieve863.py
3.742633819580078
sieve864.py
16.365407943725586
sieve865.py
3.9179344177246094
sieve866.py
14.44868540763855
sieve867.py
5.455806493759155
sieve868.py
3.938931703567505
sieve869.py
2.8017168045043945
sieve87.py
14.55765151977539
sieve870.py
15.109180927276611
sieve871.py
14.052749156951904
sieve872.py
5.540707349777222
sieve873.py
5.499353885650635
sieve874.py
17.017771244049072
sieve875.py
14.953887939453125
sieve876.py
16.595666646957397
sieve877.py
16.15205430984497
sieve878.py
2.8272087574005127
sieve879.py
3.0519869327545166
sieve88.py
5.438165187835693
sieve880.py
5.130453824996948
sieve881.py
2.8639273643493652
sieve882.py
15.355443000793457
sieve883.py
4.544018507003784
sieve884.py
3.0630640983581543
sieve885.py
4.338130712509155
sieve886.py
4.567739248275757
sieve887.py
14.81803584098816
sieve888.py
3.871481418609619
sieve889.py
2.942638874053955
sieve89.py
5.181217432022095
sieve890.py
16.12708830833435
sieve891.py
15.816505908966064
sieve892.py
4.025821924209595
sieve893.py
15.5276358127594
sieve894.py
5.837279796600342
sieve895.py
2.9425225257873535
sieve896.py
14.538369417190552
sieve897.py
14.979824542999268
sieve898.py
15.709514379501343
sieve899.py
15.971132516860962
sieve9.py
4.253037214279175
sieve90.py
5.217050552368164
sieve900.py
3.7969839572906494
sieve901.py
15.519386291503906
sieve902.py
3.871033191680908
sieve903.py
15.732095718383789
sieve904.py
4.876727342605591
sieve905.py
13.696088075637817
sieve906.py
5.018088102340698
sieve907.py
14.118618249893188
sieve908.py
16.303792476654053
sieve909.py
3.000602960586548
sieve91.py
3.693134307861328
sieve910.py
16.757235288619995
sieve911.py
14.483749389648438
sieve912.py
15.29337453842163
sieve913.py
5.149946212768555
sieve914.py
16.154215097427368
sieve915.py
2.8240573406219482
sieve916.py
3.717564105987549
sieve917.py
4.375789165496826
sieve918.py
14.974257230758667
sieve919.py
5.205978631973267
sieve92.py
5.270374059677124
sieve920.py
2.7138431072235107
sieve921.py
3.6974735260009766
sieve922.py
16.310171365737915
sieve923.py
3.691012144088745
sieve924.py
17.273117542266846
sieve925.py
5.212677955627441
sieve926.py
3.7212655544281006
sieve927.py
5.213987112045288
sieve928.py
3.6785340309143066
sieve929.py
14.325895547866821
sieve93.py
15.527233362197876
sieve930.py
14.002075433731079
sieve931.py
14.058330535888672
sieve932.py
15.714406251907349
sieve933.py
2.938915729522705
sieve934.py
15.479604959487915
sieve935.py
14.074697732925415
sieve936.py
5.657838821411133
sieve937.py
14.450666189193726
sieve938.py
16.365078926086426
sieve939.py
16.054970502853394
sieve94.py
15.51681637763977
sieve940.py
4.3238654136657715
sieve941.py
13.942610025405884
sieve942.py
5.594579696655273
sieve943.py
15.146571159362793
sieve944.py
14.78647756576538
sieve945.py
13.92710280418396
sieve946.py
13.98321008682251
sieve947.py
4.547853231430054
sieve948.py
3.074392080307007
sieve949.py
3.973601818084717
sieve95.py
14.192080736160278
sieve950.py
15.704792737960815
sieve951.py
4.228813409805298
sieve952.py
16.294502019882202
sieve953.py
4.400359869003296
sieve954.py
14.383627653121948
sieve955.py
3.741342306137085
sieve956.py
2.996553659439087
sieve957.py
3.062133550643921
sieve958.py
15.864471197128296
sieve959.py
14.701448440551758
sieve96.py
13.9407479763031
sieve960.py
2.794252634048462
sieve961.py
4.48985743522644
sieve962.py
4.060260534286499
sieve963.py
15.972294569015503
sieve964.py
3.0934107303619385
sieve965.py
3.8117241859436035
sieve966.py
15.577597856521606
sieve967.py
16.948684453964233
sieve968.py
2.9408493041992188
sieve969.py
14.220524549484253
sieve97.py
3.8303449153900146
sieve970.py
15.444885492324829
sieve971.py
5.139246463775635
sieve972.py
13.9215247631073
sieve973.py
3.0134377479553223
sieve974.py
3.7511794567108154
sieve975.py
14.73781132698059
sieve976.py
14.06346583366394
sieve977.py
3.0901601314544678
sieve978.py
17.012362718582153
sieve979.py
5.55837869644165
sieve98.py
15.00107455253601
sieve980.py
3.89958119392395
sieve981.py
16.272249698638916
sieve982.py
15.57611894607544
sieve983.py
13.948429822921753
sieve984.py
5.179490327835083
sieve985.py
15.440104007720947
sieve986.py
17.21983528137207
sieve987.py
4.331690073013306
sieve988.py
5.500916481018066
sieve989.py
15.41025424003601
sieve99.py
13.975510358810425
sieve990.py
3.7021961212158203
sieve991.py
15.07573676109314
sieve992.py
17.474642753601074
sieve993.py
3.8897018432617188
sieve994.py
5.126662731170654
sieve995.py
3.9231207370758057
sieve996.py
15.355410099029541
sieve997.py
5.209141254425049
sieve998.py
4.1454267501831055
sieve999.py
4.629079580307007
sieve1.py
1.9558055400848389
sieve10.py
3.3119170665740967
sieve100.py
3.36508846282959
sieve1000.py
2.7646007537841797
sieve1001.py
2.8004837036132812
sieve1002.py
9.112298250198364
sieve1003.py
2.1245195865631104
sieve1004.py
2.8094959259033203
sieve1005.py
3.3714888095855713
sieve1006.py
1.9397311210632324
sieve1007.py
1.8224084377288818
sieve1008.py
3.358854293823242
sieve1009.py
2.0199074745178223
sieve101.py
2.902500867843628
sieve1010.py
1.9956786632537842
sieve1011.py
3.525099277496338
sieve1012.py
1.9828863143920898
sieve1013.py
1.9462862014770508
sieve1014.py
3.671227216720581
sieve1015.py
2.854696035385132
sieve1016.py
2.1030843257904053
sieve1017.py
3.458409070968628
sieve1018.py
1.2837028503417969
sieve1019.py
2.8749806880950928
sieve102.py
3.7500195503234863
sieve1020.py
1.9761102199554443
sieve1021.py
1.438079595565796
sieve1022.py
1.9889247417449951
sieve1023.py
9.531727313995361
sieve1024.py
1.9616978168487549
sieve103.py
3.5321524143218994
sieve104.py
2.614596366882324
sieve105.py
10.821571111679077
sieve106.py
3.550281047821045
sieve107.py
1.1811761856079102
sieve108.py
1.964883804321289
sieve109.py
1.9724411964416504
sieve11.py
1.0833895206451416
sieve110.py
1.935560941696167
sieve111.py
8.384540557861328
sieve112.py
2.1039633750915527
sieve113.py
2.0174713134765625
sieve114.py
2.5637311935424805
sieve115.py
1.916325569152832
sieve116.py
2.0361392498016357
sieve117.py
2.034540891647339
sieve118.py
2.014662742614746
sieve119.py
1.9594364166259766
sieve12.py
1.9329509735107422
sieve120.py
2.636979818344116
sieve121.py
3.9988603591918945
sieve122.py
3.9466536045074463
sieve123.py
13.718908071517944
sieve124.py
2.0194830894470215
sieve125.py
9.799095869064331
sieve126.py
1.9948484897613525
sieve127.py
2.504551649093628
sieve128.py
1.9355487823486328
sieve129.py
1.8930916786193848
sieve13.py
1.9558720588684082
sieve130.py
3.4675984382629395
sieve131.py
3.68806791305542
sieve132.py
2.838923692703247
sieve133.py
1.9762732982635498
sieve134.py
1.8868329524993896
sieve135.py
2.0038278102874756
sieve136.py
8.970282316207886
sieve137.py
2.5492172241210938
sieve138.py
1.8926200866699219
sieve139.py
2.478955030441284
sieve14.py
2.0494837760925293
sieve140.py
2.873711585998535
sieve141.py
1.9736061096191406
sieve142.py
3.368617534637451
sieve143.py
2.029444694519043
sieve144.py
2.9007632732391357
sieve145.py
2.848189115524292
sieve146.py
2.9403152465820312
sieve147.py
1.9880650043487549
sieve148.py
1.9783873558044434
sieve149.py
1.9386866092681885
sieve15.py
2.579150676727295
sieve150.py
2.233269214630127
sieve151.py
1.9925127029418945
sieve152.py
2.0011541843414307
sieve153.py
2.758737325668335
sieve154.py
3.143798828125
sieve155.py
2.799302339553833
sieve156.py
2.9747517108917236
sieve157.py
9.25838828086853
sieve158.py
2.759225606918335
sieve159.py
1.9851806163787842
sieve16.py
2.5758705139160156
sieve160.py
1.949603796005249
sieve161.py
1.9382164478302002
sieve162.py
1.9516048431396484
sieve163.py
2.947413444519043
sieve164.py
9.47186279296875
sieve165.py
15.250733137130737
sieve166.py
2.833524227142334
sieve167.py
3.1322035789489746
sieve168.py
9.640170574188232
sieve169.py
8.463493347167969
sieve17.py
3.2900047302246094
sieve170.py
3.3523752689361572
sieve171.py
2.076681137084961
sieve172.py
14.699026346206665
sieve173.py
3.423572540283203
sieve174.py
3.1510164737701416
sieve175.py
1.9870827198028564
sieve176.py
2.556946277618408
sieve177.py
1.9682061672210693
sieve178.py
2.072565793991089
sieve179.py
1.8889133930206299
sieve18.py
9.86431360244751
sieve180.py
2.2879300117492676
sieve181.py
2.027810573577881
sieve182.py
2.9778146743774414
sieve183.py
2.813483715057373
sieve184.py
13.04008436203003
sieve185.py
2.109790802001953
sieve186.py
1.5783884525299072
sieve187.py
2.857954502105713
sieve188.py
2.0992934703826904
sieve189.py
1.1333966255187988
sieve19.py
2.8278069496154785
sieve190.py
2.8670473098754883
sieve191.py
1.9735417366027832
sieve192.py
2.9151499271392822
sieve193.py
8.347869873046875
sieve194.py
2.7812607288360596
sieve195.py
2.7984812259674072
sieve196.py
1.5263700485229492
sieve197.py
2.0054867267608643
sieve198.py
1.0804710388183594
sieve199.py
1.978379726409912
sieve2.py
14.115928888320923
sieve20.py
2.4498825073242188
sieve200.py
12.931169033050537
sieve201.py
2.9427192211151123
sieve202.py
1.9722671508789062
sieve203.py
1.947068691253662
sieve204.py
1.9256813526153564
sieve205.py
9.326879739761353
sieve206.py
9.161731481552124
sieve207.py
2.5564165115356445
sieve208.py
1.8793761730194092
sieve209.py
2.8794641494750977
sieve21.py
1.8912744522094727
sieve210.py
12.634923458099365
sieve211.py
2.604979991912842
sieve212.py
1.9639716148376465
sieve213.py
2.8119356632232666
sieve214.py
3.1445775032043457
sieve215.py
1.971726417541504
sieve216.py
2.8698391914367676
sieve217.py
1.9139430522918701
sieve218.py
2.831597328186035
sieve219.py
2.08724045753479
sieve22.py
3.011261224746704
sieve220.py
1.9592461585998535
sieve221.py
1.86668062210083
sieve222.py
9.91104245185852
sieve223.py
3.639122247695923
sieve224.py
2.129192352294922
sieve225.py
3.715024471282959
sieve226.py
2.5606954097747803
sieve227.py
1.9766864776611328
sieve228.py
2.004884958267212
sieve229.py
5.167278289794922
sieve23.py
6.667683124542236
sieve230.py
3.2248570919036865
sieve231.py
9.83705735206604
sieve232.py
3.6671266555786133
sieve233.py
1.8865351676940918
sieve234.py
3.464945077896118
sieve235.py
2.000620126724243
sieve236.py
2.462667226791382
sieve237.py
2.075073480606079
sieve238.py
2.63175106048584
sieve239.py
2.0334887504577637
sieve24.py
2.0454139709472656
sieve240.py
2.007514715194702
sieve241.py
1.9895217418670654
sieve242.py
13.547078371047974
sieve243.py
1.9062626361846924
sieve244.py
2.5303778648376465
sieve245.py
2.8654041290283203
sieve246.py
3.5570480823516846
sieve247.py
1.172071933746338
sieve248.py
1.962909460067749
sieve249.py
2.0146243572235107
sieve25.py
2.570394277572632
sieve250.py
1.978588342666626
sieve251.py
1.9796593189239502
sieve252.py
2.0312514305114746
sieve253.py
1.9661216735839844
sieve254.py
2.109097480773926
sieve255.py
1.9038257598876953
sieve256.py
3.1608052253723145
sieve257.py
2.9544527530670166
sieve258.py
12.094512462615967
sieve259.py
1.999049186706543
sieve26.py
2.698927164077759
sieve260.py
12.493958234786987
sieve261.py
1.9612388610839844
sieve262.py
8.634403467178345
sieve263.py
2.1018526554107666
sieve264.py
3.2352969646453857
sieve265.py
2.0170865058898926
sieve266.py
2.885023832321167
sieve267.py
1.9888553619384766
sieve268.py
1.9794936180114746
sieve269.py
2.837123394012451
sieve27.py
2.0363473892211914
sieve270.py
2.972386121749878
sieve271.py
1.962484359741211
sieve272.py
2.2529938220977783
sieve273.py
2.796644449234009
sieve274.py
2.0132246017456055
sieve275.py
8.407431840896606
sieve276.py
2.606361150741577
sieve277.py
8.455071687698364
sieve278.py
1.9285318851470947
sieve279.py
2.8469302654266357
sieve28.py
1.9851107597351074
sieve280.py
2.827666759490967
sieve281.py
2.01560640335083
sieve282.py
1.9636452198028564
sieve283.py
2.7624337673187256
sieve284.py
1.9867463111877441
sieve285.py
1.133988380432129
sieve286.py
2.7682957649230957
sieve287.py
1.1384954452514648
sieve288.py
2.625703811645508
sieve289.py
9.522247791290283
sieve29.py
10.892467975616455
sieve290.py
8.394204139709473
sieve291.py
1.9749741554260254
sieve292.py
3.9509055614471436
sieve293.py
2.607156991958618
sieve294.py
3.1986207962036133
sieve295.py
2.7571184635162354
sieve296.py
9.788532495498657
sieve297.py
12.981476306915283
sieve298.py
2.8128881454467773
sieve299.py
10.057375431060791
sieve3.py
13.731416702270508
sieve30.py
3.425689458847046
sieve300.py
1.9652345180511475
sieve301.py
2.542222261428833
sieve302.py
1.9902026653289795
sieve303.py
2.043710231781006
sieve304.py
2.578700542449951
sieve305.py
2.4585397243499756
sieve306.py
1.9817161560058594
sieve307.py
2.603195905685425
sieve308.py
3.033323049545288
sieve309.py
2.8228726387023926
sieve31.py
1.956859827041626
sieve310.py
2.9386966228485107
sieve311.py
2.1058223247528076
sieve312.py
2.909534454345703
sieve313.py
2.911250591278076
sieve314.py
2.0240509510040283
sieve315.py
1.1318061351776123
sieve316.py
2.7438127994537354
sieve317.py
2.536830186843872
sieve318.py
1.8530097007751465
sieve319.py
2.026526927947998
sieve32.py
2.0206525325775146
sieve320.py
2.93693470954895
sieve321.py
1.8860723972320557
sieve322.py
1.8732523918151855
sieve323.py
9.279851913452148
sieve324.py
2.5706605911254883
sieve325.py
2.000300645828247
sieve326.py
12.409328937530518
sieve327.py
3.455390453338623
sieve328.py
3.376479387283325
sieve329.py
1.9878225326538086
sieve33.py
2.603762626647949
sieve330.py
1.979499340057373
sieve331.py
2.0432870388031006
sieve332.py
2.6048903465270996
sieve333.py
13.301845073699951
sieve334.py
2.8155581951141357
sieve335.py
2.557957649230957
sieve336.py
2.0206358432769775
sieve337.py
2.8193206787109375
sieve338.py
2.840406894683838
sieve339.py
4.036975860595703
sieve34.py
2.587398052215576
sieve340.py
1.9672174453735352
sieve341.py
3.8223812580108643
sieve342.py
2.8156166076660156
sieve343.py
2.7786154747009277
sieve344.py
3.953153371810913
sieve345.py
1.9994494915008545
sieve346.py
1.9726457595825195
sieve347.py
2.993462085723877
sieve348.py
2.064136505126953
sieve349.py
2.5773262977600098
sieve35.py
2.8315749168395996
sieve350.py
13.277324914932251
sieve351.py
1.9821999073028564
sieve352.py
3.520357370376587
sieve353.py
1.9059507846832275
sieve354.py
1.9651257991790771
sieve355.py
2.8075103759765625
sieve356.py
1.970008373260498
sieve357.py
2.1634020805358887
sieve358.py
2.25192928314209
sieve359.py
2.9791152477264404
sieve36.py
1.966343641281128
sieve360.py
2.0920445919036865
sieve361.py
2.804309844970703
sieve362.py
3.2014923095703125
sieve363.py
2.577655076980591
sieve364.py
2.8864238262176514
sieve365.py
2.235306739807129
sieve366.py
2.0203664302825928
sieve367.py
9.168135643005371
sieve368.py
2.029299736022949
sieve369.py
10.946668148040771
sieve37.py
12.737747430801392
sieve370.py
2.8552565574645996
sieve371.py
2.013679265975952
sieve372.py
3.6914472579956055
sieve373.py
3.1636769771575928
sieve374.py
3.3734970092773438
sieve375.py
1.9242744445800781
sieve376.py
2.538614273071289
sieve377.py
1.9382820129394531
sieve378.py
3.4283597469329834
sieve379.py
1.9970247745513916
sieve38.py
2.054684638977051
sieve380.py
4.434423446655273
sieve381.py
2.903188705444336
sieve382.py
3.01104736328125
sieve383.py
3.7788772583007812
sieve384.py
2.8451995849609375
sieve385.py
1.9778804779052734
sieve386.py
13.802685976028442
sieve387.py
2.2298991680145264
sieve388.py
2.017533302307129
sieve389.py
3.5888068675994873
sieve39.py
2.5860788822174072
sieve390.py
1.9979572296142578
sieve391.py
2.7945191860198975
sieve392.py
2.931987762451172
sieve393.py
2.9201390743255615
sieve394.py
1.9037692546844482
sieve395.py
1.954401969909668
sieve396.py
9.285995960235596
sieve397.py
2.8165817260742188
sieve398.py
1.9825491905212402
sieve399.py
2.8436877727508545
sieve4.py
2.4405739307403564
sieve40.py
2.176485300064087
sieve400.py
1.870129108428955
sieve401.py
1.9218213558197021
sieve402.py
3.519461154937744
sieve403.py
3.208782196044922
sieve404.py
2.0400266647338867
sieve405.py
1.9165294170379639
sieve406.py
2.0119776725769043
sieve407.py
2.8734147548675537
sieve408.py
1.9335107803344727
sieve409.py
2.498354434967041
sieve41.py
1.9875602722167969
sieve410.py
2.0259978771209717
sieve411.py
2.834266424179077
sieve412.py
9.658262968063354
sieve413.py
2.7966861724853516
sieve414.py
3.4016120433807373
sieve415.py
1.2076635360717773
sieve416.py
2.0863795280456543
sieve417.py
1.3737010955810547
sieve418.py
8.405831813812256
sieve419.py
1.9938712120056152
sieve42.py
2.0185184478759766
sieve420.py
2.5591132640838623
sieve421.py
2.807255744934082
sieve422.py
1.9513208866119385
sieve423.py
4.373262166976929
sieve424.py
9.728323936462402
sieve425.py
2.010154962539673
sieve426.py
2.3959152698516846
sieve427.py
2.0393381118774414
sieve428.py
2.9049272537231445
sieve429.py
1.9843645095825195
sieve43.py
12.903228044509888
sieve430.py
2.282599925994873
sieve431.py
1.945906400680542
sieve432.py
3.523723840713501
sieve433.py
2.8083853721618652
sieve434.py
2.2800800800323486
sieve435.py
9.801393747329712
sieve436.py
1.9559178352355957
sieve437.py
2.251695156097412
sieve438.py
2.0075981616973877
sieve439.py
3.3731186389923096
sieve44.py
2.7970240116119385
sieve440.py
1.9355864524841309
sieve441.py
1.975186824798584
sieve442.py
2.5951056480407715
sieve443.py
2.926578998565674
sieve444.py
1.9507238864898682
sieve445.py
1.9046096801757812
sieve446.py
2.260024309158325
sieve447.py
2.875532627105713
sieve448.py
1.9478752613067627
sieve449.py
2.7757279872894287
sieve45.py
2.801679849624634
sieve450.py
1.8381834030151367
sieve451.py
2.7708091735839844
sieve452.py
11.960384845733643
sieve453.py
2.0168802738189697
sieve454.py
1.9928569793701172
sieve455.py
2.7923338413238525
sieve456.py
2.088526725769043
sieve457.py
2.743095874786377
sieve458.py
2.9018802642822266
sieve459.py
1.9653136730194092
sieve46.py
2.1093952655792236
sieve460.py
1.9526431560516357
sieve461.py
2.8658902645111084
sieve462.py
9.319247007369995
sieve463.py
1.9765081405639648
sieve464.py
2.893825054168701
sieve465.py
3.0489611625671387
sieve466.py
2.8164029121398926
sieve467.py
2.536807060241699
sieve468.py
9.655159950256348
sieve469.py
1.971081256866455
sieve47.py
2.044616222381592
sieve470.py
1.9846980571746826
sieve471.py
2.4690983295440674
sieve472.py
9.525665044784546
sieve473.py
2.567720651626587
sieve474.py
1.886225938796997
sieve475.py
3.2157678604125977
sieve476.py
2.029803514480591
sieve477.py
1.9919519424438477
sieve478.py
9.431478500366211
sieve479.py
2.447908639907837
sieve48.py
1.9522602558135986
sieve480.py
1.9498851299285889
sieve481.py
3.658517837524414
sieve482.py
3.442004680633545
sieve483.py
1.906642198562622
sieve484.py
2.7910003662109375
sieve485.py
1.9878499507904053
sieve486.py
2.7612407207489014
sieve487.py
1.9824492931365967
sieve488.py
2.2855587005615234
sieve489.py
1.9683644771575928
sieve49.py
2.10884165763855
sieve490.py
1.907012939453125
sieve491.py
1.1379938125610352
sieve492.py
2.386770725250244
sieve493.py
13.756480693817139
sieve494.py
1.9653587341308594
sieve495.py
2.8649003505706787
sieve496.py
3.1455514430999756
sieve497.py
1.9810526371002197
sieve498.py
2.0630414485931396
sieve499.py
1.8756446838378906
sieve5.py
1.9312028884887695
sieve50.py
8.981844902038574
sieve500.py
2.440530300140381
sieve501.py
3.2402124404907227
sieve502.py
2.874048948287964
sieve503.py
2.4299333095550537
sieve504.py
1.9722347259521484
sieve505.py
2.0119235515594482
sieve506.py
1.1846356391906738
sieve507.py
2.0358567237854004
sieve508.py
2.8769378662109375
sieve509.py
1.9032788276672363
sieve51.py
2.850039005279541
sieve510.py
2.0143473148345947
sieve511.py
2.0225536823272705
sieve512.py
3.564774990081787
sieve513.py
1.9480783939361572
sieve514.py
2.032552719116211
sieve515.py
2.5631279945373535
sieve516.py
2.7830276489257812
sieve517.py
2.608231782913208
sieve518.py
1.9647598266601562
sieve519.py
3.7801451683044434
sieve52.py
2.5577104091644287
sieve520.py
2.91977858543396
sieve521.py
2.0798120498657227
sieve522.py
1.9711198806762695
sieve523.py
1.9638786315917969
sieve524.py
2.6022136211395264
sieve525.py
2.9126338958740234
sieve526.py
2.600189447402954
sieve527.py
1.9708611965179443
sieve528.py
2.015892505645752
sieve529.py
9.961155891418457
sieve53.py
2.004863739013672
sieve530.py
2.295880079269409
sieve531.py
13.655116319656372
sieve532.py
1.9941446781158447
sieve533.py
1.9383387565612793
sieve534.py
1.9748308658599854
sieve535.py
2.502393960952759
sieve536.py
12.37299132347107
sieve537.py
2.009800910949707
sieve538.py
1.9675586223602295
sieve539.py
1.975555181503296
sieve54.py
1.9777655601501465
sieve540.py
13.977880954742432
sieve541.py
2.7613186836242676
sieve542.py
2.4639499187469482
sieve543.py
1.9424643516540527
sieve544.py
1.8824951648712158
sieve545.py
3.110314130783081
sieve546.py
2.6069741249084473
sieve547.py
2.8621888160705566
sieve548.py
3.8930294513702393
sieve549.py
1.9009995460510254
sieve55.py
1.994858980178833
sieve550.py
3.3443105220794678
sieve551.py
1.8645212650299072
sieve552.py
2.540327548980713
sieve553.py
1.9556255340576172
sieve554.py
1.9733266830444336
sieve555.py
1.9982821941375732
sieve556.py
2.7814760208129883
sieve557.py
1.9619483947753906
sieve558.py
2.0084173679351807
sieve559.py
2.1372013092041016
sieve56.py
1.9633328914642334
sieve560.py
2.7912611961364746
sieve561.py
2.8642163276672363
sieve562.py
1.2650096416473389
sieve563.py
2.830911159515381
sieve564.py
3.662970542907715
sieve565.py
2.9413809776306152
sieve566.py
2.009197473526001
sieve567.py
1.9980642795562744
sieve568.py
9.475045919418335
sieve569.py
1.8650240898132324
sieve57.py
2.808283805847168
sieve570.py
3.367497682571411
sieve571.py
2.8859732151031494
sieve572.py
2.0266408920288086
sieve573.py
2.032975912094116
sieve574.py
1.952226161956787
sieve575.py
2.004384756088257
sieve576.py
1.9914419651031494
sieve577.py
3.9503161907196045
sieve578.py
2.0179543495178223
sieve579.py
1.9775705337524414
sieve58.py
2.74235200881958
sieve580.py
1.5421171188354492
sieve581.py
1.853083848953247
sieve582.py
1.8742091655731201
sieve583.py
1.9946379661560059
sieve584.py
1.8994038105010986
sieve585.py
2.5510735511779785
sieve586.py
2.0153439044952393
sieve587.py
2.770049571990967
sieve588.py
1.8680031299591064
sieve589.py
1.9786276817321777
sieve59.py
2.813014268875122
sieve590.py
3.0557777881622314
sieve591.py
2.875176191329956
sieve592.py
2.4805643558502197
sieve593.py
8.740121364593506
sieve594.py
2.808715581893921
sieve595.py
1.9618818759918213
sieve596.py
2.760990619659424
sieve597.py
9.145883560180664
sieve598.py
3.1497650146484375
sieve599.py
9.542496919631958
sieve6.py
1.9134352207183838
sieve60.py
2.533552885055542
sieve600.py
1.927180528640747
sieve601.py
1.9976603984832764
sieve602.py
2.9296696186065674
sieve603.py
2.0066335201263428
sieve604.py
2.5284438133239746
sieve605.py
2.8840034008026123
sieve606.py
3.4838407039642334
sieve607.py
2.002542734146118
sieve608.py
3.34090256690979
sieve609.py
1.910531759262085
sieve61.py
2.7689201831817627
sieve610.py
1.9728102684020996
sieve611.py
4.411284446716309
sieve612.py
2.8259809017181396
sieve613.py
2.6342878341674805
sieve614.py
1.9399795532226562
sieve615.py
2.596463441848755
sieve616.py
2.904649496078491
sieve617.py
12.656169176101685
sieve618.py
2.7996456623077393
sieve619.py
2.029683828353882
sieve62.py
2.8454675674438477
sieve620.py
2.799272298812866
sieve621.py
1.8827638626098633
sieve622.py
2.8670687675476074
sieve623.py
1.9635138511657715
sieve624.py
2.782376527786255
sieve625.py
1.894024133682251
sieve626.py
2.0002505779266357
sieve627.py
2.0332515239715576
sieve628.py
1.3360795974731445
sieve629.py
3.206697702407837
sieve63.py
3.2925262451171875
sieve630.py
1.8625969886779785
sieve631.py
2.963242530822754
sieve632.py
2.820178985595703
sieve633.py
2.868957996368408
sieve634.py
2.8722918033599854
sieve635.py
1.884328842163086
sieve636.py
2.9331936836242676
sieve637.py
1.9756639003753662
sieve638.py
2.088207244873047
sieve639.py
2.1934776306152344
sieve64.py
1.4663879871368408
sieve640.py
3.0242977142333984
sieve641.py
3.156360387802124
sieve642.py
2.846015691757202
sieve643.py
2.9197750091552734
sieve644.py
3.406172037124634
sieve645.py
1.895320177078247
sieve646.py
2.558945655822754
sieve647.py
2.961703300476074
sieve648.py
1.9968383312225342
sieve649.py
9.370150804519653
sieve65.py
10.730795860290527
sieve650.py
9.706784963607788
sieve651.py
1.892848253250122
sieve652.py
1.9757285118103027
sieve653.py
2.8238048553466797
sieve654.py
3.3692383766174316
sieve655.py
1.98541259765625
sieve656.py
2.1403391361236572
sieve657.py
2.006971836090088
sieve658.py
1.880824327468872
sieve659.py
1.9554624557495117
sieve66.py
2.0171875953674316
sieve660.py
2.8126044273376465
sieve661.py
2.054910659790039
sieve662.py
1.202871322631836
sieve663.py
2.809321641921997
sieve664.py
12.78604245185852
sieve665.py
1.8854846954345703
sieve666.py
2.2438511848449707
sieve667.py
2.603128671646118
sieve668.py
3.143854856491089
sieve669.py
1.863114833831787
sieve67.py
9.129475116729736
sieve670.py
9.230229616165161
sieve671.py
2.0097434520721436
sieve672.py
2.031266450881958
sieve673.py
1.9387657642364502
sieve674.py
1.9372389316558838
sieve675.py
1.9762749671936035
sieve676.py
2.0209743976593018
sieve677.py
2.8389840126037598
sieve678.py
1.9417119026184082
sieve679.py
9.180667638778687
sieve68.py
1.1802690029144287
sieve680.py
2.869206666946411
sieve681.py
1.0285260677337646
sieve682.py
1.9825141429901123
sieve683.py
9.525256633758545
sieve684.py
3.9943461418151855
sieve685.py
2.5523972511291504
sieve686.py
2.339916467666626
sieve687.py
2.792813301086426
sieve688.py
12.587332725524902
sieve689.py
2.8155508041381836
sieve69.py
1.8008203506469727
sieve690.py
1.9416015148162842
sieve691.py
3.4175808429718018
sieve692.py
3.286425828933716
sieve693.py
3.560587167739868
sieve694.py
1.966076135635376
sieve695.py
8.56222653388977
sieve696.py
1.9808697700500488
sieve697.py
2.9658315181732178
sieve698.py
1.9932780265808105
sieve699.py
2.82058048248291
sieve7.py
1.9249844551086426
sieve70.py
1.2941136360168457
sieve700.py
1.9400641918182373
sieve701.py
2.0091617107391357
sieve702.py
1.8938679695129395
sieve703.py
2.862700939178467
sieve704.py
2.1066086292266846
sieve705.py
2.223386526107788
sieve706.py
2.2295305728912354
sieve707.py
2.063615083694458
sieve708.py
1.9544382095336914
sieve709.py
2.539700984954834
sieve71.py
1.940368413925171
sieve710.py
1.9934113025665283
sieve711.py
3.078636884689331
sieve712.py
2.014017343521118
sieve713.py
2.0789968967437744
sieve714.py
2.0016286373138428
sieve715.py
1.979172706604004
sieve716.py
1.9698529243469238
sieve717.py
2.908792018890381
sieve718.py
9.25842547416687
sieve719.py
3.556957960128784
sieve72.py
1.9932279586791992
sieve720.py
2.0696144104003906
sieve721.py
2.0665998458862305
sieve722.py
3.011554002761841
sieve723.py
2.5288219451904297
sieve724.py
3.461106777191162
sieve725.py
2.048362970352173
sieve726.py
9.394701480865479
sieve727.py
3.503321886062622
sieve728.py
2.0538978576660156
sieve729.py
8.53675889968872
sieve73.py
1.9675390720367432
sieve730.py
1.9716901779174805
sieve731.py
2.8929481506347656
sieve732.py
1.9810998439788818
sieve733.py
1.9627885818481445
sieve734.py
1.9688200950622559
sieve735.py
1.962615728378296
sieve736.py
2.958153486251831
sieve737.py
2.1635074615478516
sieve738.py
1.9752960205078125
sieve739.py
9.227266311645508
sieve74.py
2.0312564373016357
sieve740.py
2.960521936416626
sieve741.py
1.8751623630523682
sieve742.py
2.060117244720459
sieve743.py
2.0709917545318604
sieve744.py
2.0387139320373535
sieve745.py
1.9848675727844238
sieve746.py
2.4876694679260254
sieve747.py
2.5622856616973877
sieve748.py
1.9936199188232422
sieve749.py
2.6877858638763428
sieve75.py
3.480087995529175
sieve750.py
1.176159143447876
sieve751.py
1.9563109874725342
sieve752.py
2.843284845352173
sieve753.py
2.7920358180999756
sieve754.py
1.8791191577911377
sieve755.py
2.036694049835205
sieve756.py
2.006939649581909
sieve757.py
2.9665653705596924
sieve758.py
1.9195857048034668
sieve759.py
2.387458562850952
sieve76.py
8.61241602897644
sieve760.py
12.212180137634277
sieve761.py
1.9112517833709717
sieve762.py
1.9468460083007812
sieve763.py
2.882361888885498
sieve764.py
3.1499974727630615
sieve765.py
1.9853096008300781
sieve766.py
4.098592281341553
sieve767.py
8.714317560195923
sieve768.py
2.0089030265808105
sieve769.py
1.8939096927642822
sieve77.py
2.8102853298187256
sieve770.py
2.789738416671753
sieve771.py
2.7706987857818604
sieve772.py
14.246647596359253
sieve773.py
2.968867063522339
sieve774.py
1.8862807750701904
sieve775.py
14.058159828186035
sieve776.py
2.9304184913635254
sieve777.py
3.953326940536499
sieve778.py
3.62001895904541
sieve779.py
3.351792812347412
sieve78.py
2.812143087387085
sieve780.py
2.0136685371398926
sieve781.py
2.552844762802124
sieve782.py
1.8312840461730957
sieve783.py
2.041400909423828
sieve784.py
2.700702667236328
sieve785.py
2.8826451301574707
sieve786.py
1.9069976806640625
sieve787.py
3.784266948699951
sieve788.py
2.8240675926208496
sieve789.py
2.883216142654419
sieve79.py
3.4187233448028564
sieve790.py
2.060637950897217
sieve791.py
3.873645067214966
sieve792.py
2.5490353107452393
sieve793.py
2.9111757278442383
sieve794.py
3.0315001010894775
sieve795.py
2.06276273727417
sieve796.py
3.8178069591522217
sieve797.py
3.753801107406616
sieve798.py
3.5199389457702637
sieve799.py
9.421676874160767
sieve8.py
1.990917444229126
sieve80.py
1.967621088027954
sieve800.py
1.9079248905181885
sieve801.py
2.8270769119262695
sieve802.py
2.0800507068634033
sieve803.py
2.842601776123047
sieve804.py
3.034177303314209
sieve805.py
2.098961353302002
sieve806.py
9.79440712928772
sieve807.py
1.9567346572875977
sieve808.py
1.9495792388916016
sieve809.py
1.942946434020996
sieve81.py
2.2723984718322754
sieve810.py
1.9360320568084717
sieve811.py
2.013566732406616
sieve812.py
9.817724227905273
sieve813.py
1.9291095733642578
sieve814.py
2.7915079593658447
sieve815.py
1.9109916687011719
sieve816.py
2.7690179347991943
sieve817.py
2.862291097640991
sieve818.py
2.375501871109009
sieve819.py
2.6530206203460693
sieve82.py
2.77280330657959
sieve820.py
2.6001434326171875
sieve821.py
2.022834062576294
sieve822.py
3.4668076038360596
sieve823.py
1.975647211074829
sieve824.py
4.059607267379761
sieve825.py
2.1129531860351562
sieve826.py
2.4015252590179443
sieve827.py
3.126068353652954
sieve828.py
2.615511417388916
sieve829.py
2.556467294692993
sieve83.py
2.584048271179199
sieve830.py
8.453284740447998
sieve831.py
8.60086989402771
sieve832.py
2.0000767707824707
sieve833.py
3.3062009811401367
sieve834.py
12.80453085899353
sieve835.py
2.05352520942688
sieve836.py
9.398823261260986
sieve837.py
2.596193552017212
sieve838.py
2.033841609954834
sieve839.py
2.486241340637207
sieve84.py
9.762295246124268
sieve840.py
2.0266830921173096
sieve841.py
13.214698791503906
sieve842.py
1.9406774044036865
sieve843.py
2.786353588104248
sieve844.py
2.840620756149292
sieve845.py
1.0399303436279297
sieve846.py
3.0366904735565186
sieve847.py
1.9021997451782227
sieve848.py
2.8713417053222656
sieve849.py
2.3991446495056152
sieve85.py
1.9984230995178223
sieve850.py
2.9676482677459717
sieve851.py
2.0510663986206055
sieve852.py
1.962669849395752
sieve853.py
1.986896276473999
sieve854.py
2.0303897857666016
sieve855.py
1.14967679977417
sieve856.py
3.910536050796509
sieve857.py
1.9827263355255127
sieve858.py
2.091179370880127
sieve859.py
1.9953272342681885
sieve86.py
3.5336339473724365
sieve860.py
1.9894795417785645
sieve861.py
2.8535068035125732
sieve862.py
2.8908464908599854
sieve863.py
2.8072216510772705
sieve864.py
2.800229549407959
sieve865.py
2.5536110401153564
sieve866.py
3.0189194679260254
sieve867.py
1.8870081901550293
sieve868.py
2.0126256942749023
sieve869.py
1.0470201969146729
sieve87.py
13.178836345672607
sieve870.py
4.3972578048706055
sieve871.py
9.863732814788818
sieve872.py
1.9462804794311523
sieve873.py
1.8983914852142334
sieve874.py
3.396080732345581
sieve875.py
1.9653887748718262
sieve876.py
3.353128433227539
sieve877.py
2.776581287384033
sieve878.py
1.092400074005127
sieve879.py
1.9339723587036133
sieve88.py
2.938243865966797
sieve880.py
2.777416229248047
sieve881.py
1.0824799537658691
sieve882.py
2.026599407196045
sieve883.py
1.9470360279083252
sieve884.py
1.9893724918365479
sieve885.py
3.074420690536499
sieve886.py
1.2092390060424805
sieve887.py
1.9613587856292725
sieve888.py
3.1881814002990723
sieve889.py
1.5563995838165283
sieve89.py
1.9390995502471924
sieve890.py
3.428706407546997
sieve891.py
2.0430729389190674
sieve892.py
3.064295530319214
sieve893.py
2.076853036880493
sieve894.py
2.052272081375122
sieve895.py
2.1113460063934326
sieve896.py
8.474145650863647
sieve897.py
9.148132801055908
sieve898.py
2.0183145999908447
sieve899.py
1.9636342525482178
sieve9.py
1.205780029296875
sieve90.py
1.9963104724884033
sieve900.py
2.946593761444092
sieve901.py
2.822352647781372
sieve902.py
2.797010898590088
sieve903.py
2.7656261920928955
sieve904.py
1.9377784729003906
sieve905.py
3.0700435638427734
sieve906.py
2.864522695541382
sieve907.py
9.105876445770264
sieve908.py
1.9858412742614746
sieve909.py
1.924940824508667
sieve91.py
2.2724645137786865
sieve910.py
3.36423921585083
sieve911.py
13.353365421295166
sieve912.py
10.408460140228271
sieve913.py
1.9382009506225586
sieve914.py
2.0250558853149414
sieve915.py
1.0877716541290283
sieve916.py
2.3960399627685547
sieve917.py
1.928635597229004
sieve918.py
3.2637977600097656
sieve919.py
1.9752306938171387
sieve92.py
1.966648817062378
sieve920.py
1.305346965789795
sieve921.py
3.3435213565826416
sieve922.py
2.8628809452056885
sieve923.py
2.58074688911438
sieve924.py
2.806260824203491
sieve925.py
1.9489929676055908
sieve926.py
2.30267333984375
sieve927.py
2.8883159160614014
sieve928.py
2.568781614303589
sieve929.py
9.66119122505188
sieve93.py
2.0337891578674316
sieve930.py
2.4804961681365967
sieve931.py
2.6317946910858154
sieve932.py
2.7977545261383057
sieve933.py
1.89207124710083
sieve934.py
2.5632998943328857
sieve935.py
3.545140266418457
sieve936.py
2.005263328552246
sieve937.py
13.398802995681763
sieve938.py
2.7948992252349854
sieve939.py
2.572117567062378
sieve94.py
3.908709764480591
sieve940.py
1.9606423377990723
sieve941.py
3.0856354236602783
sieve942.py
1.9670493602752686
sieve943.py
2.7959024906158447
sieve944.py
14.349138021469116
sieve945.py
2.027557611465454
sieve946.py
13.14605975151062
sieve947.py
1.9124693870544434
sieve948.py
1.9819104671478271
sieve949.py
1.980576515197754
sieve95.py
9.08306097984314
sieve950.py
2.922337293624878
sieve951.py
1.9396531581878662
sieve952.py
2.020188808441162
sieve953.py
1.9780340194702148
sieve954.py
3.5318851470947266
sieve955.py
3.500976085662842
sieve956.py
1.9385671615600586
sieve957.py
1.9135222434997559
sieve958.py
2.571730852127075
sieve959.py
2.707364082336426
sieve96.py
2.3451881408691406
sieve960.py
1.1060521602630615
sieve961.py
1.996168613433838
sieve962.py
1.9573848247528076
sieve963.py
2.7574710845947266
sieve964.py
2.0009729862213135
sieve965.py
3.13931941986084
sieve966.py
2.0721898078918457
sieve967.py
2.0430691242218018
sieve968.py
1.434415578842163
sieve969.py
2.0550336837768555
sieve97.py
3.2823054790496826
sieve970.py
2.5700466632843018
sieve971.py
2.7872986793518066
sieve972.py
9.588478565216064
sieve973.py
1.601707935333252
sieve974.py
3.424618721008301
sieve975.py
9.379360437393188
sieve976.py
3.031538963317871
sieve977.py
2.596163272857666
sieve978.py
3.43898606300354
sieve979.py
1.962172269821167
sieve98.py
9.432801485061646
sieve980.py
3.15352463722229
sieve981.py
2.83267879486084
sieve982.py
9.48875641822815
sieve983.py
3.5920727252960205
sieve984.py
1.9340894222259521
sieve985.py
2.025724411010742
sieve986.py
2.885162830352783
sieve987.py
1.9864115715026855
sieve988.py
1.9646499156951904
sieve989.py
1.9879932403564453
sieve99.py
2.598842144012451
sieve990.py
3.6645326614379883
sieve991.py
2.840364933013916
sieve992.py
2.8029184341430664
sieve993.py
2.737433671951294
sieve994.py
2.936814069747925
sieve995.py
1.942472219467163
sieve996.py
1.9854590892791748
sieve997.py
2.948133707046509
sieve998.py
1.9712018966674805
sieve999.py
2.0104362964630127
sieve1.py
4.112514495849609
sieve10.py
4.2715003490448
sieve100.py
3.7944138050079346
sieve1000.py
15.795204401016235
sieve1001.py
5.3556530475616455
sieve1002.py
14.154083251953125
sieve1003.py
3.0930123329162598
sieve1004.py
16.672221660614014
sieve1005.py
13.775421142578125
sieve1006.py
5.3419342041015625
sieve1007.py
2.933192253112793
sieve1008.py
3.91803240776062
sieve1009.py
5.643127679824829
sieve101.py
3.959510326385498
sieve1010.py
16.566232442855835
sieve1011.py
3.8145649433135986
sieve1012.py
4.731022119522095
sieve1013.py
5.299252033233643
sieve1014.py
3.747443437576294
sieve1015.py
5.748163223266602
sieve1016.py
3.0508837699890137
sieve1017.py
3.8610846996307373
sieve1018.py
2.742579698562622
sieve1019.py
3.9897401332855225
sieve102.py
3.6420304775238037
sieve1020.py
15.63289737701416
sieve1021.py
2.819507598876953
sieve1022.py
4.534636497497559
sieve1023.py
15.218637466430664
sieve1024.py
14.407546281814575
sieve103.py
13.626945972442627
sieve104.py
13.907270669937134
sieve105.py
15.10142707824707
sieve106.py
14.179466962814331
sieve107.py
4.69738507270813
sieve108.py
3.148026704788208
sieve109.py
3.1361358165740967
sieve11.py
3.057129383087158
sieve110.py
3.2572743892669678
sieve111.py
14.372686386108398
sieve112.py
3.0674586296081543
sieve113.py
15.36858582496643
sieve114.py
15.489588737487793
sieve115.py
4.7391064167022705
sieve116.py
4.0818891525268555
sieve117.py
16.180007696151733
sieve118.py
4.963562250137329
sieve119.py
3.08190655708313
sieve12.py
3.1241729259490967
sieve120.py
15.818847894668579
sieve121.py
3.807305097579956
sieve122.py
3.766089916229248
sieve123.py
13.993480205535889
sieve124.py
15.767387390136719
sieve125.py
14.28765344619751
sieve126.py
3.1981053352355957
sieve127.py
3.871431589126587
sieve128.py
5.010162830352783
sieve129.py
3.0158627033233643
sieve13.py
4.248850584030151
sieve130.py
17.637282848358154
sieve131.py
14.044006586074829
sieve132.py
4.049118280410767
sieve133.py
5.337800025939941
sieve134.py
5.5606889724731445
sieve135.py
16.31787633895874
sieve136.py
14.409480810165405
sieve137.py
13.95046091079712
sieve138.py
5.267734050750732
sieve139.py
3.8552603721618652
sieve14.py
6.349953889846802
sieve140.py
5.354562044143677
sieve141.py
15.613771200180054
sieve142.py
3.8240480422973633
sieve143.py
4.5700578689575195
sieve144.py
5.444025278091431
sieve145.py
13.928768873214722
sieve146.py
3.769028425216675
sieve147.py
4.346012592315674
sieve148.py
4.586613655090332
sieve149.py
5.373249530792236
sieve15.py
15.909302711486816
sieve150.py
2.8384499549865723
sieve151.py
5.754019260406494
sieve152.py
3.2078444957733154
sieve153.py
5.721889495849609
sieve154.py
3.9894886016845703
sieve155.py
16.50187063217163
sieve156.py
5.6531312465667725
sieve157.py
14.25118613243103
sieve158.py
16.27143621444702
sieve159.py
5.482601642608643
sieve16.py
14.974655389785767
sieve160.py
2.9281017780303955
sieve161.py
3.167731523513794
sieve162.py
2.9386091232299805
sieve163.py
4.115109920501709
sieve164.py
14.905786037445068
sieve165.py
14.98775029182434
sieve166.py
16.756977319717407
sieve167.py
3.8694941997528076
sieve168.py
14.200101375579834
sieve169.py
14.264772891998291
sieve17.py
3.85975980758667
sieve170.py
5.7600061893463135
sieve171.py
5.619059801101685
sieve172.py
14.73972773551941
sieve173.py
17.500795602798462
sieve174.py
3.9940738677978516
sieve175.py
4.467147350311279
sieve176.py
14.282548427581787
sieve177.py
15.874791622161865
sieve178.py
3.9968481063842773
sieve179.py
2.9509634971618652
sieve18.py
14.46415901184082
sieve180.py
3.090831756591797
sieve181.py
15.663325548171997
sieve182.py
3.6911237239837646
sieve183.py
5.368303298950195
sieve184.py
14.794218301773071
sieve185.py
3.0605556964874268
sieve186.py
3.101626396179199
sieve187.py
15.172864198684692
sieve188.py
5.679538011550903
sieve189.py
4.356839179992676
sieve19.py
5.406853199005127
sieve190.py
5.4890899658203125
sieve191.py
4.072525262832642
sieve192.py
3.8975274562835693
sieve193.py
14.109278440475464
sieve194.py
16.630037546157837
sieve195.py
17.512913703918457
sieve196.py
3.069437026977539
sieve197.py
4.343268394470215
sieve198.py
2.8411388397216797
sieve199.py
4.041837930679321
sieve2.py
13.786266326904297
sieve20.py
3.8419554233551025
sieve200.py
14.65909194946289
sieve201.py
3.906829595565796
sieve202.py
16.392228841781616
sieve203.py
4.870740175247192
sieve204.py
4.398602724075317
sieve205.py
15.142467975616455
sieve206.py
14.347017049789429
sieve207.py
15.562137842178345
sieve208.py
2.912384271621704
sieve209.py
16.417391300201416
sieve21.py
5.250900983810425
sieve210.py
14.41958737373352
sieve211.py
13.86493468284607
sieve212.py
3.145768165588379
sieve213.py
17.17569375038147
sieve214.py
3.958893060684204
sieve215.py
15.581523180007935
sieve216.py
3.938066005706787
sieve217.py
5.640669345855713
sieve218.py
16.928142786026
sieve219.py
2.8492558002471924
sieve22.py
13.9494047164917
sieve220.py
4.772284984588623
sieve221.py
2.914325714111328
sieve222.py
14.941787242889404
sieve223.py
3.690462589263916
sieve224.py
3.075331211090088
sieve225.py
3.79911208152771
sieve226.py
15.576640844345093
sieve227.py
3.942317247390747
sieve228.py
4.502150297164917
sieve229.py
3.6937031745910645
sieve23.py
14.758039712905884
sieve230.py
3.973740339279175
sieve231.py
15.0902578830719
sieve232.py
3.710639238357544
sieve233.py
5.3634161949157715
sieve234.py
16.802562475204468
sieve235.py
5.624841928482056
sieve236.py
3.800271987915039
sieve237.py
16.090243577957153
sieve238.py
15.587989330291748
sieve239.py
15.852165937423706
sieve24.py
3.1480917930603027
sieve240.py
5.450917720794678
sieve241.py
5.598451137542725
sieve242.py
13.94869589805603
sieve243.py
5.6475255489349365
sieve244.py
14.149017095565796
sieve245.py
4.037490129470825
sieve246.py
14.297753095626831
sieve247.py
4.375220537185669
sieve248.py
5.692453861236572
sieve249.py
5.419560194015503
sieve25.py
14.224293231964111
sieve250.py
5.649829387664795
sieve251.py
5.420197248458862
sieve252.py
3.1914334297180176
sieve253.py
4.505598783493042
sieve254.py
3.038721799850464
sieve255.py
3.897170066833496
sieve256.py
3.987557888031006
sieve257.py
4.901317834854126
sieve258.py
14.110975742340088
sieve259.py
4.373141288757324
sieve26.py
16.08069682121277
sieve260.py
14.164013624191284
sieve261.py
2.9637417793273926
sieve262.py
13.956533908843994
sieve263.py
5.630322456359863
sieve264.py
14.52370810508728
sieve265.py
15.366248369216919
sieve266.py
16.58107328414917
sieve267.py
4.3540778160095215
sieve268.py
5.734288692474365
sieve269.py
17.248705863952637
sieve27.py
14.333211183547974
sieve270.py
3.865234375
sieve271.py
4.8302271366119385
sieve272.py
2.8381056785583496
sieve273.py
16.66311550140381
sieve274.py
15.745425939559937
sieve275.py
14.218825340270996
sieve276.py
15.726270914077759
sieve277.py
13.986965417861938
sieve278.py
4.969995498657227
sieve279.py
16.4716157913208
sieve28.py
15.901596069335938
sieve280.py
16.73291301727295
sieve281.py
15.97342038154602
sieve282.py
6.327892303466797
sieve283.py
3.7943127155303955
sieve284.py
2.9044976234436035
sieve285.py
4.635610818862915
sieve286.py
4.863410234451294
sieve287.py
4.655195951461792
sieve288.py
16.001354932785034
sieve289.py
14.831616401672363
sieve29.py
15.21980357170105
sieve290.py
14.187137842178345
sieve291.py
4.406836748123169
sieve292.py
3.790343999862671
sieve293.py
3.910301923751831
sieve294.py
17.115741729736328
sieve295.py
4.0653605461120605
sieve296.py
15.01453685760498
sieve297.py
14.034363269805908
sieve298.py
4.058583498001099
sieve299.py
14.901010036468506
sieve3.py
13.837170839309692
sieve30.py
16.562987804412842
sieve300.py
4.414685249328613
sieve301.py
15.975975275039673
sieve302.py
4.787854194641113
sieve303.py
4.472476959228516
sieve304.py
3.7529430389404297
sieve305.py
3.8321573734283447
sieve306.py
4.402077913284302
sieve307.py
15.63646674156189
sieve308.py
3.945871353149414
sieve309.py
15.93178415298462
sieve31.py
3.041956663131714
sieve310.py
6.229190111160278
sieve311.py
3.0053818225860596
sieve312.py
3.9543204307556152
sieve313.py
4.0990002155303955
sieve314.py
4.936119318008423
sieve315.py
4.710139989852905
sieve316.py
5.227756977081299
sieve317.py
15.793046474456787
sieve318.py
4.670299768447876
sieve319.py
4.517767667770386
sieve32.py
4.479698181152344
sieve320.py
5.251204967498779
sieve321.py
5.302127361297607
sieve322.py
4.685071706771851
sieve323.py
13.986560106277466
sieve324.py
15.738878726959229
sieve325.py
5.465035915374756
sieve326.py
13.932380437850952
sieve327.py
3.8480701446533203
sieve328.py
3.7952373027801514
sieve329.py
4.286715745925903
sieve33.py
16.107236623764038
sieve330.py
3.166635274887085
sieve331.py
5.660255193710327
sieve332.py
15.750784873962402
sieve333.py
13.627182960510254
sieve334.py
16.342737436294556
sieve335.py
15.82883906364441
sieve336.py
3.265894651412964
sieve337.py
16.88048553466797
sieve338.py
3.850480794906616
sieve339.py
3.7895476818084717
sieve34.py
15.923584938049316
sieve340.py
2.9213881492614746
sieve341.py
15.769250869750977
sieve342.py
5.351921081542969
sieve343.py
5.415712594985962
sieve344.py
14.674402713775635
sieve345.py
4.344043731689453
sieve346.py
16.037145853042603
sieve347.py
14.299006223678589
sieve348.py
3.9895524978637695
sieve349.py
14.142065286636353
sieve35.py
16.345980882644653
sieve350.py
13.938251256942749
sieve351.py
16.25848960876465
sieve352.py
14.173253536224365
sieve353.py
3.0234336853027344
sieve354.py
3.1442484855651855
sieve355.py
5.374308109283447
sieve356.py
3.1304290294647217
sieve357.py
4.5219409465789795
sieve358.py
4.524481773376465
sieve359.py
13.894524574279785
sieve36.py
4.465639114379883
sieve360.py
16.087177991867065
sieve361.py
5.650162220001221
sieve362.py
15.623131275177002
sieve363.py
14.403536558151245
sieve364.py
5.273523330688477
sieve365.py
3.1169118881225586
sieve366.py
16.129231929779053
sieve367.py
14.115507125854492
sieve368.py
16.40609073638916
sieve369.py
15.011189937591553
sieve37.py
13.834991455078125
sieve370.py
5.77748441696167
sieve371.py
15.166950941085815
sieve372.py
3.7303473949432373
sieve373.py
4.010153532028198
sieve374.py
17.05970811843872
sieve375.py
4.937588453292847
sieve376.py
14.166234254837036
sieve377.py
5.31416916847229
sieve378.py
15.195171594619751
sieve379.py
3.2384486198425293
sieve38.py
15.82752776145935
sieve380.py
14.88924765586853
sieve381.py
3.932227849960327
sieve382.py
3.7718794345855713
sieve383.py
3.740579843521118
sieve384.py
13.7569580078125
sieve385.py
4.500667095184326
sieve386.py
13.893094539642334
sieve387.py
2.837028980255127
sieve388.py
5.319866180419922
sieve389.py
14.37178087234497
sieve39.py
15.953150272369385
sieve390.py
16.34838032722473
sieve391.py
16.486356019973755
sieve392.py
5.367279291152954
sieve393.py
4.09767484664917
sieve394.py
3.5997419357299805
sieve395.py
3.9005513191223145
sieve396.py
13.835729122161865
sieve397.py
3.8811240196228027
sieve398.py
5.595061540603638
sieve399.py
17.897515535354614
sieve4.py
14.479535579681396
sieve40.py
2.9293811321258545
sieve400.py
5.050682306289673
sieve401.py
4.395019054412842
sieve402.py
13.986308813095093
sieve403.py
15.572326421737671
sieve404.py
4.468904733657837
sieve405.py
4.967894077301025
sieve406.py
15.791247367858887
sieve407.py
3.989030599594116
sieve408.py
4.20396089553833
sieve409.py
3.762944459915161
sieve41.py
3.115755558013916
sieve410.py
15.476063966751099
sieve411.py
5.351186513900757
sieve412.py
14.161091089248657
sieve413.py
16.443642377853394
sieve414.py
16.8678457736969
sieve415.py
4.755690097808838
sieve416.py
3.1357979774475098
sieve417.py
2.9445455074310303
sieve418.py
14.383297204971313
sieve419.py
15.960968494415283
sieve42.py
15.520968675613403
sieve420.py
14.980998754501343
sieve421.py
16.781728982925415
sieve422.py
2.9273223876953125
sieve423.py
14.721022129058838
sieve424.py
14.70011830329895
sieve425.py
4.558092832565308
sieve426.py
14.335721254348755
sieve427.py
5.612485408782959
sieve428.py
5.352211952209473
sieve429.py
4.268679141998291
sieve43.py
14.16649603843689
sieve430.py
3.1015186309814453
sieve431.py
4.746333599090576
sieve432.py
14.206281661987305
sieve433.py
16.86085319519043
sieve434.py
3.107534646987915
sieve435.py
14.653223037719727
sieve436.py
3.0959384441375732
sieve437.py
2.904503345489502
sieve438.py
4.418032884597778
sieve439.py
16.892239809036255
sieve44.py
16.48604106903076
sieve440.py
4.0723876953125
sieve441.py
3.863563299179077
sieve442.py
4.026569366455078
sieve443.py
3.877139091491699
sieve444.py
5.6797754764556885
sieve445.py
4.739306926727295
sieve446.py
2.8395497798919678
sieve447.py
4.085303068161011
sieve448.py
3.1102194786071777
sieve449.py
3.7945241928100586
sieve45.py
5.610072374343872
sieve450.py
2.931464433670044
sieve451.py
16.895233869552612
sieve452.py
14.02203106880188
sieve453.py
4.224182605743408
sieve454.py
15.322193622589111
sieve455.py
4.122979164123535
sieve456.py
2.916041851043701
sieve457.py
4.130244970321655
sieve458.py
16.904693126678467
sieve459.py
3.2493443489074707
sieve46.py
2.897212028503418
sieve460.py
4.0312042236328125
sieve461.py
5.429710388183594
sieve462.py
13.929191589355469
sieve463.py
4.842825412750244
sieve464.py
5.731945037841797
sieve465.py
14.557138204574585
sieve466.py
4.88296103477478
sieve467.py
15.651410341262817
sieve468.py
15.17097806930542
sieve469.py
5.354496002197266
sieve47.py
3.089118003845215
sieve470.py
14.020585060119629
sieve471.py
3.8237805366516113
sieve472.py
13.997457027435303
sieve473.py
15.785545349121094
sieve474.py
5.592754364013672
sieve475.py
3.9185357093811035
sieve476.py
5.628377199172974
sieve477.py
5.317750930786133
sieve478.py
15.137320280075073
sieve479.py
3.8063769340515137
sieve48.py
4.973441123962402
sieve480.py
4.271061897277832
sieve481.py
3.677589178085327
sieve482.py
3.8841471672058105
sieve483.py
4.405267238616943
sieve484.py
16.493582487106323
sieve485.py
4.488741397857666
sieve486.py
17.085785150527954
sieve487.py
4.085928916931152
sieve488.py
3.115182638168335
sieve489.py
4.72199010848999
sieve49.py
3.0301291942596436
sieve490.py
2.9230244159698486
sieve491.py
2.827071189880371
sieve492.py
13.846039772033691
sieve493.py
14.247745513916016
sieve494.py
4.275637626647949
sieve495.py
5.728978633880615
sieve496.py
14.299427270889282
sieve497.py
16.430726289749146
sieve498.py
2.823782205581665
sieve499.py
5.282022953033447
sieve5.py
4.062888145446777
sieve50.py
14.051265001296997
sieve500.py
3.82987117767334
sieve501.py
15.04846978187561
sieve502.py
16.94429874420166
sieve503.py
14.020212411880493
sieve504.py
15.586409568786621
sieve505.py
5.711414575576782
sieve506.py
4.464895248413086
sieve507.py
15.580210447311401
sieve508.py
3.9068644046783447
sieve509.py
2.915538787841797
sieve51.py
17.298162937164307
sieve510.py
16.881662130355835
sieve511.py
5.580781698226929
sieve512.py
3.7130136489868164
sieve513.py
4.7295849323272705
sieve514.py
16.377326488494873
sieve515.py
4.066357612609863
sieve516.py
5.342527389526367
sieve517.py
15.841570138931274
sieve518.py
4.743646621704102
sieve519.py
3.7071359157562256
sieve52.py
14.176295280456543
sieve520.py
5.759047031402588
sieve521.py
4.022419691085815
sieve522.py
5.422394514083862
sieve523.py
5.778543949127197
sieve524.py
16.123539447784424
sieve525.py
14.032649278640747
sieve526.py
16.03143310546875
sieve527.py
3.2269046306610107
sieve528.py
5.638450860977173
sieve529.py
14.851386785507202
sieve53.py
3.224177360534668
sieve530.py
2.8203158378601074
sieve531.py
15.602861642837524
sieve532.py
2.897676467895508
sieve533.py
15.578437805175781
sieve534.py
4.419069290161133
sieve535.py
13.662178039550781
sieve536.py
13.890550136566162
sieve537.py
16.13953399658203
sieve538.py
14.927776336669922
sieve539.py
16.209803819656372
sieve54.py
5.712155103683472
sieve540.py
14.668909788131714
sieve541.py
16.019668102264404
sieve542.py
3.807528495788574
sieve543.py
4.811679840087891
sieve544.py
5.286132097244263
sieve545.py
3.8870513439178467
sieve546.py
14.251299381256104
sieve547.py
16.297702312469482
sieve548.py
3.7706527709960938
sieve549.py
3.9091999530792236
sieve55.py
4.525601625442505
sieve550.py
16.256089210510254
sieve551.py
2.9028382301330566
sieve552.py
14.691606521606445
sieve553.py
3.891066551208496
sieve554.py
14.237689971923828
sieve555.py
4.437022686004639
sieve556.py
4.081299066543579
sieve557.py
3.0068254470825195
sieve558.py
5.23905611038208
sieve559.py
3.071833372116089
sieve56.py
3.224670648574829
sieve560.py
17.10620093345642
sieve561.py
16.820805311203003
sieve562.py
4.38284969329834
sieve563.py
17.239317893981934
sieve564.py
15.812872171401978
sieve565.py
5.465392827987671
sieve566.py
5.763760328292847
sieve567.py
14.103006601333618
sieve568.py
15.109843492507935
sieve569.py
5.180239200592041
sieve57.py
18.06328248977661
sieve570.py
3.9107794761657715
sieve571.py
3.7629306316375732
sieve572.py
4.109805583953857
sieve573.py
5.777620792388916
sieve574.py
14.050487995147705
sieve575.py
4.418097734451294
sieve576.py
4.781534910202026
sieve577.py
3.709160566329956
sieve578.py
5.312488079071045
sieve579.py
5.664038181304932
sieve58.py
5.183408498764038
sieve580.py
3.0524537563323975
sieve581.py
4.748677730560303
sieve582.py
4.67297887802124
sieve583.py
5.6600401401519775
sieve584.py
5.301958084106445
sieve585.py
4.02908730506897
sieve586.py
4.452514886856079
sieve587.py
16.481294870376587
sieve588.py
2.9823877811431885
sieve589.py
4.451181888580322
sieve59.py
3.9154577255249023
sieve590.py
3.8242905139923096
sieve591.py
5.778290748596191
sieve592.py
3.773160934448242
sieve593.py
14.144216537475586
sieve594.py
16.414931058883667
sieve595.py
3.1144962310791016
sieve596.py
4.821555852890015
sieve597.py
13.984346389770508
sieve598.py
4.007392168045044
sieve599.py
15.477858781814575
sieve6.py
5.703305006027222
sieve60.py
15.57855486869812
sieve600.py
5.413307428359985
sieve601.py
14.72473931312561
sieve602.py
3.963282585144043
sieve603.py
16.072498083114624
sieve604.py
15.515681743621826
sieve605.py
4.112435817718506
sieve606.py
3.835061550140381
sieve607.py
4.933077096939087
sieve608.py
3.8785245418548584
sieve609.py
4.312978982925415
sieve61.py
5.203690767288208
sieve610.py
5.607807874679565
sieve611.py
14.93300485610962
sieve612.py
5.6494574546813965
sieve613.py
15.956668615341187
sieve614.py
5.673306226730347
sieve615.py
15.786659240722656
sieve616.py
3.7218852043151855
sieve617.py
14.250267028808594
sieve618.py
17.349296808242798
sieve619.py
15.733782529830933
sieve62.py
4.132437229156494
sieve620.py
14.03892993927002
sieve621.py
2.9627370834350586
sieve622.py
4.164459943771362
sieve623.py
4.740134239196777
sieve624.py
16.36868953704834
sieve625.py
4.743298292160034
sieve626.py
4.575899362564087
sieve627.py
15.766598463058472
sieve628.py
2.7568769454956055
sieve629.py
3.8896234035491943
sieve63.py
3.8384714126586914
sieve630.py
5.297094106674194
sieve631.py
3.9012084007263184
sieve632.py
16.958120584487915
sieve633.py
17.414012908935547
sieve634.py
5.805935859680176
sieve635.py
5.037245273590088
sieve636.py
5.800639867782593
sieve637.py
5.138733148574829
sieve638.py
3.066330909729004
sieve639.py
4.902100563049316
sieve64.py
4.637683391571045
sieve640.py
14.415489673614502
sieve641.py
3.9990198612213135
sieve642.py
5.755894660949707
sieve643.py
5.434536457061768
sieve644.py
3.858140468597412
sieve645.py
5.372659206390381
sieve646.py
4.0198400020599365
sieve647.py
4.017462730407715
sieve648.py
14.396886587142944
sieve649.py
14.315564632415771
sieve65.py
15.637422561645508
sieve650.py
15.21937870979309
sieve651.py
2.991938591003418
sieve652.py
4.022118806838989
sieve653.py
13.907482385635376
sieve654.py
15.955889701843262
sieve655.py
4.289018630981445
sieve656.py
2.998706817626953
sieve657.py
15.588348388671875
sieve658.py
5.088704586029053
sieve659.py
5.638574123382568
sieve66.py
5.703424453735352
sieve660.py
3.9343273639678955
sieve661.py
14.095407724380493
sieve662.py
4.357314348220825
sieve663.py
17.13730788230896
sieve664.py
13.959651947021484
sieve665.py
4.302051544189453
sieve666.py
3.746222972869873
sieve667.py
15.354959487915039
sieve668.py
4.012536525726318
sieve669.py
4.659675359725952
sieve67.py
14.028818368911743
sieve670.py
13.993160724639893
sieve671.py
4.53493070602417
sieve672.py
4.471704959869385
sieve673.py
4.463884115219116
sieve674.py
4.775738716125488
sieve675.py
4.308319330215454
sieve676.py
5.7760937213897705
sieve677.py
5.451855897903442
sieve678.py
3.234642505645752
sieve679.py
15.304117441177368
sieve68.py
4.361403465270996
sieve680.py
3.9189932346343994
sieve681.py
2.778883457183838
sieve682.py
4.54987907409668
sieve683.py
13.824857950210571
sieve684.py
3.749582052230835
sieve685.py
3.783643960952759
sieve686.py
13.995118856430054
sieve687.py
5.655470848083496
sieve688.py
14.200923442840576
sieve689.py
3.962918519973755
sieve69.py
2.917215585708618
sieve690.py
3.10251522064209
sieve691.py
3.843707323074341
sieve692.py
3.860837459564209
sieve693.py
14.129484176635742
sieve694.py
5.4363694190979
sieve695.py
14.11035680770874
sieve696.py
4.750880718231201
sieve697.py
4.009698390960693
sieve698.py
4.519989252090454
sieve699.py
3.9650087356567383
sieve7.py
3.1724469661712646
sieve70.py
2.7293806076049805
sieve700.py
4.53549599647522
sieve701.py
16.588141441345215
sieve702.py
5.31644868850708
sieve703.py
3.883453130722046
sieve704.py
3.104043960571289
sieve705.py
15.831724166870117
sieve706.py
4.765412330627441
sieve707.py
15.849741220474243
sieve708.py
5.369237184524536
sieve709.py
15.761902570724487
sieve71.py
5.353694200515747
sieve710.py
4.263193368911743
sieve711.py
3.7398593425750732
sieve712.py
4.7676167488098145
sieve713.py
15.678365468978882
sieve714.py
5.306609869003296
sieve715.py
3.1148595809936523
sieve716.py
5.364834547042847
sieve717.py
3.735497236251831
sieve718.py
15.20078182220459
sieve719.py
3.6820690631866455
sieve72.py
4.34931206703186
sieve720.py
5.657481908798218
sieve721.py
4.255239963531494
sieve722.py
3.918708324432373
sieve723.py
16.031293630599976
sieve724.py
13.765362977981567
sieve725.py
15.95056700706482
sieve726.py
14.812917470932007
sieve727.py
3.831634759902954
sieve728.py
5.24653697013855
sieve729.py
14.369727373123169
sieve73.py
15.813348054885864
sieve730.py
4.8600547313690186
sieve731.py
17.666853427886963
sieve732.py
14.867068529129028
sieve733.py
4.332869529724121
sieve734.py
4.749040603637695
sieve735.py
5.370750188827515
sieve736.py
3.878227710723877
sieve737.py
3.030780076980591
sieve738.py
15.626682043075562
sieve739.py
15.025611400604248
sieve74.py
4.770205974578857
sieve740.py
3.958904504776001
sieve741.py
2.9381585121154785
sieve742.py
3.1501002311706543
sieve743.py
15.774905681610107
sieve744.py
4.4776246547698975
sieve745.py
4.133498430252075
sieve746.py
14.09808349609375
sieve747.py
15.575610399246216
sieve748.py
4.281811714172363
sieve749.py
3.920153856277466
sieve75.py
3.7983438968658447
sieve750.py
4.730977296829224
sieve751.py
3.0896308422088623
sieve752.py
3.927057981491089
sieve753.py
3.8904926776885986
sieve754.py
3.961716890335083
sieve755.py
4.168163537979126
sieve756.py
4.89221715927124
sieve757.py
4.970595121383667
sieve758.py
5.02725887298584
sieve759.py
14.365005731582642
sieve76.py
14.343980312347412
sieve760.py
13.923139572143555
sieve761.py
5.256481409072876
sieve762.py
4.428497076034546
sieve763.py
3.9924328327178955
sieve764.py
4.027451276779175
sieve765.py
3.1615071296691895
sieve766.py
13.899737119674683
sieve767.py
14.393941402435303
sieve768.py
16.421469926834106
sieve769.py
4.3674139976501465
sieve77.py
16.508223056793213
sieve770.py
3.9238393306732178
sieve771.py
3.794891357421875
sieve772.py
14.88234829902649
sieve773.py
5.450086355209351
sieve774.py
4.76702356338501
sieve775.py
14.25022554397583
sieve776.py
14.318195581436157
sieve777.py
15.343712091445923
sieve778.py
14.921031475067139
sieve779.py
15.143102169036865
sieve78.py
5.4273810386657715
sieve780.py
3.2821176052093506
sieve781.py
15.925660610198975
sieve782.py
2.9510209560394287
sieve783.py
5.639394044876099
sieve784.py
15.890460014343262
sieve785.py
5.386083602905273
sieve786.py
5.3323588371276855
sieve787.py
15.196107387542725
sieve788.py
5.446929693222046
sieve789.py
16.42728328704834
sieve79.py
3.873469591140747
sieve790.py
15.516557216644287
sieve791.py
3.685915470123291
sieve792.py
3.939081907272339
sieve793.py
3.9569451808929443
sieve794.py
14.74948525428772
sieve795.py
3.8639724254608154
sieve796.py
14.821468591690063
sieve797.py
3.6891098022460938
sieve798.py
13.98225212097168
sieve799.py
15.041219711303711
sieve8.py
5.795068740844727
sieve80.py
5.783162832260132
sieve800.py
4.725350379943848
sieve801.py
4.012136697769165
sieve802.py
3.1592726707458496
sieve803.py
5.670908689498901
sieve804.py
4.002696990966797
sieve805.py
3.0291080474853516
sieve806.py
14.969604253768921
sieve807.py
15.792878866195679
sieve808.py
3.006716012954712
sieve809.py
5.3125903606414795
sieve81.py
2.834822177886963
sieve810.py
4.001522779464722
sieve811.py
4.443522691726685
sieve812.py
14.168549537658691
sieve813.py
4.315704584121704
sieve814.py
4.012373208999634
sieve815.py
3.0082204341888428
sieve816.py
5.265074253082275
sieve817.py
4.050347328186035
sieve818.py
3.7064876556396484
sieve819.py
15.934203863143921
sieve82.py
5.601622581481934
sieve820.py
16.40128469467163
sieve821.py
5.722032070159912
sieve822.py
16.822084188461304
sieve823.py
3.262317419052124
sieve824.py
14.890141725540161
sieve825.py
3.063188076019287
sieve826.py
14.700203895568848
sieve827.py
3.641857862472534
sieve828.py
16.313004732131958
sieve829.py
14.976656198501587
sieve83.py
3.897033929824829
sieve830.py
14.674867868423462
sieve831.py
14.025979042053223
sieve832.py
14.943925142288208
sieve833.py
14.819681167602539
sieve834.py
13.80757188796997
sieve835.py
4.997086763381958
sieve836.py
14.708359241485596
sieve837.py
4.05127215385437
sieve838.py
2.945359706878662
sieve839.py
3.772933006286621
sieve84.py
14.054368257522583
sieve840.py
4.1925880908966064
sieve841.py
13.83706545829773
sieve842.py
15.583113431930542
sieve843.py
16.542948961257935
sieve844.py
5.403641223907471
sieve845.py
2.7995076179504395
sieve846.py
14.27249813079834
sieve847.py
5.320518493652344
sieve848.py
5.6547486782073975
sieve849.py
13.925242185592651
sieve85.py
4.812907457351685
sieve850.py
3.6493964195251465
sieve851.py
5.630395889282227
sieve852.py
4.242544651031494
sieve853.py
15.459511280059814
sieve854.py
5.62001633644104
sieve855.py
4.4330034255981445
sieve856.py
3.7651479244232178
sieve857.py
5.229106664657593
sieve858.py
3.1644058227539062
sieve859.py
15.636415481567383
sieve86.py
3.819800853729248
sieve860.py
5.021237134933472
sieve861.py
3.917893886566162
sieve862.py
3.780003786087036
sieve863.py
3.906752347946167
sieve864.py
16.664960861206055
sieve865.py
4.068732023239136
sieve866.py
13.969792604446411
sieve867.py
5.5789408683776855
sieve868.py
4.118856906890869
sieve869.py
2.8211023807525635
sieve87.py
13.894654035568237
sieve870.py
15.070256471633911
sieve871.py
14.267953395843506
sieve872.py
5.70631742477417
sieve873.py
5.5460591316223145
sieve874.py
16.63523507118225
sieve875.py
15.148055791854858
sieve876.py
16.87674117088318
sieve877.py
16.35009765625
sieve878.py
2.837268590927124
sieve879.py
3.103994846343994
sieve88.py
5.792786359786987
sieve880.py
5.300261735916138
sieve881.py
2.8619585037231445
sieve882.py
15.614717960357666
sieve883.py
4.691130876541138
sieve884.py
3.1191978454589844
sieve885.py
4.527183294296265
sieve886.py
4.780349493026733
sieve887.py
14.3994300365448
sieve888.py
3.9451489448547363
sieve889.py
3.0373337268829346
sieve89.py
5.296968698501587
sieve890.py
16.314454078674316
sieve891.py
15.396516799926758
sieve892.py
4.025211334228516
sieve893.py
15.758828401565552
sieve894.py
5.887202978134155
sieve895.py
3.007845878601074
sieve896.py
14.532970190048218
sieve897.py
14.096038341522217
sieve898.py
15.838823556900024
sieve899.py
16.240480422973633
sieve9.py
4.440371751785278
sieve90.py
5.409506559371948
sieve900.py
3.9106686115264893
sieve901.py
14.836790800094604
sieve902.py
3.9140896797180176
sieve903.py
15.438048362731934
sieve904.py
5.033721446990967
sieve905.py
14.045713186264038
sieve906.py
5.402966499328613
sieve907.py
14.277567625045776
sieve908.py
15.98383378982544
sieve909.py
3.0584781169891357
sieve91.py
3.749723434448242
sieve910.py
16.784841060638428
sieve911.py
14.20440936088562
sieve912.py
15.287689447402954
sieve913.py
5.3392722606658936
sieve914.py
16.05043053627014
sieve915.py
2.8197362422943115
sieve916.py
3.7834458351135254
sieve917.py
4.489500999450684
sieve918.py
14.765449047088623
sieve919.py
5.365005016326904
sieve92.py
5.405583381652832
sieve920.py
2.7227909564971924
sieve921.py
3.8959035873413086
sieve922.py
16.84773850440979
sieve923.py
3.7887539863586426
sieve924.py
17.241538047790527
sieve925.py
5.385222673416138
sieve926.py
3.772317886352539
sieve927.py
5.328104496002197
sieve928.py
3.696746826171875
sieve929.py
14.723740577697754
sieve93.py
15.610472679138184
sieve930.py
13.98673152923584
sieve931.py
14.542012453079224
sieve932.py
16.394139051437378
sieve933.py
2.9282209873199463
sieve934.py
16.41563057899475
sieve935.py
14.070584535598755
sieve936.py
5.7342188358306885
sieve937.py
13.76481819152832
sieve938.py
17.23906683921814
sieve939.py
15.786056995391846
sieve94.py
14.784604787826538
sieve940.py
4.539522171020508
sieve941.py
14.192200660705566
sieve942.py
5.880403757095337
sieve943.py
15.153561115264893
sieve944.py
14.89111852645874
sieve945.py
14.083204746246338
sieve946.py
13.790470123291016
sieve947.py
4.684079885482788
sieve948.py
3.0751514434814453
sieve949.py
4.106814622879028
sieve95.py
14.443064212799072
sieve950.py
16.029130697250366
sieve951.py
4.33291220664978
sieve952.py
16.593820571899414
sieve953.py
4.550396203994751
sieve954.py
13.858529806137085
sieve955.py
3.903272867202759
sieve956.py
3.0200891494750977
sieve957.py
3.0093116760253906
sieve958.py
15.817196607589722
sieve959.py
13.889374732971191
sieve96.py
14.088995933532715
sieve960.py
2.8465120792388916
sieve961.py
4.5865561962127686
sieve962.py
4.0745627880096436
sieve963.py
17.28960156440735
sieve964.py
3.2059357166290283
sieve965.py
3.953287363052368
sieve966.py
16.158138751983643
sieve967.py
15.56331467628479
sieve968.py
3.009392261505127
sieve969.py
14.28945279121399
sieve97.py
3.894080877304077
sieve970.py
15.11337661743164
sieve971.py
5.389257192611694
sieve972.py
14.528898477554321
sieve973.py
3.05941104888916
sieve974.py
3.8719642162323
sieve975.py
15.008463859558105
sieve976.py
14.202346801757812
sieve977.py
3.138413190841675
sieve978.py
16.820139408111572
sieve979.py
5.707523584365845
sieve98.py
15.703060150146484
sieve980.py
3.9553890228271484
sieve981.py
16.331218004226685
sieve982.py
15.069177389144897
sieve983.py
13.913167476654053
sieve984.py
5.292037725448608
sieve985.py
15.751997947692871
sieve986.py
16.455386877059937
sieve987.py
4.4291112422943115
sieve988.py
5.73241400718689
sieve989.py
15.862980842590332
sieve99.py
14.595577955245972
sieve990.py
3.7315621376037598
sieve991.py
15.129623651504517
sieve992.py
16.903509616851807
sieve993.py
3.947490930557251
sieve994.py
5.2161865234375
sieve995.py
4.029054403305054
sieve996.py
15.666532516479492
sieve997.py
5.548635721206665
sieve998.py
4.191079139709473
sieve999.py
4.791747093200684
