316.5,227.9,256.9
130.9,268.9,377.7
195.1,166.1,248.5
292.8,123.9,1040.5
315.6,202.9,254.5
300.6,199.3,277.3
321.3,215.4,1865.8
195.8,187.5,198.8
194.0,114.1,991.3
885.1,159.9,240.3
872.9,245.2,247.0
356.0,137.3,345.9
202.7,184.1,285.8
205.3,277.2,287.0
456.8,132.1,207.7
246.1,220.0,255.3
286.3,264.7,393.8
173.5,202.4,192.4
140.7,175.4,175.5
267.2,156.4,332.2
195.8,161.0,340.5
194.9,232.5,248.8
366.9,166.4,515.9
242.5,225.1,864.2
193.1,188.5,203.2
885.9,241.6,885.4
291.8,148.6,271.9
271.0,190.3,238.4
201.0,308.3,1025.8
316.7,343.4,229.4
217.4,258.4,204.5
250.1,202.8,333.3
260.8,246.1,202.1
312.4,171.2,522.5
207.4,178.7,203.3
942.2,193.9,239.5
248.8,108.1,1537.7
212.0,177.9,198.6
202.9,202.0,193.4
260.0,210.2,270.1
314.2,219.7,244.6
245.8,150.6,244.2
367.1,109.8,415.0
287.5,165.9,242.1
810.0,227.9,259.2
233.0,251.8,245.9
204.7,213.8,191.6
198.8,236.2,253.6
245.7,244.7,128.5
345.3,158.7,516.8
300.3,230.8,204.5
420.5,140.6,202.0
137.0,219.3,233.8
174.0,192.7,209.4
133.7,280.9,528.2
261.0,162.7,191.2
231.5,113.8,204.4
388.6,277.2,265.4
195.6,267.6,247.1
226.9,235.7,225.5
273.7,163.5,246.8
294.8,172.0,144.1
113.6,183.6,225.0
132.6,185.3,140.6
289.6,249.6,359.1
223.4,281.0,385.1
116.8,100.8,95.7
198.4,182.3,981.4
190.4,177.6,197.0
992.4,250.9,248.3
200.1,261.2,845.3
268.1,183.7,249.4
312.4,212.9,367.3
209.8,252.4,250.9
282.3,191.4,222.2
334.8,218.1,235.7
202.0,210.9,245.0
343.9,108.8,520.7
297.8,298.4,987.0
975.4,169.8,252.6
244.5,299.1,258.3
235.3,149.5,908.4
298.7,121.7,249.7
113.4,244.7,142.8
381.0,264.3,242.6
184.5,170.3,183.0
152.5,287.8,544.2
319.1,171.1,574.1
262.8,352.6,256.1
234.0,192.0,265.8
325.1,251.2,374.7
223.5,149.6,315.0
193.6,238.7,876.8
284.6,264.0,286.9
293.7,165.2,1010.4
248.3,246.7,256.0
249.7,187.3,205.8
209.4,287.5,250.8
247.6,128.4,289.7
196.9,168.7,239.6
242.7,220.3,220.7
173.3,254.4,184.3
316.3,249.1,468.0
230.8,291.1,219.3
371.4,263.2,360.9
309.5,242.6,362.6
256.1,258.6,341.0
116.5,239.7,93.7
136.4,109.4,122.6
192.4,251.1,242.1
236.6,113.1,220.7
282.5,330.6,870.5
201.3,250.3,257.0
206.3,198.5,947.2
818.0,205.6,1019.5
738.7,217.0,238.2
277.3,167.7,258.1
218.5,187.6,173.1
194.5,333.8,250.6
286.1,282.4,264.3
194.2,187.6,256.8
403.6,159.7,201.9
195.4,156.2,206.6
307.2,236.8,1251.0
235.7,248.5,248.3
328.6,156.5,269.2
244.1,126.2,347.0
242.8,247.0,363.8
199.0,242.1,254.8
460.2,246.1,204.8
196.0,119.6,249.1
140.3,250.0,95.7
151.7,181.9,149.0
308.3,215.5,229.3
181.0,200.0,291.3
200.0,212.6,196.2
243.9,259.6,266.5
173.9,213.0,212.5
239.9,162.4,150.8
164.1,232.4,178.5
427.2,179.1,517.6
330.6,144.4,289.1
139.4,243.6,93.4
147.1,239.4,299.0
208.6,290.6,1030.4
138.5,252.8,93.2
236.8,198.3,312.3
111.7,202.7,133.2
191.1,251.7,248.1
235.0,151.3,296.3
192.3,163.8,377.7
362.2,248.9,184.1
688.3,115.0,240.7
167.2,188.6,289.3
115.2,248.6,94.0
278.4,189.6,247.2
143.7,316.3,246.0
340.3,177.3,389.1
191.6,270.1,196.7
130.3,249.6,139.2
170.3,251.2,186.7
335.2,167.8,289.1
332.8,220.8,580.8
189.1,239.2,897.7
119.1,165.6,118.2
203.9,224.5,172.1
203.3,208.9,943.2
149.7,302.9,518.8
202.9,204.9,405.5
116.9,253.8,94.9
203.8,284.9,314.3
466.8,222.8,244.4
324.9,205.1,290.8
207.1,247.2,234.6
228.3,182.4,229.4
294.0,140.9,438.2
275.4,236.0,989.4
208.3,265.1,248.6
195.0,219.6,246.8
282.5,193.5,279.1
254.0,289.6,145.7
178.0,183.1,356.6
296.0,330.3,326.5
117.0,203.7,94.7
730.0,176.6,246.1
279.4,221.0,254.3
208.0,246.9,199.9
196.2,197.6,281.9
145.5,187.7,134.6
271.5,120.9,252.4
231.3,325.2,323.6
217.7,247.1,228.4
199.6,179.6,296.6
330.2,246.9,250.4
414.5,219.8,297.3
198.2,206.2,137.0
268.3,243.0,243.6
174.9,118.8,247.0
195.4,171.8,902.2
976.4,308.1,256.9
219.9,245.7,248.8
194.1,227.9,250.8
296.0,171.6,329.8
201.2,269.5,979.0
307.9,267.6,382.1
253.9,248.7,128.5
255.6,180.1,389.8
316.2,248.6,261.3
200.9,261.0,257.6
169.6,249.8,151.6
228.2,156.1,204.2
915.1,249.5,920.2
288.0,287.3,364.6
286.4,151.6,356.9
308.2,165.1,117.9
117.8,204.9,94.9
211.9,197.4,188.0
223.3,198.6,230.9
287.3,237.3,230.2
188.8,165.4,375.5
284.6,251.5,228.3
316.7,162.4,242.5
361.0,248.6,250.9
348.0,171.1,411.7
195.1,191.7,259.5
157.5,210.5,461.1
202.9,171.2,816.2
303.8,148.0,209.4
113.0,235.7,122.4
190.4,300.0,1027.0
201.4,241.1,197.8
286.9,267.2,206.3
116.2,253.6,94.7
301.2,207.5,236.9
820.0,178.9,206.3
213.3,188.4,244.0
206.7,241.9,992.4
409.6,248.1,169.5
190.8,180.6,872.3
344.3,248.8,520.8
894.0,222.6,872.6
279.0,262.2,373.2
866.3,237.6,955.6
885.8,169.7,249.6
305.4,242.1,253.9
716.4,222.8,255.2
263.9,291.7,331.1
267.1,166.6,192.6
193.7,204.3,167.3
115.2,167.7,94.3
278.1,191.1,336.5
315.2,247.4,492.5
235.1,151.0,256.1
226.9,119.4,179.9
259.7,240.4,176.7
195.8,227.9,249.3
278.3,246.6,485.1
197.9,249.8,1494.6
140.3,227.6,94.4
121.9,357.5,180.3
399.7,176.1,385.4
241.0,187.2,237.4
382.0,281.0,216.7
309.4,211.3,925.9
197.0,202.3,357.4
197.8,293.1,263.3
254.4,313.4,348.1
266.1,293.7,362.9
372.6,223.9,383.4
124.4,185.5,355.8
362.1,195.0,252.7
341.7,110.7,533.1
194.2,204.6,352.7
232.6,165.0,191.6
241.0,216.8,282.5
262.0,257.9,202.2
317.0,200.9,439.5
316.6,234.6,364.1
213.2,225.0,377.1
139.6,276.4,619.1
839.2,113.3,251.2
149.3,174.7,175.1
243.5,121.5,193.4
911.0,163.1,244.1
242.3,185.6,219.7
630.5,178.1,397.7
576.1,256.5,902.8
157.2,270.3,135.2
409.3,252.8,367.8
229.7,213.4,186.9
117.0,206.2,96.4
186.1,234.3,178.1
114.9,253.7,93.7
214.5,200.7,227.5
914.6,251.3,920.0
296.9,202.1,254.7
200.1,121.8,250.7
207.0,230.7,243.6
142.6,241.7,212.1
238.4,159.8,324.8
147.8,281.7,394.8
203.7,242.0,961.1
210.6,252.9,267.2
111.3,250.0,178.3
212.5,250.6,168.3
115.8,252.5,95.2
217.7,137.1,153.9
315.2,221.0,494.6
223.8,154.4,259.9
944.0,168.7,247.2
192.8,194.9,267.9
239.7,182.2,231.4
200.6,256.2,251.7
157.9,213.4,354.8
161.5,242.8,166.9
290.1,246.9,217.1
255.7,186.6,249.4
243.3,177.3,192.2
307.1,126.2,875.7
198.9,239.0,402.2
270.4,220.2,320.3
242.2,189.7,253.4
302.5,252.2,231.2
162.7,195.6,244.1
203.1,168.9,178.9
285.0,264.0,360.3
205.8,97.7,248.8
202.3,186.3,249.3
201.0,217.7,325.5
195.4,107.9,989.8
281.5,249.1,947.5
116.4,253.6,94.9
195.5,265.5,1039.0
118.9,226.3,301.7
354.0,211.4,130.9
116.3,252.6,94.4
324.9,269.3,982.1
162.1,253.3,431.6
188.9,241.0,360.6
181.9,213.8,129.2
141.3,180.8,152.7
203.2,186.4,258.9
221.6,256.1,1004.7
346.2,119.9,562.8
193.3,249.4,820.0
213.1,213.0,208.5
178.8,237.2,951.8
194.5,242.3,364.0
248.1,307.6,251.9
435.6,295.9,585.4
270.5,182.1,365.0
195.0,226.6,247.5
155.5,241.9,212.8
143.6,252.5,166.1
298.6,120.5,210.0
201.0,234.5,986.7
219.5,184.9,246.5
196.4,247.5,209.9
198.0,315.1,252.3
262.7,186.2,337.9
248.3,177.2,350.1
138.5,175.4,95.0
141.0,254.2,94.6
140.1,237.8,93.5
188.3,150.7,878.8
307.6,193.2,190.3
169.4,172.2,174.4
337.2,132.0,327.2
116.4,220.3,207.4
203.4,235.3,986.3
314.6,161.7,380.2
270.8,216.1,346.4
212.5,179.4,252.4
290.2,249.2,353.1
124.1,243.5,505.9
301.3,252.7,218.1
280.6,180.6,276.1
139.9,192.1,94.6
243.1,248.5,246.6
124.8,155.1,188.6
133.7,118.9,226.7
213.3,244.8,289.7
333.6,145.0,191.6
183.5,189.0,158.1
194.7,213.4,344.6
319.5,190.1,291.4
240.4,150.2,270.8
342.7,255.7,323.1
348.3,197.3,187.2
202.8,207.3,151.6
286.1,174.6,178.6
194.7,252.1,876.4
215.9,225.6,220.6
313.8,252.6,261.6
248.4,170.3,465.2
161.9,119.2,266.6
301.8,158.1,396.0
336.0,116.8,252.0
147.4,202.9,383.9
112.5,192.2,172.4
191.0,157.6,255.4
319.1,235.3,165.2
312.3,176.8,899.7
351.4,287.4,509.5
243.3,221.1,227.4
266.0,250.4,220.1
251.8,252.7,840.7
253.6,211.1,314.1
112.9,118.2,160.3
864.5,191.7,858.2
311.7,219.1,255.2
262.9,181.7,289.3
122.6,164.7,463.7
199.0,259.5,168.8
186.0,172.9,267.5
280.1,239.2,245.8
206.8,222.0,241.7
230.7,252.1,155.8
955.0,249.5,253.4
305.7,230.4,241.6
227.4,124.0,241.9
261.0,184.0,220.5
319.5,124.7,250.7
227.1,252.2,230.9
354.0,213.7,240.9
176.1,236.4,170.3
195.5,189.8,256.5
209.1,248.8,951.3
147.5,238.6,299.8
243.7,248.4,1365.8
137.9,262.5,379.2
212.6,247.9,107.9
129.6,174.2,376.6
278.2,180.4,1042.8
220.4,148.2,310.3
263.8,312.3,262.9
874.2,264.0,245.1
127.9,239.0,480.1
368.0,249.3,239.8
341.0,174.7,463.7
197.6,251.8,970.2
130.2,252.6,205.1
117.5,241.4,212.5
217.8,151.0,265.7
356.6,212.3,488.4
219.2,207.4,339.1
247.9,232.4,343.2
206.2,244.8,145.6
283.5,275.5,323.0
332.9,163.6,495.3
214.1,247.4,219.7
139.3,111.6,202.8
265.7,121.7,149.7
210.1,165.3,199.4
916.9,274.2,934.9
237.6,269.5,233.7
320.4,279.2,344.5
308.7,209.1,1031.4
842.9,177.2,1010.0
265.6,244.7,221.3
253.4,223.7,344.3
382.9,178.7,217.4
195.7,241.1,231.0
203.0,249.6,827.8
270.3,180.8,158.3
258.2,199.3,268.5
184.6,171.9,362.3
227.5,266.9,295.4
150.5,217.6,207.6
119.4,228.8,165.0
201.3,245.5,242.8
136.0,248.2,183.7
406.9,224.2,289.6
176.5,252.1,193.1
308.1,216.6,1039.5
151.7,198.6,173.0
268.5,149.1,349.3
749.1,164.8,252.2
268.3,148.4,117.7
310.4,127.1,254.8
109.7,171.3,178.4
123.9,194.0,362.8
164.2,251.9,260.7
115.0,221.0,95.5
160.8,180.4,235.3
199.8,295.3,357.4
263.2,162.6,281.5
115.5,192.8,179.4
203.5,191.0,247.5
218.1,233.5,357.6
346.6,298.9,366.8
153.8,262.8,176.0
238.2,280.4,229.9
175.1,154.9,246.9
168.0,190.7,174.4
155.6,126.7,404.6
297.2,235.2,976.3
212.2,271.6,383.6
313.3,222.8,252.6
199.3,265.9,388.1
344.1,225.6,241.3
296.1,176.2,917.3
326.6,188.3,387.5
364.2,228.6,202.1
233.7,271.0,963.6
194.1,230.9,1247.0
251.9,203.3,322.2
197.5,314.5,246.2
433.0,271.9,246.4
408.9,231.1,433.7
310.2,185.1,242.4
300.2,219.5,226.8
266.4,190.6,252.6
224.1,123.2,376.5
280.7,145.4,232.4
145.6,181.9,248.8
193.3,234.3,219.0
114.2,247.4,93.7
290.6,236.2,158.2
244.8,148.5,172.7
191.6,147.8,284.6
197.2,184.7,932.5
196.8,254.1,962.8
302.8,166.6,238.4
117.1,238.3,94.0
207.5,231.2,254.9
171.9,164.6,177.4
345.0,298.5,260.5
188.0,111.4,244.4
245.5,226.4,212.7
259.7,163.2,464.1
287.5,124.4,228.5
117.3,249.4,94.7
160.4,250.8,171.8
379.5,210.0,247.0
259.9,171.9,180.8
320.7,235.0,236.2
200.0,195.0,155.1
253.6,248.8,151.5
292.3,148.7,259.4
116.8,253.6,95.9
238.0,224.0,1037.6
260.1,145.7,269.6
139.4,252.8,94.2
253.7,259.1,246.7
264.2,133.1,249.1
313.3,197.8,489.4
195.5,216.4,233.5
184.4,206.2,200.9
155.5,192.7,253.0
273.2,249.1,201.2
196.5,179.8,244.9
199.8,184.5,948.2
200.1,170.1,250.5
125.9,211.0,239.1
116.9,186.8,95.5
275.0,178.6,179.0
236.3,331.8,247.7
175.9,171.0,1000.9
317.8,256.0,257.3
441.0,304.1,155.7
363.3,164.9,194.7
815.4,197.9,828.0
205.6,241.3,238.2
149.1,213.6,183.2
240.3,190.5,245.5
248.5,252.8,198.3
321.6,216.1,396.9
242.3,184.1,245.6
124.2,157.5,293.8
202.8,176.0,259.8
204.3,250.1,227.5
273.7,253.2,256.9
302.1,242.7,327.6
190.2,112.5,239.6
245.5,126.5,224.4
253.6,251.3,259.0
198.2,191.0,940.1
131.2,248.3,408.7
154.0,251.2,153.6
302.9,187.0,1028.2
417.3,157.0,366.4
354.2,229.2,169.9
116.7,217.1,95.2
919.1,169.0,973.9
126.8,98.1,143.6
196.6,225.6,913.9
366.4,176.6,384.8
277.4,227.1,191.0
261.7,318.9,180.6
275.5,152.8,205.7
276.0,181.0,254.5
152.0,253.1,122.6
178.9,136.0,138.0
336.7,252.9,578.3
161.3,235.8,240.3
141.7,210.8,94.1
256.1,333.2,247.9
153.2,212.4,186.3
902.4,228.3,246.8
236.4,166.9,186.3
310.0,249.4,439.1
199.8,220.4,201.5
297.4,186.9,362.5
256.5,280.4,193.3
299.3,100.8,284.8
274.1,251.2,984.2
272.2,252.8,267.2
191.7,170.9,192.1
283.6,248.7,367.1
257.2,248.8,249.9
199.1,173.7,160.3
147.8,253.1,224.7
501.7,188.1,128.0
311.7,296.0,368.3
936.1,214.4,242.9
126.9,206.5,588.2
925.0,234.9,247.2
201.7,179.9,282.0
197.6,245.9,1032.0
304.6,198.4,258.9
345.5,163.5,540.1
235.9,110.7,251.1
271.7,220.4,224.7
172.6,249.4,172.2
117.6,217.6,94.6
189.9,221.1,1051.0
116.3,238.6,94.8
234.5,167.4,155.7
140.8,252.1,94.6
299.7,173.7,245.0
229.0,204.9,199.9
284.6,230.4,262.2
274.3,128.4,469.7
404.7,133.0,259.1
193.8,247.4,224.8
252.7,108.7,182.6
244.1,130.5,225.1
334.3,151.8,227.3
961.9,245.5,1028.3
270.0,213.9,909.0
124.9,297.1,483.3
160.9,235.9,173.7
231.0,276.8,219.5
281.1,242.0,311.8
424.7,182.8,353.3
235.4,247.0,191.5
283.8,254.8,304.3
140.2,253.1,94.3
199.2,213.6,249.1
250.9,160.4,276.1
287.5,238.4,118.4
911.4,203.8,246.0
373.3,221.9,175.1
208.9,171.4,250.7
228.1,302.9,241.4
352.3,111.6,272.1
259.9,184.0,248.4
214.1,244.2,161.6
114.6,174.4,94.0
272.1,253.0,272.0
193.7,284.6,346.3
126.1,153.7,532.4
264.0,293.6,1040.1
205.3,169.5,259.3
229.1,180.1,175.5
428.3,171.4,239.5
192.7,189.0,921.5
230.3,173.7,453.2
868.5,184.0,364.9
293.6,173.6,309.3
257.1,203.0,246.6
224.0,235.4,296.0
199.8,172.3,240.9
128.8,147.4,385.3
182.0,250.3,174.3
375.0,112.7,503.1
247.6,239.4,259.9
255.1,161.9,253.1
123.3,249.2,239.6
297.8,163.6,283.8
598.9,180.1,233.2
361.2,171.2,210.8
195.4,245.2,241.8
245.5,172.4,175.9
204.2,118.8,128.6
248.1,189.5,160.9
151.0,190.5,171.5
141.4,249.2,209.5
449.0,263.4,255.1
195.4,198.0,134.1
204.1,268.3,262.8
211.0,249.8,918.0
119.4,253.7,175.6
264.4,318.0,910.4
139.4,254.9,94.6
978.0,166.8,953.1
319.0,173.5,202.9
176.5,149.2,164.3
223.8,174.0,270.8
575.5,315.8,1013.3
199.6,204.9,152.5
208.4,253.6,185.8
117.0,177.5,94.7
290.3,279.9,348.8
198.8,220.9,247.4
260.7,177.8,337.5
836.3,107.5,954.0
193.6,242.4,981.4
279.9,203.0,260.7
358.8,121.9,218.4
307.7,240.1,147.2
369.9,223.5,352.3
197.0,179.8,241.3
290.7,250.8,1146.8
197.2,230.5,247.7
138.9,253.5,94.3
868.5,249.9,192.0
127.7,245.4,205.2
290.9,241.1,238.3
327.8,236.5,431.6
264.3,206.9,919.9
208.1,207.2,300.1
308.3,334.0,345.4
290.9,174.6,208.6
309.7,134.0,294.8
153.7,253.7,162.1
314.9,169.4,466.1
217.0,172.8,219.0
116.1,253.5,94.4
252.2,213.5,1011.5
148.9,141.0,251.4
259.0,185.0,236.5
674.2,195.0,1193.2
417.5,181.2,260.0
117.2,151.6,178.7
190.7,124.4,200.8
215.7,223.8,244.7
209.3,285.9,1383.0
386.7,268.2,119.4
116.3,249.2,94.1
152.3,250.8,254.4
196.2,249.6,395.4
205.7,181.2,196.6
234.4,242.7,142.3
195.1,180.6,246.4
962.0,227.5,248.6
308.1,197.9,323.0
280.3,318.8,199.1
192.0,189.3,986.1
442.2,175.9,302.3
251.9,221.9,481.7
178.2,301.1,201.8
194.3,209.3,956.2
203.1,229.9,204.2
247.1,191.6,209.0
307.5,218.5,250.1
175.0,134.6,174.7
271.2,234.7,817.9
117.1,187.4,95.1
346.6,184.9,251.5
193.5,251.6,245.1
361.9,287.5,353.2
278.1,235.4,1726.7
252.7,265.8,245.6
117.1,176.2,245.1
523.0,192.8,202.6
241.2,247.8,251.3
222.1,221.9,896.0
302.9,248.7,375.3
249.6,165.6,281.5
241.7,192.6,238.1
639.9,186.6,966.3
138.9,212.0,93.9
823.3,179.2,246.2
196.0,165.9,1006.1
116.3,252.6,94.2
115.0,248.0,93.2
316.4,304.5,512.5
240.4,275.5,179.0
203.1,253.6,155.5
314.0,146.2,495.3
190.8,226.8,246.5
222.1,235.3,208.2
300.5,231.3,199.1
213.5,252.8,247.6
116.3,242.4,95.5
144.3,253.3,167.6
861.2,220.9,1029.0
230.6,255.5,275.5
222.5,183.5,1017.7
368.5,298.2,353.1
257.7,171.0,261.4
200.6,109.2,238.4
294.8,270.1,244.2
369.7,365.1,262.5
201.4,207.4,1015.7
225.8,236.9,202.3
120.5,260.6,189.6
230.8,247.5,259.8
252.4,120.8,232.0
151.7,181.8,252.4
190.1,179.8,954.0
195.5,192.7,241.5
238.3,144.8,211.7
212.0,217.3,233.3
267.0,204.4,373.0
225.7,228.8,320.6
177.5,177.5,399.5
219.7,263.2,151.0
117.4,253.9,172.3
197.0,265.4,202.4
377.8,187.4,463.4
304.4,247.1,846.6
267.6,163.8,253.6
240.1,206.6,880.7
218.5,249.2,259.2
420.5,221.0,475.4
310.7,211.3,203.3
285.4,151.2,341.2
256.8,252.1,161.6
864.6,110.7,255.9
194.9,266.6,1045.3
271.1,121.1,240.9
193.5,242.3,243.8
194.7,224.5,975.1
126.0,172.2,458.1
471.4,160.9,229.4
261.4,163.3,240.1
155.5,219.8,395.4
253.7,301.3,116.4
193.8,300.4,964.1
297.3,160.1,274.1
218.5,172.9,245.1
301.5,209.7,391.1
115.1,252.6,93.7
899.5,171.9,984.1
192.1,166.8,993.6
220.6,292.8,276.7
262.7,197.6,263.7
259.5,289.0,205.6
186.5,219.6,887.5
223.5,252.8,221.3
113.4,187.3,95.8
140.4,237.6,95.1
146.1,150.1,292.1
238.9,253.4,180.3
265.8,226.4,185.5
116.9,240.8,95.8
180.0,222.1,213.7
140.2,179.2,94.7
289.9,183.4,946.6
148.6,158.0,192.1
231.4,253.1,246.1
202.5,225.4,241.3
266.4,242.8,262.3
251.5,154.3,241.3
352.7,222.6,166.5
200.0,111.9,239.9
262.0,317.0,116.3
632.0,300.6,251.9
900.1,226.8,248.2
310.9,251.8,467.4
330.0,120.2,318.3
385.2,257.8,188.0
253.3,218.7,233.9
290.9,201.7,329.0
143.2,212.6,256.0
691.9,334.9,247.8
126.1,182.2,164.5
360.3,165.4,399.8
263.0,171.8,370.3
241.8,235.5,248.8
147.4,232.4,218.3
358.4,185.1,540.4
215.6,238.8,348.3
264.1,198.0,307.3
250.7,179.0,277.4
721.4,240.3,251.6
178.5,276.2,251.6
163.9,114.4,144.2
195.2,295.2,370.8
266.5,198.3,234.9
345.4,185.4,978.7
115.0,246.2,93.4
171.1,252.2,245.3
191.3,268.8,245.9
192.6,187.7,227.1
283.1,210.9,987.7
165.3,257.3,207.0
313.4,160.1,390.0
367.0,173.7,275.5
164.5,253.1,181.3
194.5,241.1,238.0
117.3,245.8,93.8
871.8,299.6,341.8
408.1,150.0,362.1
192.8,178.8,206.5
921.9,249.3,948.5
217.8,240.8,177.2
287.0,253.2,176.9
112.2,161.8,160.0
306.8,248.5,198.1
206.3,249.3,1020.3
326.0,209.9,209.2
270.6,247.2,888.0
904.8,245.7,371.6
346.6,363.9,396.0
239.1,257.0,176.0
140.7,125.6,154.0
303.9,215.6,967.7
190.4,180.1,152.5
140.9,248.2,94.1
253.6,133.9,192.9
248.0,239.5,366.9
236.7,197.9,305.7
180.3,239.7,217.6
235.7,173.0,194.0
235.1,147.8,263.5
323.3,127.7,217.5
241.5,276.2,185.4
243.1,239.2,258.8
177.5,261.6,497.9
267.1,186.5,233.3
212.6,162.2,168.2
209.1,235.2,247.3
315.5,251.2,373.5
145.5,127.9,235.0
278.3,220.8,200.9
250.8,291.9,950.6
112.1,249.6,177.1
310.5,185.4,185.7
188.6,120.7,240.9
277.1,181.4,273.4
648.3,187.8,864.7
168.5,218.5,267.1
196.1,293.9,982.6
237.5,196.0,261.2
326.7,261.2,241.6
271.7,225.7,128.3
172.6,221.4,146.2
435.0,167.4,314.1
114.2,186.2,94.9
398.0,120.0,199.8
115.0,185.4,93.4
362.8,177.1,527.5
272.0,253.8,298.5
141.6,225.3,164.8
200.1,184.7,336.2
150.8,183.5,146.9
219.1,230.9,247.8
227.0,253.1,212.0
216.3,235.9,178.0
380.9,164.1,371.5
281.1,268.4,934.2
193.2,245.6,1740.6
141.8,253.9,95.7
368.5,251.0,510.3
702.3,242.3,248.6
269.7,145.6,286.8
195.7,233.6,196.4
270.1,219.2,290.4
198.4,205.3,251.2
198.1,110.6,908.5
220.9,158.6,225.2
305.2,182.5,460.1
192.7,177.3,164.2
198.8,244.9,912.3
174.6,115.7,339.9
213.1,305.9,368.1
174.7,180.8,153.5
323.7,280.9,628.7
151.5,209.7,284.6
319.3,260.3,254.2
194.8,247.8,184.3
339.3,305.0,241.0
502.2,196.7,247.8
226.5,113.9,175.6
195.7,253.2,191.3
221.8,147.8,176.6
925.4,229.8,256.8
478.2,210.3,376.4
142.5,251.1,588.8
377.8,292.9,206.4
321.6,178.0,246.2
362.3,169.0,261.8
293.3,159.4,243.5
836.6,257.1,968.1
244.3,176.0,404.3
505.0,237.9,963.8
182.7,167.4,222.8
222.6,256.8,389.5
262.1,236.4,991.1
349.4,242.4,232.1
198.4,179.4,994.1
232.1,202.5,243.3
816.8,210.1,988.6
196.1,248.3,708.6
277.8,261.1,205.3
204.2,247.9,154.7
219.2,253.4,927.9
213.1,249.0,225.1
222.7,174.9,193.9
140.0,223.2,289.1
281.1,149.8,194.4
346.2,127.7,251.6
265.5,252.7,204.7
233.0,192.4,236.3
270.1,324.5,403.9
254.9,262.4,310.5
211.9,175.5,888.1
195.6,248.1,243.2
323.0,354.3,386.7
195.8,109.4,233.6
253.8,167.9,289.4
347.8,183.0,532.1
284.8,191.2,253.2
147.7,265.6,280.8
211.4,250.6,220.4
200.1,109.2,882.3
838.8,235.7,250.1
263.1,154.3,193.5
365.3,236.0,255.1
206.1,173.6,608.1
137.6,237.0,141.0
