pred_meteor_contest.py
7.8130881786346436
met1.py
7.825749158859253
met10.py
7.826848745346069
met100.py
9.311460971832275
met1000.py
23.449146509170532
met1001.py
23.921439170837402
met1002.py
24.29276752471924
met1003.py
23.562180280685425
met1004.py
23.648144483566284
met1005.py
23.641631603240967
met1006.py
24.092925548553467
met1007.py
23.492680072784424
met1008.py
23.276212215423584
met1009.py
24.032530546188354
met101.py
9.195754289627075
met1010.py
23.853543758392334
met1011.py
23.75385332107544
met1012.py
23.87423825263977
met1013.py
23.75037693977356
met1014.py
24.306840658187866
met1015.py
24.232900857925415
met1016.py
24.231189966201782
met1017.py
23.962795972824097
met1018.py
23.720308303833008
met1019.py
23.70028805732727
met102.py
9.196260452270508
met1020.py
24.345969438552856
met1021.py
23.781842947006226
met1022.py
23.7003812789917
met1023.py
24.358189582824707
met1024.py
23.48627519607544
met103.py
9.128126621246338
met104.py
9.234228134155273
met105.py
9.237182378768921
met106.py
9.337640523910522
met107.py
9.763895034790039
met108.py
9.567168235778809
met109.py
9.385809183120728
met11.py
7.78987193107605
met110.py
9.179524421691895
met111.py
9.239131450653076
met112.py
9.305412769317627
met113.py
9.227885723114014
met114.py
9.243123054504395
met115.py
9.36701250076294
met116.py
9.346200942993164
met117.py
9.311479568481445
met118.py
9.471155166625977
met119.py
9.288721084594727
met12.py
7.841263294219971
met120.py
9.434643983840942
met121.py
9.400878667831421
met122.py
9.497405529022217
met123.py
9.291171312332153
met124.py
9.265841245651245
met125.py
9.412758588790894
met126.py
9.36567735671997
met127.py
9.579852819442749
met128.py
9.394703388214111
met129.py
7.9985620975494385
met13.py
7.864562511444092
met130.py
7.710213899612427
met131.py
7.841528415679932
met132.py
7.900025129318237
met133.py
7.890357732772827
met134.py
7.811952829360962
met135.py
7.807074069976807
met136.py
7.99164605140686
met137.py
8.420156955718994
met138.py
7.82703423500061
met139.py
7.9335551261901855
met14.py
7.823172092437744
met140.py
7.794611692428589
met141.py
8.114965200424194
met142.py
7.74523138999939
met143.py
7.916375637054443
met144.py
7.806510925292969
met145.py
7.961031198501587
met146.py
7.858080863952637
met147.py
7.824216365814209
met148.py
7.946183204650879
met149.py
7.939088344573975
met15.py
7.816722869873047
met150.py
8.028344869613647
met151.py
7.754785537719727
met152.py
7.921760082244873
met153.py
7.819571495056152
met154.py
7.89647102355957
met155.py
8.01786494255066
met156.py
7.730652570724487
met157.py
7.862117767333984
met158.py
7.813542366027832
met159.py
7.9029388427734375
met16.py
7.708965301513672
met160.py
8.010338068008423
met161.py
9.198855638504028
met162.py
9.228236675262451
met163.py
9.084903955459595
met164.py
9.302856683731079
met165.py
9.520095109939575
met166.py
9.440946578979492
met167.py
9.20659613609314
met168.py
9.198367357254028
met169.py
9.682794570922852
met17.py
7.972837924957275
met170.py
9.230971574783325
met171.py
9.5347261428833
met172.py
9.386954307556152
met173.py
9.23538613319397
met174.py
9.277758836746216
met175.py
9.24903678894043
met176.py
9.144492626190186
met177.py
9.407273769378662
met178.py
9.2850661277771
met179.py
9.350057601928711
met18.py
7.822442293167114
met180.py
9.261980056762695
met181.py
9.234098672866821
met182.py
9.353976488113403
met183.py
9.399561882019043
met184.py
9.263866424560547
met185.py
9.311928272247314
met186.py
9.215527534484863
met187.py
9.443037509918213
met188.py
9.323785066604614
met189.py
9.294493198394775
met19.py
7.769766092300415
met190.py
9.57807731628418
met191.py
9.484082221984863
met192.py
9.382776498794556
met193.py
7.955138921737671
met194.py
8.032907724380493
met195.py
7.824697494506836
met196.py
7.826259136199951
met197.py
7.878934144973755
met198.py
7.882055997848511
met199.py
8.407810926437378
met2.py
7.734936475753784
met20.py
8.055370569229126
met200.py
7.912049055099487
met201.py
7.922112464904785
met202.py
7.868425130844116
met203.py
7.821947813034058
met204.py
7.943176031112671
met205.py
7.960691213607788
met206.py
7.822845697402954
met207.py
7.777184009552002
met208.py
7.806506395339966
met209.py
7.849406003952026
met21.py
7.8102195262908936
met210.py
7.929217576980591
met211.py
7.925211668014526
met212.py
7.883502244949341
met213.py
8.005110502243042
met214.py
7.8018810749053955
met215.py
7.853196620941162
met216.py
8.075564622879028
met217.py
7.964030504226685
met218.py
7.918198108673096
met219.py
7.913640022277832
met22.py
8.003678560256958
met220.py
8.023088932037354
met221.py
7.948231935501099
met222.py
7.850773096084595
met223.py
7.7762322425842285
met224.py
7.833811044692993
met225.py
9.222337484359741
met226.py
9.230659246444702
met227.py
9.106045007705688
met228.py
9.150245666503906
met229.py
9.556688785552979
met23.py
7.939251899719238
met230.py
9.81983208656311
met231.py
9.20539140701294
met232.py
9.193678855895996
met233.py
9.303982496261597
met234.py
9.272137641906738
met235.py
9.472353219985962
met236.py
9.269959211349487
met237.py
9.428436517715454
met238.py
9.361618280410767
met239.py
9.343402862548828
met24.py
7.923874616622925
met240.py
9.417194843292236
met241.py
9.397127866744995
met242.py
9.49142050743103
met243.py
9.523905754089355
met244.py
9.532828092575073
met245.py
9.236157417297363
met246.py
9.180473804473877
met247.py
9.45904278755188
met248.py
9.253248929977417
met249.py
9.282976627349854
met25.py
7.779850721359253
met250.py
9.354772090911865
met251.py
9.229180812835693
met252.py
9.306763410568237
met253.py
9.342629194259644
met254.py
9.207216262817383
met255.py
9.622064113616943
met256.py
9.30381989479065
met257.py
21.457358360290527
met258.py
21.815531253814697
met259.py
21.158628940582275
met26.py
7.984230995178223
met260.py
21.628588438034058
met261.py
21.19584321975708
met262.py
21.93426489830017
met263.py
21.57957410812378
met264.py
21.27835440635681
met265.py
21.586660385131836
met266.py
21.63408136367798
met267.py
21.516968488693237
met268.py
21.56261706352234
met269.py
21.72869324684143
met27.py
7.930667400360107
met270.py
21.912947177886963
met271.py
22.071582078933716
met272.py
21.294577598571777
met273.py
21.538679599761963
met274.py
22.35421919822693
met275.py
22.013238668441772
met276.py
21.26423716545105
met277.py
21.620820999145508
met278.py
21.471109867095947
met279.py
21.777514457702637
met28.py
7.841082334518433
met280.py
21.340250253677368
met281.py
21.30368709564209
met282.py
21.40075373649597
met283.py
21.348440885543823
met284.py
22.385868072509766
met285.py
21.738385677337646
met286.py
22.13597321510315
met287.py
21.844346523284912
met288.py
21.384509325027466
met289.py
22.628981113433838
met29.py
7.976597547531128
met290.py
22.657115936279297
met291.py
23.258981704711914
met292.py
22.90825605392456
met293.py
22.933171033859253
met294.py
23.035254955291748
met295.py
22.638274669647217
met296.py
23.332643032073975
met297.py
23.48923397064209
met298.py
23.09429383277893
met299.py
23.532861471176147
met3.py
7.787335395812988
met30.py
8.013025045394897
met300.py
23.30200958251953
met301.py
22.81416344642639
met302.py
22.76288080215454
met303.py
23.170607805252075
met304.py
23.06627631187439
met305.py
23.279720306396484
met306.py
23.030913829803467
met307.py
23.080538511276245
met308.py
23.11520004272461
met309.py
23.590214014053345
met31.py
7.79864764213562
met310.py
22.85864806175232
met311.py
23.459673404693604
met312.py
23.093944549560547
met313.py
24.12637424468994
met314.py
22.854954957962036
met315.py
23.17373299598694
met316.py
23.14841079711914
met317.py
22.761680126190186
met318.py
23.53809094429016
met319.py
23.44478416442871
met32.py
7.855734586715698
met320.py
23.0425021648407
met321.py
22.064073085784912
met322.py
21.583021640777588
met323.py
21.314851999282837
met324.py
21.364792108535767
met325.py
21.92996644973755
met326.py
21.668375253677368
met327.py
21.310285568237305
met328.py
21.470970392227173
met329.py
21.596576690673828
met33.py
9.258748054504395
met330.py
21.189743757247925
met331.py
21.513400077819824
met332.py
21.543306589126587
met333.py
21.229435443878174
met334.py
21.978734016418457
met335.py
21.690176010131836
met336.py
21.954821586608887
met337.py
21.65615177154541
met338.py
21.505457401275635
met339.py
21.658908128738403
met34.py
9.379680633544922
met340.py
21.928874015808105
met341.py
21.39883804321289
met342.py
21.644293785095215
met343.py
21.460253477096558
met344.py
21.70033836364746
met345.py
22.30161738395691
met346.py
21.616684913635254
met347.py
21.743058681488037
met348.py
23.566513538360596
met349.py
21.58378839492798
met35.py
9.200600147247314
met350.py
21.27895951271057
met351.py
21.48157000541687
met352.py
21.4149808883667
met353.py
22.765604257583618
met354.py
23.67931318283081
met355.py
23.231058597564697
met356.py
23.024887800216675
met357.py
22.646312952041626
met358.py
22.968376874923706
met359.py
22.902118921279907
met36.py
9.272793292999268
met360.py
23.482282638549805
met361.py
22.80453610420227
met362.py
22.933853149414062
met363.py
23.06570029258728
met364.py
22.72667360305786
met365.py
23.424247980117798
met366.py
22.775309324264526
met367.py
22.952627658843994
met368.py
23.12372088432312
met369.py
22.786646366119385
met37.py
9.166991233825684
met370.py
23.16312861442566
met371.py
23.42590045928955
met372.py
22.843016386032104
met373.py
23.229060411453247
met374.py
22.686110019683838
met375.py
22.96365475654602
met376.py
22.667375564575195
met377.py
22.901337146759033
met378.py
22.869031190872192
met379.py
23.52616548538208
met38.py
9.160470247268677
met380.py
23.3355131149292
met381.py
23.410841941833496
met382.py
23.18509793281555
met383.py
23.19298529624939
met384.py
23.50714087486267
met385.py
22.112452268600464
met386.py
21.66143298149109
met387.py
22.01530146598816
met388.py
21.7827627658844
met389.py
21.89144992828369
met39.py
9.330695390701294
met390.py
21.615790843963623
met391.py
21.52683663368225
met392.py
21.314985275268555
met393.py
21.91415572166443
met394.py
21.68727421760559
met395.py
22.37289810180664
met396.py
21.36941909790039
met397.py
21.667936325073242
met398.py
22.15488052368164
met399.py
21.490726947784424
met4.py
7.777392864227295
met40.py
9.202656030654907
met400.py
21.4851393699646
met401.py
21.98337745666504
met402.py
21.84363055229187
met403.py
21.161795139312744
met404.py
21.523521184921265
met405.py
21.25448489189148
met406.py
21.366808652877808
met407.py
21.647400617599487
met408.py
21.381550788879395
met409.py
21.422922134399414
met41.py
9.139153242111206
met410.py
21.446848154067993
met411.py
22.24766182899475
met412.py
21.665923357009888
met413.py
21.63231658935547
met414.py
21.759023666381836
met415.py
21.486253023147583
met416.py
21.76174545288086
met417.py
22.909036874771118
met418.py
22.703417539596558
met419.py
22.99366593360901
met42.py
9.247251510620117
met420.py
23.490301609039307
met421.py
22.579596042633057
met422.py
22.89816904067993
met423.py
22.721670866012573
met424.py
23.714479446411133
met425.py
22.85220241546631
met426.py
22.98697805404663
met427.py
22.78255605697632
met428.py
22.69492530822754
met429.py
22.62372612953186
met43.py
9.41431713104248
met430.py
22.77935814857483
met431.py
22.80956768989563
met432.py
22.708881855010986
met433.py
23.052007913589478
met434.py
22.52327561378479
met435.py
22.753745794296265
met436.py
24.08585524559021
met437.py
22.990621328353882
met438.py
23.185022830963135
met439.py
23.518699884414673
met44.py
9.250767707824707
met440.py
22.815771102905273
met441.py
22.89125394821167
met442.py
22.822188138961792
met443.py
23.064055919647217
met444.py
23.045191287994385
met445.py
23.143993616104126
met446.py
22.85063600540161
met447.py
23.125696182250977
met448.py
23.07123112678528
met449.py
22.379835605621338
met45.py
9.387774229049683
met450.py
21.66524028778076
met451.py
21.515429496765137
met452.py
21.389294862747192
met453.py
22.05482244491577
met454.py
21.758469820022583
met455.py
21.256169080734253
met456.py
21.32616138458252
met457.py
21.273000240325928
met458.py
21.606021881103516
met459.py
21.313404083251953
met46.py
9.191479444503784
met460.py
21.884571075439453
met461.py
21.498327493667603
met462.py
21.773268461227417
met463.py
21.269043684005737
met464.py
21.563831567764282
met465.py
22.233821630477905
met466.py
21.48174476623535
met467.py
22.018126964569092
met468.py
21.216235160827637
met469.py
21.88757300376892
met47.py
9.345608711242676
met470.py
21.582435131072998
met471.py
21.71888279914856
met472.py
21.721134901046753
met473.py
21.55372405052185
met474.py
21.462562561035156
met475.py
22.037017107009888
met476.py
21.142910957336426
met477.py
21.521830558776855
met478.py
21.471922636032104
met479.py
22.107478141784668
met48.py
9.488871097564697
met480.py
21.476930141448975
met481.py
22.903094053268433
met482.py
23.19116473197937
met483.py
23.167920351028442
met484.py
23.187752723693848
met485.py
22.860373735427856
met486.py
23.171796321868896
met487.py
22.762527465820312
met488.py
24.037766933441162
met489.py
22.750274896621704
met49.py
9.271846532821655
met490.py
23.024412870407104
met491.py
23.04968547821045
met492.py
22.5936381816864
met493.py
23.028022050857544
met494.py
23.066242218017578
met495.py
23.606813430786133
met496.py
23.48352885246277
met497.py
22.83192801475525
met498.py
22.66798686981201
met499.py
22.97224736213684
met5.py
7.822530508041382
met50.py
9.825369119644165
met500.py
23.068439722061157
met501.py
22.52081036567688
met502.py
23.38316774368286
met503.py
23.277727842330933
met504.py
22.834144592285156
met505.py
23.84231209754944
met506.py
22.979074478149414
met507.py
23.32582926750183
met508.py
22.845619678497314
met509.py
22.95892024040222
met51.py
9.487861156463623
met510.py
22.89727783203125
met511.py
22.91973638534546
met512.py
23.65117645263672
met513.py
8.681063175201416
met514.py
8.694801807403564
met515.py
8.540073156356812
met516.py
8.472272157669067
met517.py
8.54594349861145
met518.py
8.628172874450684
met519.py
8.708542585372925
met52.py
9.355402946472168
met520.py
8.710896015167236
met521.py
8.752243041992188
met522.py
8.550772905349731
met523.py
8.529453754425049
met524.py
8.562491416931152
met525.py
8.435642719268799
met526.py
8.627779006958008
met527.py
8.5165696144104
met528.py
8.587817907333374
met529.py
8.729658842086792
met53.py
9.341314315795898
met530.py
8.671814918518066
met531.py
8.728691577911377
met532.py
8.822837352752686
met533.py
8.73099970817566
met534.py
8.653980493545532
met535.py
8.482162714004517
met536.py
8.48295783996582
met537.py
8.635523796081543
met538.py
8.804362297058105
met539.py
8.684756994247437
met54.py
9.3001868724823
met540.py
8.637611389160156
met541.py
9.2107572555542
met542.py
8.567422866821289
met543.py
8.667579889297485
met544.py
8.588248014450073
met545.py
10.075382232666016
met546.py
9.947357892990112
met547.py
10.16508150100708
met548.py
9.978219270706177
met549.py
10.225682973861694
met55.py
9.338217973709106
met550.py
10.355992794036865
met551.py
10.25281310081482
met552.py
9.94661569595337
met553.py
9.985281944274902
met554.py
10.05898404121399
met555.py
10.103906393051147
met556.py
9.992989301681519
met557.py
10.139981746673584
met558.py
10.419758796691895
met559.py
10.018436193466187
met56.py
9.212063312530518
met560.py
10.250301837921143
met561.py
10.022990703582764
met562.py
10.094651699066162
met563.py
10.091116189956665
met564.py
10.043590545654297
met565.py
10.0603666305542
met566.py
10.015835523605347
met567.py
10.164724111557007
met568.py
10.133203744888306
met569.py
10.50081181526184
met57.py
9.377490043640137
met570.py
10.07696008682251
met571.py
9.950849533081055
met572.py
10.06041431427002
met573.py
10.10265564918518
met574.py
9.994942426681519
met575.py
10.113844394683838
met576.py
10.041486978530884
met577.py
8.5449697971344
met578.py
8.616140604019165
met579.py
8.494964599609375
met58.py
9.344140529632568
met580.py
8.503653526306152
met581.py
8.593064308166504
met582.py
8.497906923294067
met583.py
8.612075805664062
met584.py
8.656583786010742
met585.py
8.543486595153809
met586.py
8.58938193321228
met587.py
8.594704866409302
met588.py
8.569533824920654
met589.py
8.43412470817566
met59.py
9.313816785812378
met590.py
8.496077537536621
met591.py
8.615833044052124
met592.py
8.70901107788086
met593.py
8.548024415969849
met594.py
8.829676389694214
met595.py
8.698111772537231
met596.py
8.745442390441895
met597.py
8.587834596633911
met598.py
9.303622484207153
met599.py
8.740378618240356
met6.py
7.814148187637329
met60.py
9.371240854263306
met600.py
8.610805749893188
met601.py
8.805861234664917
met602.py
8.704729557037354
met603.py
8.62108039855957
met604.py
8.644840478897095
met605.py
8.774624347686768
met606.py
8.590064764022827
met607.py
8.629993915557861
met608.py
8.71598219871521
met609.py
9.890798330307007
met61.py
9.342084407806396
met610.py
10.030754566192627
met611.py
10.208353996276855
met612.py
10.078768491744995
met613.py
9.855229616165161
met614.py
10.324658632278442
met615.py
9.967681407928467
met616.py
10.269956350326538
met617.py
9.944391965866089
met618.py
9.899259090423584
met619.py
9.991090774536133
met62.py
9.26678204536438
met620.py
9.849690914154053
met621.py
10.005813121795654
met622.py
10.219525337219238
met623.py
9.921480417251587
met624.py
10.159479856491089
met625.py
10.62299919128418
met626.py
9.985315799713135
met627.py
10.26242995262146
met628.py
10.027116060256958
met629.py
9.89642596244812
met63.py
9.307666301727295
met630.py
10.075090408325195
met631.py
10.075648307800293
met632.py
9.927476406097412
met633.py
10.310157537460327
met634.py
9.98970890045166
met635.py
10.150085926055908
met636.py
10.19623327255249
met637.py
10.034871101379395
met638.py
10.265771389007568
met639.py
9.97420334815979
met64.py
9.220863819122314
met640.py
10.29374098777771
met641.py
8.594905614852905
met642.py
8.762966394424438
met643.py
8.536654233932495
met644.py
8.537095069885254
met645.py
8.522499561309814
met646.py
8.637839555740356
met647.py
8.63204550743103
met648.py
8.622864484786987
met649.py
8.575249433517456
met65.py
7.891859292984009
met650.py
8.621406078338623
met651.py
8.721052885055542
met652.py
8.548367977142334
met653.py
9.147659301757812
met654.py
8.677939891815186
met655.py
8.65565037727356
met656.py
8.456609964370728
met657.py
8.571136236190796
met658.py
8.613412380218506
met659.py
8.74001431465149
met66.py
7.746772527694702
met660.py
8.693129062652588
met661.py
8.693193435668945
met662.py
8.790553331375122
met663.py
8.906692504882812
met664.py
8.699221134185791
met665.py
8.702245950698853
met666.py
8.492430210113525
met667.py
8.564131021499634
met668.py
8.620057821273804
met669.py
8.68259048461914
met67.py
7.7761595249176025
met670.py
8.624513864517212
met671.py
8.809795618057251
met672.py
8.542635917663574
met673.py
9.904613971710205
met674.py
10.149208545684814
met675.py
9.921585321426392
met676.py
10.283905982971191
met677.py
10.023184776306152
met678.py
10.100801944732666
met679.py
10.012097120285034
met68.py
7.857781410217285
met680.py
10.016083478927612
met681.py
10.03741979598999
met682.py
10.162885189056396
met683.py
10.333597421646118
met684.py
9.984602689743042
met685.py
10.015503168106079
met686.py
10.134075164794922
met687.py
10.183899641036987
met688.py
10.037503242492676
met689.py
10.40510606765747
met69.py
7.904704809188843
met690.py
10.217335224151611
met691.py
10.113953590393066
met692.py
10.076691150665283
met693.py
10.055808544158936
met694.py
10.31764006614685
met695.py
10.173877477645874
met696.py
9.959616899490356
met697.py
10.023046970367432
met698.py
10.359006643295288
met699.py
10.087907075881958
met7.py
7.650238752365112
met70.py
7.906826734542847
met700.py
10.156233787536621
met701.py
10.067819356918335
met702.py
10.318864822387695
met703.py
10.118366479873657
met704.py
10.162358522415161
met705.py
8.45339035987854
met706.py
8.648483276367188
met707.py
8.612157344818115
met708.py
8.51520586013794
met709.py
8.56363558769226
met71.py
8.483636856079102
met710.py
8.580416679382324
met711.py
8.663997411727905
met712.py
8.795757532119751
met713.py
8.60167407989502
met714.py
8.494438171386719
met715.py
8.66526985168457
met716.py
8.520238637924194
met717.py
8.616899251937866
met718.py
8.594555616378784
met719.py
8.57114291191101
met72.py
7.889813423156738
met720.py
8.504128694534302
met721.py
8.633721351623535
met722.py
8.648856163024902
met723.py
8.639853477478027
met724.py
8.677811622619629
met725.py
8.663102388381958
met726.py
8.694855213165283
met727.py
8.706180334091187
met728.py
8.71677041053772
met729.py
8.690324306488037
met73.py
7.730147123336792
met730.py
8.685544490814209
met731.py
8.601032495498657
met732.py
8.678829908370972
met733.py
8.849772930145264
met734.py
8.519994258880615
met735.py
8.734389781951904
met736.py
8.632666110992432
met737.py
9.994282007217407
met738.py
10.012491464614868
met739.py
9.926705121994019
met74.py
8.23177194595337
met740.py
10.228375673294067
met741.py
10.01176381111145
met742.py
10.043390035629272
met743.py
9.949241876602173
met744.py
10.051006317138672
met745.py
9.865327596664429
met746.py
9.957511186599731
met747.py
9.946342468261719
met748.py
10.02309274673462
met749.py
10.004812479019165
met75.py
7.885454893112183
met750.py
9.969901084899902
met751.py
10.071873188018799
met752.py
9.97839069366455
met753.py
10.126250267028809
met754.py
10.054698467254639
met755.py
10.07271432876587
met756.py
10.339815616607666
met757.py
10.04997706413269
met758.py
10.2020845413208
met759.py
10.008402585983276
met76.py
7.818720102310181
met760.py
10.105076551437378
met761.py
10.040817499160767
met762.py
10.015000581741333
met763.py
10.053468465805054
met764.py
10.085787296295166
met765.py
10.029301643371582
met766.py
10.031373739242554
met767.py
10.707650899887085
met768.py
10.263711214065552
met769.py
21.857590198516846
met77.py
7.756606101989746
met770.py
22.06096863746643
met771.py
21.990468740463257
met772.py
22.61165738105774
met773.py
22.36411476135254
met774.py
22.45935034751892
met775.py
22.280466318130493
met776.py
22.126282930374146
met777.py
22.741665601730347
met778.py
22.00698447227478
met779.py
22.554814100265503
met78.py
7.785510778427124
met780.py
22.904902696609497
met781.py
22.114833116531372
met782.py
22.150739669799805
met783.py
22.1150803565979
met784.py
22.46110248565674
met785.py
22.149843215942383
met786.py
22.470204830169678
met787.py
22.545698404312134
met788.py
22.51294183731079
met789.py
22.22685718536377
met79.py
7.896199703216553
met790.py
22.07870888710022
met791.py
22.024117708206177
met792.py
22.058242797851562
met793.py
22.62069296836853
met794.py
22.51207447052002
met795.py
22.09670352935791
met796.py
22.74719762802124
met797.py
22.1092631816864
met798.py
22.337997436523438
met799.py
22.82605218887329
met8.py
7.800608158111572
met80.py
7.824834823608398
met800.py
22.06629753112793
met801.py
23.672187089920044
met802.py
23.61400318145752
met803.py
23.606401681900024
met804.py
24.132616996765137
met805.py
23.660762548446655
met806.py
24.294891119003296
met807.py
23.741161823272705
met808.py
23.80899691581726
met809.py
23.944616556167603
met81.py
7.86643648147583
met810.py
24.161489963531494
met811.py
23.669719219207764
met812.py
23.653642177581787
met813.py
23.907259941101074
met814.py
24.439348697662354
met815.py
23.532745361328125
met816.py
23.601391315460205
met817.py
24.32784867286682
met818.py
24.728347778320312
met819.py
24.07407569885254
met82.py
7.849054574966431
met820.py
24.391703605651855
met821.py
23.8070707321167
met822.py
24.415613889694214
met823.py
23.595216751098633
met824.py
23.430827617645264
met825.py
24.0108003616333
met826.py
23.568917751312256
met827.py
23.499963998794556
met828.py
23.793261528015137
met829.py
24.077991485595703
met83.py
8.500564336776733
met830.py
23.66763997077942
met831.py
23.79061269760132
met832.py
23.440946102142334
met833.py
22.454920768737793
met834.py
22.644994020462036
met835.py
22.663978338241577
met836.py
22.048083305358887
met837.py
22.126298666000366
met838.py
22.227442979812622
met839.py
22.270580530166626
met84.py
7.873423099517822
met840.py
22.094805240631104
met841.py
22.332111120224
met842.py
22.73476791381836
met843.py
22.53626585006714
met844.py
21.9895920753479
met845.py
21.943877458572388
met846.py
22.111718893051147
met847.py
22.180052757263184
met848.py
22.255746603012085
met849.py
22.249945402145386
met85.py
7.832849025726318
met850.py
22.497801303863525
met851.py
22.455925941467285
met852.py
22.04519033432007
met853.py
22.08952760696411
met854.py
22.461720943450928
met855.py
23.384938716888428
met856.py
22.302181243896484
met857.py
23.05773425102234
met858.py
22.948930263519287
met859.py
22.69499111175537
met86.py
7.87745475769043
met860.py
22.72413921356201
met861.py
22.3661949634552
met862.py
22.047518253326416
met863.py
22.456579446792603
met864.py
22.603606939315796
met865.py
24.103121995925903
met866.py
23.708197355270386
met867.py
23.860376834869385
met868.py
24.24070167541504
met869.py
23.75072193145752
met87.py
8.029560804367065
met870.py
23.849519968032837
met871.py
23.9930362701416
met872.py
23.511356353759766
met873.py
23.588069677352905
met874.py
23.56925678253174
met875.py
23.633273601531982
met876.py
23.98775291442871
met877.py
24.158284425735474
met878.py
23.347676992416382
met879.py
23.302178621292114
met88.py
8.336579084396362
met880.py
23.854398012161255
met881.py
23.437886714935303
met882.py
24.510305166244507
met883.py
23.477853298187256
met884.py
23.390154361724854
met885.py
23.683897733688354
met886.py
23.672448873519897
met887.py
23.38264799118042
met888.py
23.722463607788086
met889.py
23.343276977539062
met89.py
8.018179655075073
met890.py
24.174322843551636
met891.py
23.572819471359253
met892.py
24.033081769943237
met893.py
23.73647403717041
met894.py
23.36190700531006
met895.py
23.677514791488647
met896.py
23.40384006500244
met897.py
22.207334280014038
met898.py
22.370244026184082
met899.py
22.469151973724365
met9.py
7.863198757171631
met90.py
7.903345584869385
met900.py
22.527587890625
met901.py
22.06701374053955
met902.py
22.069393634796143
met903.py
22.596802234649658
met904.py
23.031474828720093
met905.py
22.042186737060547
met906.py
22.31693744659424
met907.py
22.499271869659424
met908.py
22.022249460220337
met909.py
22.09122896194458
met91.py
7.840635299682617
met910.py
22.57363724708557
met911.py
22.126948595046997
met912.py
22.24087691307068
met913.py
22.012121200561523
met914.py
22.497057914733887
met915.py
22.206618547439575
met916.py
22.2180597782135
met917.py
22.612895011901855
met918.py
22.028282403945923
met919.py
22.511059999465942
met92.py
8.18464732170105
met920.py
22.417713165283203
met921.py
22.28392457962036
met922.py
22.469123601913452
met923.py
22.46582007408142
met924.py
22.509270429611206
met925.py
22.164668560028076
met926.py
22.394699096679688
met927.py
22.449837923049927
met928.py
22.279526948928833
met929.py
24.657101154327393
met93.py
8.396113872528076
met930.py
24.32520866394043
met931.py
23.34850025177002
met932.py
23.67937207221985
met933.py
23.589481115341187
met934.py
23.566163539886475
met935.py
23.848239183425903
met936.py
24.042837142944336
met937.py
23.805405616760254
met938.py
23.68474316596985
met939.py
23.551037311553955
met94.py
7.972877025604248
met940.py
23.071144580841064
met941.py
23.981834411621094
met942.py
23.727680206298828
met943.py
23.826177835464478
met944.py
23.7029709815979
met945.py
24.14439368247986
met946.py
23.705526113510132
met947.py
24.164193391799927
met948.py
24.0649836063385
met949.py
24.046793699264526
met95.py
7.906507730484009
met950.py
23.882630825042725
met951.py
23.48720669746399
met952.py
24.359878301620483
met953.py
23.62562131881714
met954.py
24.382761240005493
met955.py
23.5166757106781
met956.py
23.538110733032227
met957.py
23.93065595626831
met958.py
23.52443814277649
met959.py
23.965840339660645
met96.py
8.07693600654602
met960.py
23.491447925567627
met961.py
22.48906183242798
met962.py
22.56960439682007
met963.py
22.544475078582764
met964.py
23.107653379440308
met965.py
22.318177223205566
met966.py
23.025590419769287
met967.py
22.17633605003357
met968.py
22.492422342300415
met969.py
22.185413122177124
met97.py
9.295766830444336
met970.py
21.976285934448242
met971.py
22.66742706298828
met972.py
22.214118242263794
met973.py
22.719093084335327
met974.py
22.343818426132202
met975.py
22.736643075942993
met976.py
22.25411057472229
met977.py
22.180073738098145
met978.py
22.35697627067566
met979.py
22.787787675857544
met98.py
9.203633546829224
met980.py
22.666038751602173
met981.py
22.13025212287903
met982.py
22.181416749954224
met983.py
22.108107805252075
met984.py
22.32077932357788
met985.py
22.216346263885498
met986.py
22.47960662841797
met987.py
22.088080167770386
met988.py
22.007350206375122
met989.py
22.423683643341064
met99.py
9.517577409744263
met990.py
22.165043354034424
met991.py
22.745362520217896
met992.py
22.026374101638794
met993.py
24.305373191833496
met994.py
23.89270043373108
met995.py
23.625831365585327
met996.py
23.629990816116333
met997.py
23.743584394454956
met998.py
25.19005799293518
met999.py
23.530783653259277
pred_meteor_contest.py
2.676453113555908
met1.py
2.6192173957824707
met10.py
2.6032297611236572
met100.py
2.6798880100250244
met1000.py
2.7985754013061523
met1001.py
2.8075308799743652
met1002.py
2.772223711013794
met1003.py
2.802025556564331
met1004.py
2.782565116882324
met1005.py
2.7819440364837646
met1006.py
2.806666851043701
met1007.py
2.8050484657287598
met1008.py
2.8783013820648193
met1009.py
2.1886682510375977
met101.py
2.735570192337036
met1010.py
2.0892457962036133
met1011.py
2.119668960571289
met1012.py
2.0902328491210938
met1013.py
2.1309313774108887
met1014.py
2.1022815704345703
met1015.py
2.09309458732605
met1016.py
2.0804245471954346
met1017.py
2.083146810531616
met1018.py
2.128310203552246
met1019.py
2.156435489654541
met102.py
2.7500998973846436
met1020.py
2.0963406562805176
met1021.py
2.15487003326416
met1022.py
2.078089952468872
met1023.py
2.1125223636627197
met1024.py
2.1208040714263916
met103.py
2.7392404079437256
met104.py
2.8334124088287354
met105.py
2.684354782104492
met106.py
2.7934975624084473
met107.py
2.7165539264678955
met108.py
2.775938034057617
met109.py
2.731754779815674
met11.py
2.6039068698883057
met110.py
2.8177804946899414
met111.py
2.7384631633758545
met112.py
2.7363169193267822
met113.py
2.1023755073547363
met114.py
2.065167188644409
met115.py
2.069535493850708
met116.py
2.1572086811065674
met117.py
2.0517523288726807
met118.py
2.0288140773773193
met119.py
2.0695178508758545
met12.py
2.6235718727111816
met120.py
2.0725319385528564
met121.py
2.0735809803009033
met122.py
2.0752663612365723
met123.py
2.072873115539551
met124.py
2.135582447052002
met125.py
2.1316452026367188
met126.py
2.122570037841797
met127.py
2.077449083328247
met128.py
2.031036853790283
met129.py
2.619158983230591
met13.py
2.61985445022583
met130.py
2.596864938735962
met131.py
2.590912342071533
met132.py
2.634845733642578
met133.py
2.623661518096924
met134.py
2.5780718326568604
met135.py
2.8594255447387695
met136.py
2.6107497215270996
met137.py
2.6505796909332275
met138.py
2.6345107555389404
met139.py
2.5917980670928955
met14.py
2.64927077293396
met140.py
2.623056650161743
met141.py
2.609461545944214
met142.py
2.582089900970459
met143.py
2.5954456329345703
met144.py
2.6020336151123047
met145.py
1.9717950820922852
met146.py
2.003432273864746
met147.py
1.9401185512542725
met148.py
1.970900535583496
met149.py
1.9624757766723633
met15.py
2.5921223163604736
met150.py
1.9768016338348389
met151.py
2.1937899589538574
met152.py
1.9688818454742432
met153.py
2.0219547748565674
met154.py
1.9843487739562988
met155.py
1.9361226558685303
met156.py
1.9131405353546143
met157.py
1.9781291484832764
met158.py
1.9379513263702393
met159.py
1.9353134632110596
met16.py
2.6238834857940674
met160.py
1.9530315399169922
met161.py
2.804619789123535
met162.py
2.7696540355682373
met163.py
2.75057315826416
met164.py
2.7335968017578125
met165.py
2.7643282413482666
met166.py
2.6893351078033447
met167.py
2.7280797958374023
met168.py
2.7084288597106934
met169.py
2.765946626663208
met17.py
1.9488699436187744
met170.py
2.7211196422576904
met171.py
2.76656174659729
met172.py
2.7211666107177734
met173.py
2.7244930267333984
met174.py
2.7365024089813232
met175.py
2.7758851051330566
met176.py
2.828648090362549
met177.py
2.0981273651123047
met178.py
2.0578150749206543
met179.py
2.0424232482910156
met18.py
1.9424865245819092
met180.py
2.077423334121704
met181.py
2.0727527141571045
met182.py
2.062056064605713
met183.py
2.4872663021087646
met184.py
2.0780811309814453
met185.py
2.066260814666748
met186.py
2.09439754486084
met187.py
2.0542819499969482
met188.py
2.1002323627471924
met189.py
2.1416847705841064
met19.py
1.946864128112793
met190.py
2.118452310562134
met191.py
2.056112051010132
met192.py
2.0448312759399414
met193.py
2.635061025619507
met194.py
2.67671537399292
met195.py
2.6562507152557373
met196.py
2.618049383163452
met197.py
2.692030191421509
met198.py
2.6335015296936035
met199.py
2.604530096054077
met2.py
3.033609628677368
met20.py
1.9698750972747803
met200.py
2.607377529144287
met201.py
2.6307716369628906
met202.py
2.6077446937561035
met203.py
2.607727289199829
met204.py
2.5534591674804688
met205.py
2.6159403324127197
met206.py
2.6317498683929443
met207.py
2.593226432800293
met208.py
2.6323299407958984
met209.py
2.039146900177002
met21.py
1.9421427249908447
met210.py
1.9136412143707275
met211.py
1.9550094604492188
met212.py
1.9650909900665283
met213.py
1.9168281555175781
met214.py
1.9812395572662354
met215.py
1.889528751373291
met216.py
1.9620115756988525
met217.py
1.9543483257293701
met218.py
1.9417235851287842
met219.py
1.9731669425964355
met22.py
1.9647810459136963
met220.py
1.9164869785308838
met221.py
1.9215946197509766
met222.py
1.9725120067596436
met223.py
1.9382452964782715
met224.py
2.00335431098938
met225.py
2.7470204830169678
met226.py
2.727736473083496
met227.py
2.698268175125122
met228.py
2.7328097820281982
met229.py
2.710597515106201
met23.py
1.9273490905761719
met230.py
2.727461099624634
met231.py
2.7540907859802246
met232.py
2.891686201095581
met233.py
3.024479866027832
met234.py
2.6952974796295166
met235.py
2.7739155292510986
met236.py
2.7558488845825195
met237.py
2.7158212661743164
met238.py
2.7191531658172607
met239.py
2.773162364959717
met24.py
1.9283244609832764
met240.py
2.749847173690796
met241.py
2.059589385986328
met242.py
2.0763168334960938
met243.py
2.0686144828796387
met244.py
2.050631284713745
met245.py
2.062648296356201
met246.py
2.0364439487457275
met247.py
2.08541202545166
met248.py
2.0863256454467773
met249.py
2.055838108062744
met25.py
1.925177812576294
met250.py
2.093796491622925
met251.py
2.071040630340576
met252.py
2.06050443649292
met253.py
2.055039167404175
met254.py
2.0688469409942627
met255.py
2.084635019302368
met256.py
2.060309410095215
met257.py
2.6098124980926514
met258.py
2.6038923263549805
met259.py
2.615466833114624
met26.py
1.923764705657959
met260.py
2.6189918518066406
met261.py
2.6322319507598877
met262.py
2.6699492931365967
met263.py
2.5798487663269043
met264.py
2.611807107925415
met265.py
2.620372772216797
met266.py
2.6460354328155518
met267.py
2.5945193767547607
met268.py
2.6158018112182617
met269.py
2.5960137844085693
met27.py
1.9844448566436768
met270.py
2.6053030490875244
met271.py
2.6251180171966553
met272.py
2.6122231483459473
met273.py
1.9524929523468018
met274.py
1.924713134765625
met275.py
2.0039591789245605
met276.py
1.9316961765289307
met277.py
1.9274957180023193
met278.py
1.9593186378479004
met279.py
1.9316000938415527
met28.py
1.9721550941467285
met280.py
1.9762568473815918
met281.py
1.9374144077301025
met282.py
1.933511734008789
met283.py
1.9239234924316406
met284.py
1.9573357105255127
met285.py
1.9369158744812012
met286.py
1.9470934867858887
met287.py
1.9330623149871826
met288.py
1.915914535522461
met289.py
2.7627203464508057
met29.py
1.9512405395507812
met290.py
2.750040054321289
met291.py
2.7922332286834717
met292.py
2.729947328567505
met293.py
2.735891342163086
met294.py
2.8126180171966553
met295.py
2.7306625843048096
met296.py
2.745734453201294
met297.py
2.7043979167938232
met298.py
2.7637014389038086
met299.py
2.7700722217559814
met3.py
2.592986583709717
met30.py
1.9462733268737793
met300.py
2.7103025913238525
met301.py
2.7218005657196045
met302.py
2.7497498989105225
met303.py
2.746375560760498
met304.py
2.7629611492156982
met305.py
2.0685017108917236
met306.py
2.081709623336792
met307.py
2.0846757888793945
met308.py
2.044034957885742
met309.py
2.066958427429199
met31.py
1.930837869644165
met310.py
2.051351308822632
met311.py
2.0676727294921875
met312.py
2.025952100753784
met313.py
2.0649476051330566
met314.py
2.0397212505340576
met315.py
2.353769063949585
met316.py
2.094754934310913
met317.py
2.066091775894165
met318.py
2.0649099349975586
met319.py
2.05383038520813
met32.py
1.93975830078125
met320.py
2.0724375247955322
met321.py
2.5986576080322266
met322.py
2.6411635875701904
met323.py
2.6845943927764893
met324.py
2.6171200275421143
met325.py
2.6179990768432617
met326.py
2.65246844291687
met327.py
2.6397552490234375
met328.py
2.6101574897766113
met329.py
2.730515718460083
met33.py
2.7246851921081543
met330.py
2.644026041030884
met331.py
2.623436450958252
met332.py
2.598151206970215
met333.py
2.647873640060425
met334.py
2.594797372817993
met335.py
2.624920129776001
met336.py
2.638848304748535
met337.py
1.9986116886138916
met338.py
1.9888648986816406
met339.py
1.9259586334228516
met34.py
2.729444980621338
met340.py
1.9392013549804688
met341.py
1.9421207904815674
met342.py
2.000624179840088
met343.py
1.9547276496887207
met344.py
1.9636690616607666
met345.py
1.9329607486724854
met346.py
1.9357011318206787
met347.py
1.898371934890747
met348.py
1.9592273235321045
met349.py
1.9485409259796143
met35.py
2.7375118732452393
met350.py
1.9259817600250244
met351.py
2.0547876358032227
met352.py
1.941908836364746
met353.py
2.7248694896698
met354.py
2.726545572280884
met355.py
2.710254669189453
met356.py
2.7288289070129395
met357.py
2.728156328201294
met358.py
2.730562686920166
met359.py
2.7629234790802
met36.py
2.749781847000122
met360.py
2.6857616901397705
met361.py
2.742166757583618
met362.py
2.7572293281555176
met363.py
2.7374427318573
met364.py
2.7685582637786865
met365.py
2.694719076156616
met366.py
2.728846311569214
met367.py
2.7860937118530273
met368.py
2.728869676589966
met369.py
2.055285930633545
met37.py
2.773020029067993
met370.py
2.10825252532959
met371.py
2.0624709129333496
met372.py
2.100405216217041
met373.py
2.0383472442626953
met374.py
2.1279847621917725
met375.py
2.1186225414276123
met376.py
2.1191484928131104
met377.py
2.068615674972534
met378.py
2.1276419162750244
met379.py
2.046926259994507
met38.py
2.752572774887085
met380.py
2.0759716033935547
met381.py
2.0476675033569336
met382.py
2.036816358566284
met383.py
2.0902292728424072
met384.py
2.0681867599487305
met385.py
2.600545883178711
met386.py
2.5912485122680664
met387.py
2.6181187629699707
met388.py
2.6071341037750244
met389.py
2.6584272384643555
met39.py
2.7454833984375
met390.py
2.640530824661255
met391.py
2.6179463863372803
met392.py
2.6227498054504395
met393.py
2.597094774246216
met394.py
2.6299192905426025
met395.py
2.600334644317627
met396.py
3.08186411857605
met397.py
2.594186782836914
met398.py
2.5924196243286133
met399.py
2.5981013774871826
met4.py
2.6037158966064453
met40.py
2.7693569660186768
met400.py
2.594167947769165
met401.py
1.9765968322753906
met402.py
1.9839284420013428
met403.py
1.9462578296661377
met404.py
1.9640023708343506
met405.py
1.9314565658569336
met406.py
1.9741630554199219
met407.py
1.97493577003479
met408.py
1.9761369228363037
met409.py
1.9512128829956055
met41.py
2.7426698207855225
met410.py
1.9474639892578125
met411.py
1.9757189750671387
met412.py
1.9854722023010254
met413.py
1.940033197402954
met414.py
1.9462664127349854
met415.py
1.9389796257019043
met416.py
1.9304041862487793
met417.py
2.718762159347534
met418.py
2.699683427810669
met419.py
2.7770426273345947
met42.py
2.6981041431427
met420.py
2.7511472702026367
met421.py
2.760077476501465
met422.py
2.7279813289642334
met423.py
2.757464647293091
met424.py
2.7494771480560303
met425.py
2.735452175140381
met426.py
2.7630820274353027
met427.py
2.7265706062316895
met428.py
2.7587647438049316
met429.py
2.7201223373413086
met43.py
2.72344970703125
met430.py
2.820312023162842
met431.py
2.7483410835266113
met432.py
2.8533310890197754
met433.py
2.0456326007843018
met434.py
2.1081454753875732
met435.py
2.160980224609375
met436.py
2.0827951431274414
met437.py
2.085688352584839
met438.py
2.1188788414001465
met439.py
2.055870532989502
met44.py
2.7347781658172607
met440.py
2.0419812202453613
met441.py
2.0667433738708496
met442.py
2.056450366973877
met443.py
2.0353305339813232
met444.py
2.0851845741271973
met445.py
2.026693344116211
met446.py
2.0860257148742676
met447.py
2.064530611038208
met448.py
2.072875738143921
met449.py
2.627784013748169
met45.py
2.753305673599243
met450.py
2.6169273853302
met451.py
2.6679799556732178
met452.py
2.590921401977539
met453.py
2.550809383392334
met454.py
2.6256399154663086
met455.py
2.667395830154419
met456.py
2.5637476444244385
met457.py
2.606917142868042
met458.py
2.5849902629852295
met459.py
2.627507448196411
met46.py
2.7555127143859863
met460.py
2.619899272918701
met461.py
2.6352431774139404
met462.py
2.593264102935791
met463.py
2.6044669151306152
met464.py
2.6167097091674805
met465.py
1.942446231842041
met466.py
1.9389328956604004
met467.py
2.0006070137023926
met468.py
1.9558241367340088
met469.py
1.9445688724517822
met47.py
2.7263240814208984
met470.py
1.9684526920318604
met471.py
1.935743808746338
met472.py
1.9289958477020264
met473.py
1.9420390129089355
met474.py
2.016659736633301
met475.py
1.9549615383148193
met476.py
1.9939525127410889
met477.py
1.9888889789581299
met478.py
2.2798938751220703
met479.py
1.9379096031188965
met48.py
2.7103025913238525
met480.py
1.9496486186981201
met481.py
2.7484984397888184
met482.py
2.747119426727295
met483.py
2.7330031394958496
met484.py
2.723747491836548
met485.py
2.7994701862335205
met486.py
2.732045888900757
met487.py
2.7508292198181152
met488.py
2.7411582469940186
met489.py
2.772785186767578
met49.py
2.141479015350342
met490.py
2.743023633956909
met491.py
2.703615188598633
met492.py
2.780032157897949
met493.py
2.6882739067077637
met494.py
2.70585036277771
met495.py
2.73252010345459
met496.py
2.7962985038757324
met497.py
2.0766048431396484
met498.py
2.1167380809783936
met499.py
2.055703639984131
met5.py
2.636772871017456
met50.py
2.0766992568969727
met500.py
2.141498327255249
met501.py
2.043800115585327
met502.py
2.118664264678955
met503.py
2.0795297622680664
met504.py
2.1098625659942627
met505.py
2.047527551651001
met506.py
2.0985875129699707
met507.py
2.074615001678467
met508.py
2.1283977031707764
met509.py
2.0742461681365967
met51.py
2.111154317855835
met510.py
2.059650182723999
met511.py
2.0913565158843994
met512.py
2.1162729263305664
met513.py
2.673872470855713
met514.py
2.79685115814209
met515.py
2.6920008659362793
met516.py
2.6757278442382812
met517.py
2.6576027870178223
met518.py
2.6693265438079834
met519.py
2.637927532196045
met52.py
2.0828235149383545
met520.py
2.685934066772461
met521.py
2.68879771232605
met522.py
2.660048723220825
met523.py
2.658967971801758
met524.py
2.6695098876953125
met525.py
2.6665334701538086
met526.py
2.6768136024475098
met527.py
2.643785238265991
met528.py
2.6314492225646973
met529.py
1.9915590286254883
met53.py
2.0930368900299072
met530.py
2.0043416023254395
met531.py
2.011883020401001
met532.py
2.0011513233184814
met533.py
1.990382432937622
met534.py
2.0751469135284424
met535.py
1.9740324020385742
met536.py
1.994293451309204
met537.py
2.006767511367798
met538.py
1.98838472366333
met539.py
2.0099494457244873
met54.py
2.046982526779175
met540.py
2.07083797454834
met541.py
1.9480891227722168
met542.py
1.9968633651733398
met543.py
1.9849531650543213
met544.py
1.9680976867675781
met545.py
2.75634503364563
met546.py
2.8364369869232178
met547.py
2.7869150638580322
met548.py
2.7634358406066895
met549.py
2.789562702178955
met55.py
2.061530590057373
met550.py
2.802072286605835
met551.py
2.9257924556732178
met552.py
2.7890655994415283
met553.py
2.773287296295166
met554.py
2.8040213584899902
met555.py
2.76493501663208
met556.py
2.7765285968780518
met557.py
2.7540080547332764
met558.py
3.1980667114257812
met559.py
2.7745871543884277
met56.py
2.066756010055542
met560.py
2.7927050590515137
met561.py
2.0931596755981445
met562.py
2.1152050495147705
met563.py
2.1828949451446533
met564.py
2.088867425918579
met565.py
2.145677089691162
met566.py
2.1107561588287354
met567.py
2.1388051509857178
met568.py
2.087533950805664
met569.py
2.088261127471924
met57.py
2.081727981567383
met570.py
2.1214113235473633
met571.py
2.141232967376709
met572.py
2.1245789527893066
met573.py
2.0807583332061768
met574.py
2.1359407901763916
met575.py
2.1132688522338867
met576.py
2.104689121246338
met577.py
2.695225954055786
met578.py
2.6689646244049072
met579.py
2.655719757080078
met58.py
2.0654585361480713
met580.py
2.6795551776885986
met581.py
2.655418872833252
met582.py
2.6598992347717285
met583.py
2.6294853687286377
met584.py
2.6700029373168945
met585.py
2.671814203262329
met586.py
2.635958194732666
met587.py
2.6722490787506104
met588.py
2.6652650833129883
met589.py
2.7631804943084717
met59.py
2.068847417831421
met590.py
2.6699576377868652
met591.py
2.654927968978882
met592.py
2.6800482273101807
met593.py
2.014939069747925
met594.py
1.9815139770507812
met595.py
2.0344715118408203
met596.py
2.0059072971343994
met597.py
2.0184597969055176
met598.py
2.0451114177703857
met599.py
1.9911575317382812
met6.py
2.667142629623413
met60.py
2.0649423599243164
met600.py
1.9841816425323486
met601.py
2.0362658500671387
met602.py
1.9640002250671387
met603.py
1.978869915008545
met604.py
1.9704220294952393
met605.py
1.9678397178649902
met606.py
1.979875087738037
met607.py
1.965550422668457
met608.py
2.0056405067443848
met609.py
2.8001201152801514
met61.py
2.073629140853882
met610.py
2.815260171890259
met611.py
2.7791152000427246
met612.py
2.813298463821411
met613.py
2.7919161319732666
met614.py
2.833664655685425
met615.py
2.7810864448547363
met616.py
2.7693936824798584
met617.py
2.7693724632263184
met618.py
2.818255662918091
met619.py
2.7925028800964355
met62.py
2.0736136436462402
met620.py
2.7574446201324463
met621.py
2.779531240463257
met622.py
2.854825496673584
met623.py
2.8065717220306396
met624.py
2.7802329063415527
met625.py
2.1157422065734863
met626.py
2.1368491649627686
met627.py
2.1066269874572754
met628.py
2.1004891395568848
met629.py
2.0938074588775635
met63.py
2.062542200088501
met630.py
2.092052698135376
met631.py
2.105978488922119
met632.py
2.0959324836730957
met633.py
2.124833345413208
met634.py
2.1435022354125977
met635.py
2.1701278686523438
met636.py
2.100750684738159
met637.py
2.094548463821411
met638.py
2.0769784450531006
met639.py
2.224947452545166
met64.py
2.4709360599517822
met640.py
2.167732000350952
met641.py
2.6740036010742188
met642.py
2.692444086074829
met643.py
2.6699740886688232
met644.py
2.717637777328491
met645.py
2.7005722522735596
met646.py
2.670750141143799
met647.py
2.745357036590576
met648.py
2.6379120349884033
met649.py
2.7046358585357666
met65.py
2.611499309539795
met650.py
2.6620166301727295
met651.py
2.7348361015319824
met652.py
2.6462483406066895
met653.py
2.7515013217926025
met654.py
2.6735215187072754
met655.py
2.6915204524993896
met656.py
2.656168222427368
met657.py
1.9746582508087158
met658.py
2.005979299545288
met659.py
1.9997484683990479
met66.py
2.6238927841186523
met660.py
1.9916751384735107
met661.py
2.002110719680786
met662.py
1.9604508876800537
met663.py
1.9502832889556885
met664.py
2.0734543800354004
met665.py
2.057488441467285
met666.py
2.007204294204712
met667.py
2.0021188259124756
met668.py
1.9912569522857666
met669.py
1.9686450958251953
met67.py
2.631927967071533
met670.py
2.013181209564209
met671.py
2.0042686462402344
met672.py
1.9940621852874756
met673.py
2.8694303035736084
met674.py
2.7995855808258057
met675.py
2.788907766342163
met676.py
2.799269437789917
met677.py
2.854983329772949
met678.py
2.819800853729248
met679.py
2.866208076477051
met68.py
2.666654109954834
met680.py
2.7978909015655518
met681.py
2.8151485919952393
met682.py
2.8297102451324463
met683.py
2.7726144790649414
met684.py
2.747188091278076
met685.py
2.747246265411377
met686.py
2.8615200519561768
met687.py
2.7613556385040283
met688.py
2.7622768878936768
met689.py
2.187812089920044
met69.py
2.675034523010254
met690.py
2.0995771884918213
met691.py
2.085005521774292
met692.py
2.0834813117980957
met693.py
2.1500203609466553
met694.py
2.1316752433776855
met695.py
2.1322786808013916
met696.py
2.1052329540252686
met697.py
2.104832649230957
met698.py
2.0790157318115234
met699.py
2.0763561725616455
met7.py
2.5826985836029053
met70.py
2.591221332550049
met700.py
2.1075727939605713
met701.py
2.129040002822876
met702.py
2.213400363922119
met703.py
2.0968611240386963
met704.py
2.217970848083496
met705.py
2.704954147338867
met706.py
2.668757677078247
met707.py
2.6746559143066406
met708.py
2.6652092933654785
met709.py
2.709940195083618
met71.py
2.6002907752990723
met710.py
2.6963281631469727
met711.py
2.6796610355377197
met712.py
2.65602707862854
met713.py
2.6794629096984863
met714.py
2.6453185081481934
met715.py
2.6512341499328613
met716.py
2.6712963581085205
met717.py
2.6664164066314697
met718.py
2.839966297149658
met719.py
2.864786386489868
met72.py
2.641631603240967
met720.py
2.6722896099090576
met721.py
2.0296435356140137
met722.py
1.9782869815826416
met723.py
1.9986324310302734
met724.py
1.9801266193389893
met725.py
1.9984943866729736
met726.py
2.033186197280884
met727.py
2.000399589538574
met728.py
1.9793729782104492
met729.py
1.9800658226013184
met73.py
2.6085925102233887
met730.py
1.9752357006072998
met731.py
1.9808573722839355
met732.py
1.973435878753662
met733.py
2.0860719680786133
met734.py
1.98814058303833
met735.py
1.982710838317871
met736.py
2.012681245803833
met737.py
2.743724822998047
met738.py
2.774339437484741
met739.py
2.770423650741577
met74.py
2.641923666000366
met740.py
2.7328131198883057
met741.py
2.763122320175171
met742.py
2.779261350631714
met743.py
2.779210329055786
met744.py
2.7461819648742676
met745.py
2.7876689434051514
met746.py
2.749393939971924
met747.py
2.8056585788726807
met748.py
2.7878806591033936
met749.py
2.7305872440338135
met75.py
2.592301368713379
met750.py
2.7737600803375244
met751.py
2.7633755207061768
met752.py
2.828763484954834
met753.py
2.1723132133483887
met754.py
2.104449510574341
met755.py
2.161437749862671
met756.py
2.099313497543335
met757.py
2.1298069953918457
met758.py
2.170511484146118
met759.py
2.1111085414886475
met76.py
2.600569248199463
met760.py
2.1218745708465576
met761.py
2.0929009914398193
met762.py
2.1376426219940186
met763.py
2.1236629486083984
met764.py
2.1136765480041504
met765.py
2.094707489013672
met766.py
2.1136817932128906
met767.py
2.1177306175231934
met768.py
2.0984137058258057
met769.py
2.6509478092193604
met77.py
2.617391586303711
met770.py
2.639648675918579
met771.py
2.6546072959899902
met772.py
2.6507747173309326
met773.py
2.6928842067718506
met774.py
2.7002010345458984
met775.py
2.759779691696167
met776.py
2.661142349243164
met777.py
2.650150775909424
met778.py
2.697916030883789
met779.py
2.677717924118042
met78.py
2.6228878498077393
met780.py
2.7436814308166504
met781.py
2.6444523334503174
met782.py
2.6509454250335693
met783.py
2.6428797245025635
met784.py
2.627423048019409
met785.py
1.9813189506530762
met786.py
2.0330817699432373
met787.py
2.0134379863739014
met788.py
2.004927158355713
met789.py
1.9708161354064941
met79.py
2.612006664276123
met790.py
1.9850537776947021
met791.py
2.0282483100891113
met792.py
2.0297129154205322
met793.py
2.0016965866088867
met794.py
1.9924795627593994
met795.py
1.9875719547271729
met796.py
1.9942374229431152
met797.py
1.991302490234375
met798.py
1.9524800777435303
met799.py
1.9820492267608643
met8.py
2.6415562629699707
met80.py
3.038055181503296
met800.py
1.9832696914672852
met801.py
2.7637481689453125
met802.py
2.784836530685425
met803.py
2.799490213394165
met804.py
2.770371913909912
met805.py
2.818981647491455
met806.py
2.8199760913848877
met807.py
2.8153889179229736
met808.py
2.8365349769592285
met809.py
2.8098909854888916
met81.py
1.9736192226409912
met810.py
2.782935857772827
met811.py
2.7454137802124023
met812.py
2.8592069149017334
met813.py
2.822047472000122
met814.py
2.7493348121643066
met815.py
2.761945962905884
met816.py
2.765467882156372
met817.py
2.126286029815674
met818.py
2.097892999649048
met819.py
2.1246705055236816
met82.py
1.9595811367034912
met820.py
2.0990238189697266
met821.py
2.072326183319092
met822.py
2.0911061763763428
met823.py
2.0937790870666504
met824.py
2.1147563457489014
met825.py
2.1222305297851562
met826.py
2.0897345542907715
met827.py
2.0835814476013184
met828.py
2.153970718383789
met829.py
2.1649367809295654
met83.py
1.9508183002471924
met830.py
2.1181256771087646
met831.py
2.111438512802124
met832.py
2.158742904663086
met833.py
2.7703304290771484
met834.py
2.740985870361328
met835.py
2.7018890380859375
met836.py
2.6326425075531006
met837.py
2.638906478881836
met838.py
2.6766743659973145
met839.py
2.6807069778442383
met84.py
1.9308245182037354
met840.py
2.6101510524749756
met841.py
2.6834816932678223
met842.py
2.655421257019043
met843.py
2.6583313941955566
met844.py
2.6585662364959717
met845.py
2.6626133918762207
met846.py
2.6462934017181396
met847.py
2.6806962490081787
met848.py
2.6553683280944824
met849.py
2.006706953048706
met85.py
1.9996998310089111
met850.py
1.982372522354126
met851.py
1.9660451412200928
met852.py
1.9992527961730957
met853.py
1.9958245754241943
met854.py
2.0397298336029053
met855.py
1.9660468101501465
met856.py
2.074089765548706
met857.py
1.9633128643035889
met858.py
1.9706783294677734
met859.py
1.9781184196472168
met86.py
1.9659249782562256
met860.py
2.0991532802581787
met861.py
1.9805335998535156
met862.py
1.9915151596069336
met863.py
1.989335298538208
met864.py
2.021634101867676
met865.py
2.769190549850464
met866.py
2.802670955657959
met867.py
2.755643367767334
met868.py
2.7945141792297363
met869.py
2.8429806232452393
met87.py
1.9964804649353027
met870.py
2.806473970413208
met871.py
2.7886476516723633
met872.py
2.76013445854187
met873.py
2.7763359546661377
met874.py
2.7338876724243164
met875.py
2.7672994136810303
met876.py
2.8170483112335205
met877.py
2.7385902404785156
met878.py
2.7836110591888428
met879.py
2.7484421730041504
met88.py
2.0458242893218994
met880.py
3.1822400093078613
met881.py
2.108858108520508
met882.py
2.0879595279693604
met883.py
2.088937997817993
met884.py
2.1572515964508057
met885.py
2.07790470123291
met886.py
2.121096134185791
met887.py
2.1364336013793945
met888.py
2.1121084690093994
met889.py
2.1011383533477783
met89.py
2.0047659873962402
met890.py
2.11997652053833
met891.py
2.1264257431030273
met892.py
2.212653160095215
met893.py
2.13389253616333
met894.py
2.1079795360565186
met895.py
2.1578493118286133
met896.py
2.110860824584961
met897.py
2.6887736320495605
met898.py
2.6746177673339844
met899.py
2.7032153606414795
met9.py
2.6013669967651367
met90.py
1.9562363624572754
met900.py
2.661180257797241
met901.py
2.65975284576416
met902.py
2.645831823348999
met903.py
2.696542739868164
met904.py
2.692000150680542
met905.py
2.6689796447753906
met906.py
2.6503944396972656
met907.py
2.68011212348938
met908.py
2.6680028438568115
met909.py
2.657883882522583
met91.py
1.9333109855651855
met910.py
2.6503515243530273
met911.py
2.6597516536712646
met912.py
2.660656452178955
met913.py
1.996157169342041
met914.py
1.987816333770752
met915.py
2.0267367362976074
met916.py
1.998283863067627
met917.py
1.990044116973877
met918.py
2.0628461837768555
met919.py
1.993910312652588
met92.py
1.9643828868865967
met920.py
1.9920811653137207
met921.py
2.066790819168091
met922.py
2.055824041366577
met923.py
2.034977436065674
met924.py
1.9821696281433105
met925.py
1.9737145900726318
met926.py
1.9781572818756104
met927.py
2.0208280086517334
met928.py
1.9865548610687256
met929.py
2.848054885864258
met93.py
2.011261463165283
met930.py
2.8410682678222656
met931.py
2.772827625274658
met932.py
2.78241229057312
met933.py
2.9013497829437256
met934.py
2.785128355026245
met935.py
2.7896342277526855
met936.py
2.8153069019317627
met937.py
2.778287649154663
met938.py
2.8322198390960693
met939.py
2.767925262451172
met94.py
2.0397825241088867
met940.py
2.8738107681274414
met941.py
2.7644758224487305
met942.py
2.774657726287842
met943.py
2.7630209922790527
met944.py
2.7945356369018555
met945.py
2.114372491836548
met946.py
2.1307671070098877
met947.py
2.101958751678467
met948.py
2.0998661518096924
met949.py
2.136549472808838
met95.py
1.942481279373169
met950.py
2.11932373046875
met951.py
2.1809699535369873
met952.py
2.1941840648651123
met953.py
2.099543333053589
met954.py
2.116893768310547
met955.py
2.128680944442749
met956.py
2.1187076568603516
met957.py
2.1245174407958984
met958.py
2.084061622619629
met959.py
2.1331355571746826
met96.py
1.9693608283996582
met960.py
2.091134786605835
met961.py
2.7363133430480957
met962.py
3.0739431381225586
met963.py
2.6731045246124268
met964.py
2.696275472640991
met965.py
2.7840590476989746
met966.py
2.7311482429504395
met967.py
2.680938959121704
met968.py
2.6689608097076416
met969.py
2.6600441932678223
met97.py
2.727783679962158
met970.py
2.6675806045532227
met971.py
2.6590542793273926
met972.py
2.656921148300171
met973.py
2.6455631256103516
met974.py
2.639181137084961
met975.py
2.7275166511535645
met976.py
2.6776161193847656
met977.py
2.0241076946258545
met978.py
1.988757610321045
met979.py
2.0185723304748535
met98.py
2.7215967178344727
met980.py
2.023616075515747
met981.py
1.9719278812408447
met982.py
1.9967613220214844
met983.py
2.03288197517395
met984.py
1.9823918342590332
met985.py
1.9643609523773193
met986.py
1.9870307445526123
met987.py
2.028773546218872
met988.py
1.9767370223999023
met989.py
2.0472571849823
met99.py
2.7178235054016113
met990.py
1.9752068519592285
met991.py
2.0042731761932373
met992.py
2.051950216293335
met993.py
2.7726328372955322
met994.py
2.776746988296509
met995.py
2.776794672012329
met996.py
2.7668519020080566
met997.py
2.7358932495117188
met998.py
2.7839701175689697
met999.py
2.7768163681030273
