pred_pi.py/pi10.py
2.2978262901306152
pi1.py
6.142367839813232
pi11.py
6.5394532680511475
pi12.py
2.305671215057373
pi13.py
4.580989360809326
pi14.py
4.607281684875488
pi15.py
6.4617955684661865
pi16.py
6.1516523361206055
pi2.py
8.364001989364624
pi3.py
6.138010501861572
pi4.py
9.969004392623901
pi5.py
9.932487726211548
pi6.py
10.428274154663086
pi7.py
6.200743198394775
pi8.py
10.513189315795898
pi9.py
8.427430152893066

